@id,@lat,@lon
10714936,49.4472183,14.6707231
10714937,49.4445756,14.6730394
10714938,49.4422293,14.6768514
290316834,49.4434975,14.6745107
290316838,49.4417548,14.6780325
290316853,49.4454892,14.6720571
1345731425,49.4440220,14.6737454
1345731429,49.4428119,14.6756679
1345731437,49.4462299,14.6714124
1345731440,49.4467192,14.6710441
1821500590,49.4381649,14.6879443
248183081,49.4418553,14.6780874
248183082,49.4423327,14.6769393
248183083,49.4436091,14.6745782
248183084,49.4446333,14.6731790
248183085,49.4455363,14.6722230
248183086,49.4472698,14.6708934
1345731421,49.4462721,14.6715703
1345731446,49.4429100,14.6757591
1345731454,49.4467693,14.6712002
1345731458,49.4441064,14.6738436
1821500591,49.4383949,14.6876473
248183087,49.4487557,14.6701078
248183088,49.4511156,14.6692268
248183089,49.4600533,14.6660850
248183090,49.4621073,14.6651887
976485295,49.4477543,14.6706041
1345731450,49.4555872,14.6676663
1503687524,49.4496261,14.6697575
1503687526,49.4580225,14.6668292
1503687528,49.4611611,14.6656260
1503687530,49.4637406,14.6643376
1503687533,49.4653466,14.6634196
1503687535,49.4670208,14.6624314
3647915751,49.4659581,14.6630587
3647915753,49.4685568,14.6615754
10714934,49.4620638,14.6650251
10714935,49.4510915,14.6690418
290316844,49.4487817,14.6699245
290316867,49.4600040,14.6659246
976485300,49.4477194,14.6704375
1345731416,49.4555473,14.6675049
1503687523,49.4496022,14.6695862
1503687525,49.4579960,14.6666599
1503687527,49.4610723,14.6654853
1503687529,49.4636823,14.6641875
1503687532,49.4653254,14.6632442
1503687534,49.4669747,14.6622750
3647915750,49.4659214,14.6628940
3647915752,49.4676143,14.6619183
248183086,49.4472698,14.6708934
976485295,49.4477543,14.6706041
10714936,49.4472183,14.6707231
976485300,49.4477194,14.6704375
248183107,49.5070237,14.6659559
248183108,49.5110080,14.6685576
248183109,49.5135668,14.6698783
248183110,49.5154556,14.6705331
248183111,49.5174558,14.6708157
248183112,49.5186321,14.6707544
248183113,49.5199479,14.6705287
248183114,49.5210175,14.6701832
248183115,49.5220693,14.6697059
658860679,49.5048542,14.6643626
658861036,49.5190993,14.6706917
658861047,49.5195810,14.6706071
1351947552,49.5059718,14.6652192
1351947558,49.5089529,14.6672803
1351947562,49.5099264,14.6679269
1351947566,49.5122226,14.6692255
1351947583,49.5159687,14.6706625
1351947587,49.5165157,14.6707541
1351947590,49.5169741,14.6707980
1351947592,49.5181734,14.6708181
1351947604,49.5205499,14.6703556
1351947606,49.5215446,14.6699671
1503687704,49.5128963,14.6695705
1503687706,49.5145165,14.6702419
1503687709,49.5227055,14.6693500
1503687711,49.5233644,14.6689220
2380997209,49.5245098,14.6680915
3647467806,49.5066121,14.6656676
248183140,49.5219647,14.6695908
248183141,49.5210468,14.6699987
248183142,49.5199402,14.6703550
248183143,49.5186751,14.6705838
248183144,49.5174375,14.6706199
248183145,49.5154885,14.6703532
248183146,49.5136243,14.6696927
248183147,49.5110423,14.6683985
248183149,49.5070641,14.6657951
658860681,49.5048841,14.6641863
658861037,49.5190446,14.6705279
658861046,49.5195058,14.6704552
1351947556,49.5060158,14.6650497
1351947561,49.5089933,14.6671222
1351947564,49.5099796,14.6677744
1351947568,49.5122740,14.6690674
1351947577,49.5159746,14.6704550
1351947585,49.5164193,14.6705327
1351947589,49.5169284,14.6705887
1351947591,49.5180429,14.6706248
1351947595,49.5205428,14.6701767
1351947605,49.5215071,14.6698099
1503687705,49.5129449,14.6693893
1503687707,49.5145460,14.6700760
1503687708,49.5226543,14.6691975
1503687710,49.5233175,14.6687642
2380997202,49.5244521,14.6679433
3647467807,49.5066501,14.6655007
248183092,49.4697067,14.6610246
248183093,49.4719851,14.6603185
248183094,49.4737035,14.6600753
248183095,49.4753795,14.6600756
567934772,49.4707500,14.6606448
1503687542,49.4692257,14.6612524
1503687558,49.4701874,14.6608323
1503687570,49.4712859,14.6604854
1503687574,49.4728431,14.6601674
1503687578,49.4745060,14.6600417
1503687593,49.4763528,14.6601649
1503687598,49.4771654,14.6602856
10714932,49.4697051,14.6608520
248183162,49.4753465,14.6598897
248183163,49.4737045,14.6599023
290316861,49.4719550,14.6601471
567934775,49.4707077,14.6604810
1503687536,49.4687394,14.6612998
1503687541,49.4692095,14.6610716
1503687559,49.4702032,14.6606519
1503687569,49.4712558,14.6603190
1503687573,49.4728419,14.6599973
1503687579,49.4745253,14.6598660
1503687592,49.4763018,14.6599767
1503687599,49.4772311,14.6600896
248183091,49.4686325,14.6615332
1503687542,49.4692257,14.6612524
3647915753,49.4685568,14.6615754
10714933,49.4685844,14.6613773
1503687536,49.4687394,14.6612998
3647915752,49.4676143,14.6619183
248183160,49.4819517,14.6603864
471832738,49.4833240,14.6603072
1182689350,49.4811777,14.6603988
1345731447,49.4826119,14.6603586
248183097,49.4819828,14.6605663
471832737,49.4833468,14.6604864
1182689376,49.4811867,14.6605768
1345731431,49.4826330,14.6605377
1503687598,49.4771654,14.6602856
2929097741,49.4783428,14.6604237
3647915799,49.4791112,14.6604958
248183161,49.4794155,14.6603202
1182689350,49.4811777,14.6603988
3647915798,49.4780253,14.6601734
1503687599,49.4772311,14.6600896
3647915798,49.4780253,14.6601734
248183096,49.4794103,14.6605238
1182689376,49.4811867,14.6605768
2929097744,49.4802951,14.6605610
3647915799,49.4791112,14.6604958
248183159,49.4839071,14.6602479
471832738,49.4833240,14.6603072
1182689370,49.4855084,14.6600093
1345731459,49.4847328,14.6601394
248183158,49.4859927,14.6599065
1182689370,49.4855084,14.6600093
248183099,49.4859311,14.6600978
1182689372,49.4854456,14.6601913
248183098,49.4839166,14.6604214
471832737,49.4833468,14.6604864
1182689372,49.4854456,14.6601913
1182689374,49.4847107,14.6603193
248183099,49.4859311,14.6600978
248183100,49.4918452,14.6587030
248183101,49.4932958,14.6586070
248183102,49.4949490,14.6587184
248183103,49.4963805,14.6590145
248183104,49.4977564,14.6594752
248183105,49.4989600,14.6599862
248183106,49.5007516,14.6610668
471832739,49.4866858,14.6599300
658860651,49.5044126,14.6640068
1503687601,49.4892435,14.6592706
1503687603,49.4904988,14.6589503
1503687605,49.4911936,14.6588038
1503687607,49.4925813,14.6586339
1503687611,49.4941236,14.6586365
1503687641,49.4956634,14.6588400
1503687656,49.4970744,14.6592212
1503687664,49.4983721,14.6597080
1503687669,49.4994334,14.6602188
1503687672,49.4998868,14.6604970
248183151,49.5007741,14.6608982
248183152,49.4999074,14.6603276
248183153,49.4977686,14.6592940
248183154,49.4963899,14.6588308
248183155,49.4933156,14.6584284
248183156,49.4917107,14.6585453
248183158,49.4859927,14.6599065
290316811,49.4949609,14.6585274
471832740,49.4866739,14.6597599
658860653,49.5044527,14.6638534
1503687600,49.4891892,14.6591059
1503687602,49.4904547,14.6587829
1503687604,49.4911036,14.6586496
1503687606,49.4925236,14.6584665
1503687612,49.4941389,14.6584613
1503687642,49.4956825,14.6586635
1503687657,49.4970936,14.6590527
1503687665,49.4983981,14.6595475
1503687667,49.4989939,14.6598256
1503687670,49.4994699,14.6600637
658860651,49.5044126,14.6640068
658860679,49.5048542,14.6643626
658860653,49.5044527,14.6638534
658860681,49.5048841,14.6641863
2350018898,49.2434872,14.7287874
2350018900,49.2455272,14.7296319
2350018903,49.2468884,14.7303155
2350018905,49.2496225,14.7320072
2352318415,49.2509214,14.7328834
2352318416,49.2528729,14.7341792
2352318417,49.2540843,14.7349503
2352318418,49.2547265,14.7353143
2352318419,49.2558910,14.7358794
2352318420,49.2565211,14.7361347
2352318422,49.2571686,14.7363498
2352318423,49.2588230,14.7367497
2352318424,49.2599423,14.7368762
2352318425,49.2607922,14.7369096
2352318427,49.2632703,14.7367442
2985694677,49.2439598,14.7289684
2985694678,49.2447575,14.7292840
2985694680,49.2462478,14.7299788
2985694682,49.2466120,14.7301703
2985694685,49.2474579,14.7306458
2985694687,49.2481550,14.7310658
2985694688,49.2488913,14.7315269
2985694690,49.2534867,14.7345836
2985694691,49.2553013,14.7356133
2985694693,49.2578043,14.7365298
2985694695,49.2583465,14.7366573
2985694697,49.2593605,14.7368239
2985694700,49.2615819,14.7368838
973731404,49.2607815,14.7367329
973731410,49.2588267,14.7365729
973731413,49.2559015,14.7357111
973731416,49.2547518,14.7351451
973731420,49.2509887,14.7327425
973731426,49.2481887,14.7309011
973731433,49.2455739,14.7294676
973731438,49.2440077,14.7288104
1955862794,49.2496734,14.7318558
1955862797,49.2529124,14.7340193
1955862803,49.2535349,14.7344277
2349480404,49.2541404,14.7347967
2349480409,49.2571830,14.7361852
2352762866,49.2565606,14.7359772
2352762868,49.2599420,14.7367052
2352762869,49.2632541,14.7365762
2985694676,49.2434921,14.7286190
2985694679,49.2448120,14.7291325
2985694681,49.2462854,14.7298193
2985694683,49.2466565,14.7300155
2985694684,49.2469674,14.7301800
2985694686,49.2474931,14.7304836
2985694689,49.2489394,14.7313751
2985694692,49.2553236,14.7354394
2985694694,49.2578363,14.7363706
2985694696,49.2583481,14.7364857
2985694698,49.2593653,14.7366499
2985694699,49.2615709,14.7367177
277399567,49.1967346,14.6977974
974648302,49.2046597,14.7070118
974655654,49.2002342,14.7019513
1955862778,49.2031012,14.7049998
2352318366,49.2016332,14.7033870
2354488319,49.1984218,14.6999916
2364195064,49.2042790,14.7064879
2985694521,49.1977290,14.6991455
2985694531,49.1990979,14.7007662
2985694645,49.2009262,14.7026599
2985694650,49.2024252,14.7042328
2985694653,49.2036250,14.7056340
2985694654,49.2044711,14.7067522
973731508,49.2037079,14.7055159
974648259,49.2047562,14.7069047
974655949,49.2017203,14.7032725
2364195065,49.2043478,14.7063409
2985694651,49.2024876,14.7040840
2985694652,49.2031916,14.7048900
2985694655,49.2045556,14.7066278
973731483,49.2137822,14.7206831
973731495,49.2127916,14.7192694
973731497,49.2102235,14.7152196
973731502,49.2071190,14.7104687
2985670605,49.2083744,14.7123674
2985670613,49.2117898,14.7176822
2985670620,49.2131344,14.7197768
2985670621,49.2134887,14.7202804
2350018812,49.2070304,14.7105759
2350018817,49.2082979,14.7125027
2350018824,49.2127043,14.7193731
2350018827,49.2134111,14.7204037
2350018830,49.2139466,14.7211168
2985670606,49.2101318,14.7153211
2985670612,49.2117040,14.7177916
2985670619,49.2130508,14.7198884
2985670623,49.2136922,14.7207870
973731502,49.2071190,14.7104687
973731506,49.2056572,14.7082232
2985694659,49.2063781,14.7093306
973731506,49.2056572,14.7082232
974648259,49.2047562,14.7069047
2985694657,49.2052077,14.7075491
2350018811,49.2055626,14.7083258
2350018812,49.2070304,14.7105759
2985694658,49.2062939,14.7094469
974648302,49.2046597,14.7070118
2350018811,49.2055626,14.7083258
2985694656,49.2051118,14.7076524
2350018830,49.2139466,14.7211168
2350018833,49.2144083,14.7216769
2350018836,49.2148785,14.7222372
2350018839,49.2152125,14.7226120
2350018843,49.2168056,14.7241660
2350018845,49.2182902,14.7253457
2350018849,49.2195533,14.7261679
2350018851,49.2201144,14.7264880
2350018853,49.2204013,14.7266368
2350018855,49.2236255,14.7278346
2350018857,49.2261051,14.7281940
2350018859,49.2267339,14.7282074
2350018870,49.2273738,14.7281893
2352318396,49.2244340,14.7280046
2354488321,49.2174687,14.7247247
2354488323,49.2199933,14.7264212
2363079431,49.2223767,14.7274765
2985670629,49.2157182,14.7231361
2985670630,49.2162606,14.7236673
2985675135,49.2189604,14.7258023
2985675144,49.2212597,14.7270451
2985675150,49.2218128,14.7272693
2985675175,49.2231423,14.7277143
2985675188,49.2240212,14.7279257
2985675199,49.2250317,14.7280953
2985675202,49.2256041,14.7281593
973731465,49.2256210,14.7279880
973731468,49.2244367,14.7278348
973731471,49.2201586,14.7263299
973731476,49.2183098,14.7251742
973731483,49.2137822,14.7206831
974645034,49.2231687,14.7275428
974645036,49.2204765,14.7264923
1955862781,49.2157805,14.7229991
1955862785,49.2175302,14.7245809
2352318413,49.2273913,14.7280199
2354488322,49.2195902,14.7260080
2354488324,49.2236352,14.7276637
2985670624,49.2140326,14.7210013
2985670625,49.2144791,14.7215469
2985670626,49.2149396,14.7220899
2985670628,49.2152975,14.7224890
2985670631,49.2163301,14.7235322
2985675133,49.2168602,14.7240155
2985675136,49.2189958,14.7256385
2985675145,49.2212853,14.7268749
2985675151,49.2218392,14.7271004
2985675163,49.2223900,14.7273065
2985675189,49.2240387,14.7277576
2985675200,49.2250415,14.7279242
2985675205,49.2261064,14.7280207
2985675206,49.2267399,14.7280328
2350018870,49.2273738,14.7281893
2350018876,49.2279007,14.7281589
2350018879,49.2303173,14.7279406
2350018883,49.2316663,14.7278192
2350018886,49.2336674,14.7276363
2350018888,49.2364441,14.7275098
2350018894,49.2376928,14.7275592
2350018895,49.2391850,14.7277173
2350018896,49.2421761,14.7283729
2985675218,49.2296481,14.7280017
2985694661,49.2350949,14.7275392
2985694663,49.2357583,14.7275157
2985694665,49.2370340,14.7275262
2985694667,49.2383796,14.7276228
2985694669,49.2399607,14.7278476
2985694671,49.2406695,14.7279849
2985694672,49.2415891,14.7282131
2985694675,49.2426371,14.7285142
973731447,49.2407010,14.7278238
973731451,49.2377025,14.7273898
973731457,49.2350683,14.7273720
973731458,49.2316471,14.7276484
1955862788,49.2391913,14.7275532
1955862791,49.2426753,14.7283485
2352318414,49.2303166,14.7277782
2985675217,49.2296399,14.7278369
2985694660,49.2336790,14.7274631
2985694662,49.2357413,14.7273459
2985694664,49.2364370,14.7273412
2985694666,49.2370374,14.7273538
2985694668,49.2383984,14.7274530
2985694670,49.2399622,14.7276750
2985694673,49.2416283,14.7280433
2985694674,49.2422354,14.7282210
973731460,49.2278996,14.7279886
2352318413,49.2273913,14.7280199
2350018876,49.2279007,14.7281589
2985675208,49.2280530,14.7281452
2985675214,49.2294196,14.7280223
2985675215,49.2294207,14.7278560
2985675217,49.2296399,14.7278369
2985675214,49.2294196,14.7280223
2985675218,49.2296481,14.7280017
973731460,49.2278996,14.7279886
2985675210,49.2282907,14.7279545
2985675215,49.2294207,14.7278560
1955862791,49.2426753,14.7283485
2985694676,49.2434921,14.7286190
2350018898,49.2434872,14.7287874
2985694675,49.2426371,14.7285142
2985694707,49.2648616,14.7364222
2985694709,49.2651495,14.7363968
2352318427,49.2632703,14.7367442
2985694702,49.2635297,14.7367165
2985694706,49.2648331,14.7365999
2985694708,49.2651128,14.7365746
2352762869,49.2632541,14.7365762
2985694701,49.2635297,14.7365473
2352318429,49.2645392,14.7366166
2985694702,49.2635297,14.7367165
2985694706,49.2648331,14.7365999
2985694701,49.2635297,14.7365473
2985694703,49.2645322,14.7364474
2985694707,49.2648616,14.7364222
973731372,49.2738058,14.7367113
973731380,49.2687094,14.7363733
973731397,49.2655750,14.7363721
974629826,49.2677628,14.7363331
974629828,49.2662988,14.7363307
1909299284,49.2713575,14.7365660
2352318455,49.2670359,14.7363231
2352318480,49.2702867,14.7364821
2985694709,49.2651495,14.7363968
2352318431,49.2655628,14.7365338
2352318451,49.2677764,14.7364989
2352318473,49.2687149,14.7365480
2352318482,49.2713847,14.7367397
2352318483,49.2738069,14.7368923
2985694708,49.2651128,14.7365746
2985694713,49.2663154,14.7365029
2985694719,49.2670302,14.7364888
2985694737,49.2702581,14.7366514
973731337,49.2904493,14.7345199
973731345,49.2862900,14.7349572
973731352,49.2834060,14.7359329
973731358,49.2805433,14.7367027
973731358,49.2805433,14.7367027
973731363,49.2788795,14.7368886
973731366,49.2778881,14.7369145
973731372,49.2738058,14.7367113
1909299285,49.2754679,14.7368100
2352762872,49.2797754,14.7368108
2985694738,49.2770632,14.7368991
2985694740,49.2784002,14.7369085
2985694744,49.2793315,14.7368550
2352318483,49.2738069,14.7368923
2352318485,49.2778756,14.7370861
2352318486,49.2789119,14.7370580
2352318487,49.2797694,14.7369784
2352318488,49.2805596,14.7368707
2352762871,49.2754888,14.7369807
2985694739,49.2770690,14.7370630
2985694741,49.2784145,14.7370787
2985694743,49.2793267,14.7370301
2352318488,49.2805596,14.7368707
2352318491,49.2824587,14.7364741
2352318492,49.2836217,14.7361029
2352318493,49.2854217,14.7354918
2352318494,49.2863194,14.7352008
2352318495,49.2872815,14.7350440
2352318496,49.2887603,14.7348701
2352318497,49.2904576,14.7347334
973731309,49.3068016,14.7384672
973731315,49.3002216,14.7366979
973731320,49.2962830,14.7355441
973731325,49.2932873,14.7348591
973731325,49.2932873,14.7348591
973731329,49.2918652,14.7346201
973731337,49.2904493,14.7345199
2352318503,49.2932765,14.7350447
2352318504,49.2962778,14.7358432
2352318505,49.2992475,14.7366927
2352318507,49.3023759,14.7375548
2352318508,49.3055814,14.7383918
2352318509,49.3060132,14.7384855
2352318510,49.3067841,14.7386677
2352318497,49.2904576,14.7347334
2352318501,49.2918616,14.7348173
2352318502,49.2925428,14.7349214
2352318503,49.2932765,14.7350447
973649642,49.3553430,14.7251284
973649643,49.3525783,14.7261242
973649644,49.3499947,14.7274147
973649645,49.3474848,14.7290775
973649647,49.3442247,14.7318554
973649648,49.3393111,14.7361114
973649649,49.3385998,14.7365199
973728461,49.3533837,14.7257985
973728482,49.3542708,14.7254682
2352762888,49.3399111,14.7357454
2352762890,49.3405364,14.7352815
2352762892,49.3419379,14.7340762
2352762911,49.3562885,14.7248851
3695857023,49.3466064,14.7297564
3695857130,49.3487278,14.7282033
3787892227,49.3411065,14.7348289
3787892229,49.3430666,14.7329799
3787892230,49.3453952,14.7307764
3787892231,49.3512729,14.7267379
2349480451,49.3386335,14.7366762
2349480461,49.3396161,14.7361249
2349480464,49.3406492,14.7353911
2349480468,49.3419765,14.7342501
2349480469,49.3430231,14.7332229
2349480472,49.3445901,14.7316962
2349480475,49.3464445,14.7300741
2349480476,49.3475484,14.7292207
2349480480,49.3484436,14.7285935
2349480486,49.3497129,14.7277617
2349480487,49.3506342,14.7272558
2349480488,49.3523603,14.7264032
2349480489,49.3529247,14.7261470
2349480493,49.3542653,14.7256438
2349480497,49.3553656,14.7252864
2352762912,49.3562943,14.7250653
3787892226,49.3401347,14.7357745
3787892228,49.3412826,14.7348739
3787892232,49.3514929,14.7268111
2352318513,49.3124501,14.7390441
2352318514,49.3126284,14.7390327
2352762882,49.3124555,14.7388458
2352762883,49.3126290,14.7388331
973731309,49.3068016,14.7384672
973766747,49.3074029,14.7385906
2352318510,49.3067841,14.7386677
2352318511,49.3073850,14.7387906
973731299,49.3115670,14.7388702
973766747,49.3074029,14.7385906
2352762882,49.3124555,14.7388458
2352318511,49.3073850,14.7387906
2352318512,49.3107133,14.7390278
2352318513,49.3124501,14.7390441
973731296,49.3143312,14.7386632
2352762885,49.3150795,14.7385734
2352318515,49.3143328,14.7388877
2352762886,49.3151070,14.7387634
2352318514,49.3126284,14.7390327
2352318515,49.3143328,14.7388877
973731296,49.3143312,14.7386632
2352762883,49.3126290,14.7388331
973731261,49.3336377,14.7378062
973731266,49.3325798,14.7377779
973731275,49.3294219,14.7373588
973731277,49.3262366,14.7371055
973731283,49.3251845,14.7371009
2352318519,49.3222870,14.7373694
3787892204,49.3278334,14.7371703
3787892206,49.3310018,14.7375911
3787892209,49.3331234,14.7378074
973731287,49.3218887,14.7374532
973731290,49.3179013,14.7380590
2352762885,49.3150795,14.7385734
2352318520,49.3223044,14.7376561
2352318523,49.3241835,14.7374798
2352318524,49.3251443,14.7373361
2352318525,49.3261214,14.7372987
2352318526,49.3277337,14.7373363
2352318527,49.3307572,14.7377209
2352318528,49.3325694,14.7379497
2352318529,49.3336399,14.7379825
3787892205,49.3295495,14.7375474
3787892207,49.3316462,14.7378441
3787892208,49.3331142,14.7379819
2352318516,49.3169164,14.7384662
2352318517,49.3194685,14.7381045
2352318518,49.3219208,14.7377147
2352762886,49.3151070,14.7387634
2352318518,49.3219208,14.7377147
2352318520,49.3223044,14.7376561
973731287,49.3218887,14.7374532
2352318519,49.3222870,14.7373694
973649649,49.3385998,14.7365199
973731261,49.3336377,14.7378062
973732155,49.3371174,14.7371578
1955862806,49.3352001,14.7376650
1955862824,49.3361698,14.7374457
3787892214,49.3347501,14.7377258
3787892217,49.3356871,14.7375682
2349480451,49.3386335,14.7366762
2352318529,49.3336399,14.7379825
2352318530,49.3352414,14.7378305
2352318531,49.3362181,14.7376122
2352318532,49.3371651,14.7373161
2352318533,49.3381700,14.7369020
3787892212,49.3346327,14.7379087
2349480499,49.3567799,14.7249570
2352762912,49.3562943,14.7250653
2352762911,49.3562885,14.7248851
2352762913,49.3567438,14.7247705
973649634,49.3723441,14.7197685
973649635,49.3704803,14.7199957
973649636,49.3654864,14.7227944
973649638,49.3622202,14.7239470
973649639,49.3603511,14.7242276
973649641,49.3578216,14.7245675
973725590,49.3688918,14.7206744
973725593,49.3670656,14.7217710
1955862838,49.3637751,14.7235522
1955862841,49.3648151,14.7231226
1955862892,49.3694058,14.7203833
1955862895,49.3712566,14.7198052
1955862897,49.3730531,14.7199201
2352318536,49.3582500,14.7245014
2352762913,49.3567438,14.7247705
3787892233,49.3612693,14.7241062
3787892236,49.3630293,14.7237655
2349480499,49.3567799,14.7249570
2349480501,49.3579509,14.7247254
2349480503,49.3588413,14.7245928
2349480504,49.3600260,14.7244400
2349480507,49.3605528,14.7243738
2349480509,49.3621611,14.7241326
2349480511,49.3637695,14.7237240
2349480512,49.3648436,14.7232919
2349480516,49.3655276,14.7229724
2349480532,49.3666270,14.7223171
2349480535,49.3680261,14.7214556
2349480538,49.3696023,14.7205230
2349480539,49.3705153,14.7202311
2349480540,49.3712122,14.7200107
2349480541,49.3723386,14.7199445
2349480542,49.3730450,14.7201113
2352318537,49.3582426,14.7246792
3787892234,49.3613258,14.7242678
3787892235,49.3630143,14.7239503
973649629,49.3794200,14.7241115
973649631,49.3777874,14.7227071
973713291,49.3808470,14.7250154
973713439,49.3800963,14.7245942
1955862908,49.3787621,14.7235972
2352762924,49.3772593,14.7222020
2349480558,49.3771730,14.7223932
2349480561,49.3780280,14.7231825
2349480565,49.3792381,14.7242046
2349480568,49.3797707,14.7246019
2349480574,49.3808390,14.7252468
2349480543,49.3735064,14.7202070
2349480547,49.3743663,14.7204655
2349480550,49.3748910,14.7207015
2349480553,49.3754907,14.7210900
2349480555,49.3761897,14.7215851
2352762923,49.3767313,14.7219828
2349480542,49.3730450,14.7201113
2349480543,49.3735064,14.7202070
1955862897,49.3730531,14.7199201
1955862899,49.3735253,14.7200155
2349480558,49.3771730,14.7223932
2352762923,49.3767313,14.7219828
1955862906,49.3767948,14.7217767
2352762924,49.3772593,14.7222020
973649632,49.3758695,14.7211048
973649633,49.3746961,14.7204156
1955862899,49.3735253,14.7200155
1955862904,49.3752000,14.7206724
1955862906,49.3767948,14.7217767
973649628,49.3822954,14.7256007
973713291,49.3808470,14.7250154
2352762926,49.3813930,14.7253130
2352762927,49.3818092,14.7254705
2349480574,49.3808390,14.7252468
2349480580,49.3817595,14.7256590
2349480587,49.3822408,14.7257812
2352762925,49.3813477,14.7255069
1955862911,49.3842851,14.7261547
3205190373,49.3841668,14.7261317
2349480613,49.3842685,14.7263602
3205190372,49.3841491,14.7263329
973649625,49.3880391,14.7263995
973649627,49.3866674,14.7264320
1955862911,49.3842851,14.7261547
1955862916,49.3893163,14.7263294
2349480587,49.3822408,14.7257812
3205190372,49.3841491,14.7263329
2349480624,49.3899727,14.7264747
2349480625,49.3913959,14.7261905
2349480626,49.3928383,14.7258566
2349480627,49.3933198,14.7256954
2349480628,49.3943108,14.7253645
2349480629,49.3958847,14.7246785
2349480630,49.3968471,14.7241119
973649621,49.3968044,14.7239230
973649622,49.3942421,14.7251474
1955862922,49.3927926,14.7256554
2352318539,49.3899776,14.7262676
2352318540,49.3958285,14.7244306
973649628,49.3822954,14.7256007
3205190373,49.3841668,14.7261317
2349480613,49.3842685,14.7263602
2349480614,49.3857535,14.7265672
2349480615,49.3866153,14.7266622
2349480619,49.3878106,14.7266190
2349480622,49.3893182,14.7265249
2349480622,49.3893182,14.7265249
2349480624,49.3899727,14.7264747
1955862916,49.3893163,14.7263294
2352318539,49.3899776,14.7262676
10715268,49.4043335,14.7186938
10715269,49.4045893,14.7185219
973649619,49.4010769,14.7210520
973703794,49.4005292,14.7214501
1821458471,49.4059617,14.7175380
1829797610,49.4071335,14.7166952
2363079443,49.4047688,14.7184212
10715270,49.4047441,14.7186331
973703682,49.4005304,14.7216422
973649621,49.3968044,14.7239230
1955862925,49.3981489,14.7231043
2349480630,49.3968471,14.7241119
2349480637,49.3982126,14.7232772
973703794,49.4005292,14.7214501
973703996,49.3999270,14.7218693
973703996,49.3999270,14.7218693
1955862925,49.3981489,14.7231043
973703675,49.3999243,14.7220937
973703682,49.4005304,14.7216422
973703675,49.3999243,14.7220937
2349480637,49.3982126,14.7232772
10714942,49.4199582,14.7047004
10714943,49.4165899,14.7074722
10714944,49.4133380,14.7106851
75621739,49.4262856,14.7002575
75666284,49.4104403,14.7136770
75666289,49.4086192,14.7154374
304815015,49.4265970,14.7000535
1829797610,49.4071335,14.7166952
2352318563,49.4079028,14.7160727
10715258,49.4073332,14.7167296
75675630,49.4086903,14.7156282
75675633,49.4107346,14.7136450
75675635,49.4134067,14.7108636
75675639,49.4166886,14.7076464
75675642,49.4200387,14.7049094
75675647,49.4261767,14.7005256
339895531,49.4119155,14.7124071
2352318565,49.4079537,14.7162651
2364410645,49.4097334,14.7146412
248183060,49.4329867,14.6957116
248183061,49.4340792,14.6948162
248183077,49.4353714,14.6934694
729988367,49.4302852,14.6976361
1345731424,49.4335346,14.6952759
1345731442,49.4347327,14.6941732
75621717,49.4288872,14.6984292
304815015,49.4265970,14.7000535
729988370,49.4299151,14.6976918
1345731433,49.4277355,14.6992472
304815016,49.4325675,14.6958269
729988355,49.4302349,14.6974715
75675647,49.4261767,14.7005256
730206261,49.4277426,14.6994206
729988355,49.4302349,14.6974715
729988370,49.4299151,14.6976918
729988367,49.4302852,14.6976361
729988382,49.4299720,14.6978556
248183964,49.4298341,14.6979518
729988382,49.4299720,14.6978556
730206261,49.4277426,14.6994206
10715258,49.4073332,14.7167296
10715259,49.4048955,14.7185195
10715270,49.4047441,14.7186331
248183077,49.4353714,14.6934694
248183078,49.4364619,14.6919016
248183079,49.4374938,14.6899533
248183080,49.4380854,14.6885023
1345731418,49.4377943,14.6892469
1345731432,49.4359238,14.6927229
1345731434,49.4369975,14.6909771
10714939,49.4373776,14.6899051
10714940,49.4352976,14.6933321
32546485,49.4363611,14.6918285
32546486,49.4379935,14.6884175
1345731417,49.4358600,14.6926065
1345731451,49.4369032,14.6908886
1345731452,49.4376916,14.6891838
248183080,49.4380854,14.6885023
1821500591,49.4383949,14.6876473
32546486,49.4379935,14.6884175
1821500590,49.4381649,14.6879443
10714940,49.4352976,14.6933321
32546487,49.4340549,14.6946334
272764947,49.4329108,14.6955636
1345731426,49.4346810,14.6940163
1345731457,49.4334895,14.6951167
272764947,49.4329108,14.6955636
304815016,49.4325675,14.6958269
248183120,49.5351365,14.6644805
1503687736,49.5359914,14.6646123
1503687739,49.5369391,14.6648469
248183134,49.5331689,14.6641665
248183136,49.5310028,14.6644896
248183137,49.5300088,14.6647312
248183138,49.5273792,14.6659392
656716266,49.5348345,14.6642283
1503687714,49.5259787,14.6668336
1503687716,49.5267785,14.6663003
1503687718,49.5280797,14.6655561
1503687720,49.5288162,14.6651946
1503687722,49.5294933,14.6649338
1503687724,49.5321435,14.6642908
1503687727,49.5339569,14.6641648
2153121673,49.5304585,14.6646096
2153121713,49.5346623,14.6642088
2380997216,49.5248451,14.6676582
248183133,49.5351608,14.6642570
1503687737,49.5360176,14.6644023
1503687740,49.5370516,14.6646523
248183116,49.5274099,14.6660964
248183117,49.5300825,14.6649608
248183118,49.5310209,14.6647106
248183119,49.5331588,14.6643915
656716265,49.5348095,14.6644581
1503687715,49.5260603,14.6669641
1503687717,49.5267883,14.6664743
1503687719,49.5281116,14.6657206
1503687721,49.5288595,14.6653981
1503687723,49.5294950,14.6651511
1503687725,49.5321521,14.6644667
1503687726,49.5339699,14.6643910
2153121672,49.5304720,14.6648192
2153121711,49.5342309,14.6644096
2380997219,49.5248995,14.6678086
248183120,49.5351365,14.6644805
656716265,49.5348095,14.6644581
248183133,49.5351608,14.6642570
656716266,49.5348345,14.6642283
2380997202,49.5244521,14.6679433
2380997216,49.5248451,14.6676582
2380997209,49.5245098,14.6680915
2380997219,49.5248995,14.6678086
1503687739,49.5369391,14.6648469
2364410657,49.5375820,14.6649981
248183132,49.5376825,14.6648165
1503687740,49.5370516,14.6646523
248183132,49.5376825,14.6648165
1503687742,49.5385446,14.6650537
1503687744,49.5394609,14.6652811
3200643749,49.5402173,14.6653999
248183121,49.5385066,14.6652562
618405468,49.5405555,14.6656769
618405469,49.5410534,14.6657238
1503687743,49.5394547,14.6654906
2364410657,49.5375820,14.6649981
2364410659,49.5421312,14.6656798
3200608868,49.5424842,14.6656365
618405471,49.5421322,14.6654668
618405472,49.5405779,14.6654566
2364410658,49.5410444,14.6654930
2364410660,49.5425863,14.6654143
3200643749,49.5402173,14.6653999
248183129,49.5446575,14.6649194
248183130,49.5434780,14.6652352
1306165509,49.5457351,14.6645582
2364410660,49.5425863,14.6654143
248183122,49.5435193,14.6654606
248183123,49.5442288,14.6653239
2364410661,49.5426118,14.6656208
3200608868,49.5424842,14.6656365
3646706259,49.5451953,14.6648326
1306165509,49.5457351,14.6645582
3646706259,49.5451953,14.6648326
