@id,@lat,@lon
96740826,49.5805081,17.7872962
316529462,49.5823039,17.7743675
316529468,49.5800931,17.7799597
316529472,49.5804915,17.7780609
316529475,49.5799464,17.7826627
316529478,49.5802327,17.7853658
316529479,49.5800183,17.7837569
316529484,49.5799494,17.7814502
316529492,49.5810806,17.7764307
316529493,49.5838836,17.7725648
1345588302,49.5820129,17.7747651
1345588304,49.5800062,17.7806906
1345588328,49.5817309,17.7751880
1345588344,49.5830991,17.7734337
1345588348,49.5802657,17.7789920
1345588387,49.5807748,17.7771889
1345588430,49.5813840,17.7758122
1535264812,49.5821383,17.7745938
316529414,49.5803680,17.7855861
316529418,49.5800563,17.7828568
316529420,49.5800396,17.7820825
316529424,49.5800612,17.7814100
316529427,49.5802057,17.7798926
316529431,49.5805650,17.7781986
316529435,49.5811863,17.7764911
316529439,49.5823927,17.7744571
316529443,49.5839403,17.7727189
1345588310,49.5814503,17.7759166
1345588317,49.5808481,17.7773151
1345588380,49.5801219,17.7837486
1345588414,49.5820627,17.7749063
1345588420,49.5801134,17.7806449
1345588422,49.5802330,17.7846044
1345588435,49.5803630,17.7790224
1345588461,49.5817450,17.7753946
1535264825,49.5822338,17.7746734
316529458,49.5846455,17.7717030
316529493,49.5838836,17.7725648
316529443,49.5839403,17.7727189
1034311475,49.5847187,17.7718536
96740807,49.5809266,17.7894578
316529414,49.5803680,17.7855861
96740826,49.5805081,17.7872962
318015212,49.5805937,17.7878898
1621844655,49.5808250,17.7894745
1621844655,49.5808250,17.7894745
1621844656,49.5809429,17.7902817
1621844656,49.5809429,17.7902817
1621844659,49.5811988,17.7920882
96740807,49.5809266,17.7894578
1621844657,49.5810788,17.7904658
1621844659,49.5811988,17.7920882
1621844660,49.5812352,17.7923154
295428221,49.5811618,17.7921049
1621844658,49.5811959,17.7923251
96740747,49.5831255,17.8061963
96740804,49.5830817,17.8050986
96740805,49.5828833,17.8031592
338824755,49.5821337,17.7978889
1345588418,49.5831083,17.8056109
1345588453,49.5830097,17.8041932
96740816,49.5830163,17.8061368
96740819,49.5829809,17.8050980
96740823,49.5827932,17.8032242
338824754,49.5820530,17.7980000
1345588321,49.5830084,17.8056335
1345588358,49.5829165,17.8042589
338824755,49.5821337,17.7978889
1345588303,49.5814859,17.7933352
1621844662,49.5813252,17.7922211
1621844657,49.5810788,17.7904658
1621844661,49.5812982,17.7920338
295428215,49.5814948,17.7941067
338824754,49.5820530,17.7980000
1621844660,49.5812352,17.7923154
295428215,49.5814948,17.7941067
1345588327,49.5813594,17.7935242
1621844658,49.5811959,17.7923251
1621844661,49.5812982,17.7920338
1621844662,49.5813252,17.7922211
25496947,49.5829092,17.8084528
25496948,49.5823528,17.8118739
96740816,49.5830163,17.8061368
1345588329,49.5830088,17.8071765
1345588352,49.5829734,17.8077961
1345588431,49.5827008,17.8098378
27597772,49.5824391,17.8119197
96740747,49.5831255,17.8061963
1345588318,49.5829359,17.8090385
1345588390,49.5831025,17.8071604
1345588462,49.5830525,17.8080914
337838544,49.6403904,18.1223994
420845407,49.6451547,18.1363621
1363009883,49.6433856,18.1312195
1363009887,49.6395051,18.1169851
2396286142,49.6392941,18.1155680
3310037544,49.6399758,18.1201501
3310037549,49.6402214,18.1215467
3310037555,49.6407503,18.1239537
3310042664,49.6412160,18.1256281
3310042667,49.6415540,18.1266292
3310042684,49.6438922,18.1324536
3310042686,49.6443643,18.1337159
3310042689,49.6447955,18.1350135
27597626,49.6413525,18.1255331
27597627,49.6408736,18.1238792
420845404,49.6405115,18.1223356
420845408,49.6452860,18.1362847
1363009909,49.6440066,18.1323440
3310037546,49.6401075,18.1201023
3310037552,49.6402974,18.1212220
3310037560,49.6411133,18.1247453
3310042669,49.6416929,18.1265422
3310042674,49.6421027,18.1276485
3310042677,49.6429063,18.1296539
3310042683,49.6434981,18.1311108
3310042688,49.6444817,18.1336233
3310042691,49.6449137,18.1349359
1363009889,49.6409719,18.1238199
1363009898,49.6406127,18.1222823
1579991416,49.6404030,18.1211730
1621844676,49.6402130,18.1200640
3310037554,49.6404982,18.1216768
1579991408,49.6396158,18.1167275
1579991414,49.6398508,18.1177823
1621844676,49.6402130,18.1200640
1579991406,49.6394258,18.1155222
1579991408,49.6396158,18.1167275
2654545761,49.6398703,18.1185639
3310037539,49.6394865,18.1159074
3310037543,49.6397550,18.1178145
3310037546,49.6401075,18.1201023
1363009879,49.6417954,18.1264780
1363009889,49.6409719,18.1238199
3310042663,49.6412093,18.1246757
3310042666,49.6414474,18.1254667
1363009879,49.6417954,18.1264780
1363009909,49.6440066,18.1323440
2823003458,49.6435882,18.1310239
3310042676,49.6421905,18.1275646
3310042679,49.6429952,18.1295689
3310042681,49.6431447,18.1299356
569035551,49.6593221,18.2618561
569035552,49.6609294,18.2668928
582938979,49.6546013,18.2441055
582938990,49.6562259,18.2505815
582938992,49.6567358,18.2527498
582938994,49.6582824,18.2585323
1820283180,49.6575514,18.2560627
1820283213,49.6539061,18.2418850
1820283239,49.6586886,18.2598791
1820283255,49.6599500,18.2638269
1820283299,49.6570260,18.2540053
1820283326,49.6620443,18.2707656
1820283409,49.6616032,18.2691693
2210547001,49.6554765,18.2473869
2441292359,49.6623339,18.2720196
3391074541,49.6552403,18.2463815
3391074543,49.6572897,18.2550888
3391074545,49.6579542,18.2575091
25497098,49.6561070,18.2506577
582938989,49.6564010,18.2519492
1820283158,49.6592110,18.2619166
1820283165,49.6607941,18.2669576
1820283207,49.6569159,18.2541674
1820283218,49.6585929,18.2599881
1820283249,49.6614689,18.2692541
1820283289,49.6598231,18.2638892
1820283311,49.6574257,18.2561230
1820283324,49.6619202,18.2708706
1820283331,49.6581676,18.2586393
1829124977,49.6538075,18.2419560
1829124978,49.6553609,18.2474656
2441292352,49.6622210,18.2720755
3391074538,49.6544585,18.2441475
3391074539,49.6550975,18.2464418
582938930,49.6499766,18.2198589
582938935,49.6500955,18.2214922
1754058911,49.6503695,18.2251527
1820283242,49.6513213,18.2323007
1820283333,49.6517377,18.2344086
1829124965,49.6508947,18.2297465
1829124975,49.6528101,18.2387216
3391074524,49.6499955,18.2200959
3391074530,49.6506210,18.2275966
3391074534,49.6523002,18.2368053
3730411185,49.6533426,18.2404782
582938954,49.6503678,18.2233676
582938969,49.6516629,18.2333953
582938970,49.6529375,18.2386349
1820283244,49.6514436,18.2321616
1820283393,49.6518634,18.2343430
1829124967,49.6507468,18.2275310
1834957503,49.6501430,18.2204842
3391074532,49.6510289,18.2296756
3391074535,49.6524141,18.2367239
3730411187,49.6534622,18.2403983
1829124977,49.6538075,18.2419560
3730411185,49.6533426,18.2404782
1820283213,49.6539061,18.2418850
3730411187,49.6534622,18.2403983
262010211,49.6673519,18.4592584
262010212,49.6679359,18.4557505
262010215,49.6686902,18.4517101
262010218,49.6695577,18.4474657
262010220,49.6702931,18.4438041
262010222,49.6718801,18.4357189
262010233,49.6722695,18.4339048
262010237,49.6725910,18.4324404
262010242,49.6734140,18.4294851
262010243,49.6745879,18.4256146
262010245,49.6750322,18.4239082
262010248,49.6753702,18.4221998
262010252,49.6755779,18.4204235
262010265,49.6757134,18.4190832
262010267,49.6761068,18.4157357
262010269,49.6763649,18.4143300
262010274,49.6765848,18.4133232
262124321,49.6829553,18.3712350
262124322,49.6828150,18.3730351
262124323,49.6825683,18.3766937
262124324,49.6822985,18.3815701
262124325,49.6821109,18.3857238
262124326,49.6819452,18.3895232
262124327,49.6818215,18.3914110
262124328,49.6814720,18.3946503
262124329,49.6809298,18.3979670
262124330,49.6803376,18.4007244
262124331,49.6798764,18.4025812
262124332,49.6774353,18.4101914
262124333,49.6768937,18.4120417
302604582,49.6812154,18.3964322
302604583,49.6793010,18.4045753
302604584,49.6784548,18.4071775
308926615,49.6740367,18.4274319
599496127,49.6681181,18.4547744
639043850,49.6675172,18.4579751
1829072280,49.6828339,18.3727929
75004828,49.6775241,18.4102895
75012756,49.6785649,18.4072363
75020496,49.6794068,18.4046341
75026934,49.6799822,18.4026532
75032510,49.6826755,18.3767311
75036670,49.6762145,18.4157830
75038085,49.6829143,18.3730619
75042015,49.6766864,18.4133689
75042882,49.6764791,18.4143888
75043657,49.6746937,18.4256277
75046823,49.6726926,18.4325057
75049341,49.6735345,18.4295244
75049821,49.6769953,18.4121267
75053890,49.6723450,18.4340310
75057371,49.6751295,18.4239540
75059064,49.6820595,18.3895378
75062972,49.6754756,18.4222225
75067828,49.6822404,18.3857278
75070648,49.6756922,18.4204496
75076742,49.6824293,18.3815384
75078389,49.6758360,18.4190832
75087090,49.6804518,18.4007832
75093139,49.6810377,18.3980209
75100798,49.6815811,18.3946863
75105134,49.6819230,18.3914502
262010227,49.6719768,18.4357744
262010231,49.6704197,18.4438656
262118037,49.6688493,18.4517642
262118038,49.6680634,18.4557942
262118039,49.6674634,18.4592741
262124320,49.6830487,18.3712735
302604580,49.6813202,18.3964763
308926614,49.6741351,18.4275048
308926650,49.6753163,18.4231198
599496142,49.6677714,18.4573141
639043851,49.6676335,18.4580815
1820283164,49.6661875,18.2983438
1820283223,49.6641089,18.2846000
1820283254,49.6655105,18.2951724
1820283272,49.6647784,18.2906704
1820283292,49.6659248,18.2972279
1820283294,49.6644778,18.2882688
1820283390,49.6635684,18.2795490
1820283392,49.6637910,18.2814574
1820283394,49.6649475,18.2919413
1820283402,49.6629047,18.2754098
2210547011,49.6651802,18.2933508
2479113684,49.6646198,18.2895309
3391074547,49.6632337,18.2773466
1820283156,49.6637151,18.2796613
1820283159,49.6630434,18.2752754
1820283209,49.6653097,18.2933260
1820283221,49.6656439,18.2951308
1820283226,49.6641329,18.2836032
1820283306,49.6639100,18.2813944
1973789905,49.6646061,18.2882554
1973789911,49.6649022,18.2906372
1973789925,49.6659355,18.2965627
1973789928,49.6663224,18.2982732
2210547010,49.6650798,18.2918951
2479113690,49.6647578,18.2895157
3391074548,49.6633849,18.2772652
569035554,49.6625594,18.2729459
1820283408,49.6629126,18.2746113
2441292361,49.6624168,18.2723603
1820283159,49.6630434,18.2752754
1820283408,49.6629126,18.2746113
1820283402,49.6629047,18.2754098
1820283406,49.6627811,18.2747288
2441292352,49.6622210,18.2720755
2441292357,49.6623060,18.2724404
2441292359,49.6623339,18.2720196
2441292361,49.6624168,18.2723603
1820283171,49.6625150,18.2734641
1820283406,49.6627811,18.2747288
2441292357,49.6623060,18.2724404
1820283164,49.6661875,18.2983438
1820283288,49.6666954,18.3003492
1973789928,49.6663224,18.2982732
1973789930,49.6668131,18.3002814
1820283315,49.6682145,18.3094550
1973789944,49.6683354,18.3088816
1820283155,49.6681817,18.3084056
1820283315,49.6682145,18.3094550
2210547021,49.6681316,18.3075834
1820283175,49.6671559,18.3021400
1820283200,49.6680696,18.3069361
1820283201,49.6676068,18.3040192
1820283288,49.6666954,18.3003492
1820283319,49.6679016,18.3056360
2210547012,49.6673850,18.3030478
2210547014,49.6677671,18.3048408
2210547018,49.6680172,18.3064570
2210547021,49.6681316,18.3075834
609627739,49.6680393,18.3056140
1820283150,49.6672114,18.3018165
1820283205,49.6677369,18.3039695
1820283240,49.6681480,18.3063896
1973789930,49.6668131,18.3002814
1973789943,49.6682643,18.3075338
1973789944,49.6683354,18.3088816
1973789946,49.6683171,18.3084125
2210547013,49.6675030,18.3029879
2210547017,49.6678904,18.3047755
262118039,49.6674634,18.4592741
262118040,49.6674332,18.4596426
262118041,49.6674051,18.4600819
262010204,49.6672884,18.4600823
262010209,49.6673142,18.4596316
262010211,49.6673519,18.4592584
262118047,49.6681051,18.4669323
639043854,49.6679638,18.4664316
639043852,49.6679663,18.4668896
639043853,49.6678208,18.4663410
262118047,49.6681051,18.4669323
262118048,49.6688849,18.4691372
262118049,49.6718734,18.4766383
639043855,49.6722044,18.4774941
639048709,49.6684610,18.4680370
261985027,49.6683046,18.4679750
261985029,49.6695820,18.4713343
261985033,49.6712572,18.4754324
639043852,49.6679663,18.4668896
639043856,49.6721109,18.4775985
262118041,49.6674051,18.4600819
262118042,49.6673686,18.4613658
262118043,49.6673832,18.4625484
262118044,49.6674707,18.4637536
262118045,49.6676238,18.4648123
262118046,49.6677769,18.4657020
639043854,49.6679638,18.4664316
261985021,49.6676716,18.4657216
262010193,49.6674956,18.4648422
262010196,49.6673592,18.4638313
262010199,49.6672759,18.4625590
262010201,49.6672319,18.4613644
262010204,49.6672884,18.4600823
639043853,49.6678208,18.4663410
261985049,49.6799625,18.4982370
261985053,49.6819937,18.5038615
261985056,49.6837669,18.5087373
262010089,49.6849496,18.5114893
262010091,49.6855171,18.5128066
262010093,49.6869535,18.5160290
262010096,49.6882818,18.5189542
262010099,49.6899085,18.5224523
262010100,49.6904825,18.5234814
262010103,49.6910925,18.5245308
262010105,49.6922338,18.5262089
262010110,49.6932504,18.5274763
262010114,49.6945163,18.5288856
262010118,49.6959362,18.5300680
262010121,49.6973521,18.5310383
262010123,49.6985995,18.5317294
262010128,49.6997693,18.5322481
262010132,49.7012868,18.5327187
262010137,49.7028204,18.5331908
262010138,49.7046163,18.5336724
262010142,49.7055862,18.5339767
510127146,49.6867602,18.5155955
510127157,49.6885657,18.5195866
2129834969,49.6830087,18.5067124
2129834976,49.6842982,18.5100703
2129834979,49.6889138,18.5203983
262118068,49.6800431,18.4981616
262118072,49.6838673,18.5086410
262118073,49.6850282,18.5113618
262118074,49.6870539,18.5159458
262118075,49.6883655,18.5188403
262118076,49.6899830,18.5223431
262120228,49.6905626,18.5234221
262120229,49.6911598,18.5244305
262120230,49.6922939,18.5260828
262120231,49.6933175,18.5273704
262120233,49.6945720,18.5286736
262120240,49.6959953,18.5299131
262120245,49.6973945,18.5308902
262120246,49.6998105,18.5320829
262124288,49.7013015,18.5325861
262124289,49.7028634,18.5330156
262124290,49.7046461,18.5335207
262124291,49.7056042,18.5338070
510127215,49.6868408,18.5154634
510127233,49.6883109,18.5187200
1980827443,49.6986348,18.5315717
2129834970,49.6831008,18.5066554
2129834977,49.6844138,18.5099941
639043855,49.6722044,18.4774941
639043857,49.6732207,18.4800971
261985036,49.6731220,18.4801601
639043856,49.6721109,18.4775985
261985036,49.6731220,18.4801601
261985040,49.6747831,18.4843602
2316824496,49.6755032,18.4862221
262118050,49.6737539,18.4813912
262118054,49.6754011,18.4856036
639043857,49.6732207,18.4800971
2316824497,49.6756062,18.4861476
262118061,49.6787172,18.4944787
610339770,49.6796559,18.4970709
2316824494,49.6756968,18.4863821
261985042,49.6765855,18.4890397
261985047,49.6781147,18.4932504
610339767,49.6790437,18.4958283
2316824495,49.6755956,18.4864603
2316824495,49.6755956,18.4864603
2316824496,49.6755032,18.4862221
2316824494,49.6756968,18.4863821
2316824497,49.6756062,18.4861476
261985049,49.6799625,18.4982370
610339767,49.6790437,18.4958283
262118068,49.6800431,18.4981616
610339770,49.6796559,18.4970709
261728528,49.7176323,18.5618465
262010163,49.7121625,18.5426087
262010166,49.7124743,18.5439343
262010169,49.7131244,18.5474094
262010171,49.7142750,18.5535663
262010172,49.7145486,18.5549484
262010174,49.7147639,18.5558119
262010178,49.7150103,18.5566769
262010182,49.7153879,18.5576940
262010185,49.7159386,18.5588496
262010189,49.7163622,18.5596398
2129834984,49.7119215,18.5418167
2129834986,49.7156548,18.5582716
261728601,49.7184655,18.5630541
261728602,49.7177267,18.5617034
262124298,49.7109885,18.5390619
262124299,49.7116145,18.5404751
262124300,49.7122860,18.5425488
262124301,49.7126044,18.5438715
262124302,49.7132483,18.5473514
262124303,49.7143880,18.5534919
262124304,49.7146665,18.5548748
262124305,49.7148821,18.5557365
262124306,49.7151220,18.5565102
262124307,49.7155084,18.5575733
262124308,49.7160183,18.5586857
262124314,49.7164815,18.5595216
2129834982,49.7113217,18.5397701
2129834985,49.7119662,18.5414941
2129834987,49.7157533,18.5581350
2129834989,49.7182121,18.5625501
262010142,49.7055862,18.5339767
262010144,49.7064436,18.5343630
262010146,49.7075278,18.5350089
262010148,49.7081438,18.5355046
262010149,49.7089094,18.5362553
262010154,49.7096213,18.5371027
262010156,49.7103073,18.5380982
262010159,49.7108907,18.5391507
2129834980,49.7070450,18.5346772
262124291,49.7056042,18.5338070
262124292,49.7070725,18.5344877
262124293,49.7076186,18.5348766
262124294,49.7081986,18.5353483
262124295,49.7089750,18.5361241
262124296,49.7097025,18.5369888
262124297,49.7103653,18.5379943
262124298,49.7109885,18.5390619
1409366897,49.7064792,18.5341981
262010159,49.7108907,18.5391507
262010160,49.7114941,18.5405661
2129834981,49.7112232,18.5398542
2129834983,49.7118437,18.5415610
2129834984,49.7119215,18.5418167
261728583,49.7240378,18.5873416
261728584,49.7235621,18.5854690
261728585,49.7229576,18.5837491
261728587,49.7220708,18.5817443
261728593,49.7211700,18.5796280
261728594,49.7206632,18.5782257
261728595,49.7202189,18.5762536
261728596,49.7199716,18.5740936
261728597,49.7199786,18.5722599
261728598,49.7199605,18.5688933
261728599,49.7196867,18.5669248
261728600,49.7192349,18.5651078
261728601,49.7184655,18.5630541
615117431,49.7200176,18.5706548
1467072628,49.7199494,18.5731735
1467072633,49.7232811,18.5846158
1467072642,49.7237987,18.5863110
2129834991,49.7189070,18.5641243
2129834993,49.7194490,18.5658746
2129834996,49.7198432,18.5679061
2129834999,49.7200115,18.5697825
2129835000,49.7200811,18.5751858
2129835001,49.7204260,18.5773093
2129835003,49.7209137,18.5789623
261728528,49.7176323,18.5618465
261728529,49.7184856,18.5635324
261728530,49.7191049,18.5651585
261728531,49.7195652,18.5670208
2129834988,49.7180982,18.5627209
2129834990,49.7188068,18.5642899
2129834992,49.7193165,18.5659114
2129834994,49.7197124,18.5679481
2129834995,49.7197707,18.5685239
261728532,49.7198077,18.5688898
261728533,49.7198463,18.5722554
261728534,49.7198553,18.5741219
261728535,49.7201042,18.5762972
261728536,49.7205606,18.5783174
261728537,49.7210488,18.5797429
261728538,49.7219696,18.5818519
261728539,49.7228607,18.5839131
261728540,49.7234151,18.5854364
261728541,49.7239077,18.5873820
261728542,49.7242574,18.5896583
261728543,49.7246106,18.5924466
261728544,49.7250045,18.5955803
261728545,49.7251970,18.5969304
261728546,49.7253813,18.5979355
261728547,49.7257202,18.5991829
312177171,49.7258050,18.5994819
615117432,49.7198888,18.5706643
1467072625,49.7198251,18.5731795
1467072630,49.7203097,18.5773565
1467072632,49.7231503,18.5846459
1467072634,49.7236858,18.5863911
1467072644,49.7240122,18.5879380
1467072647,49.7241075,18.5885440
1467072659,49.7250930,18.5962592
1467072660,49.7255342,18.5985595
2129834995,49.7197707,18.5685239
2129834997,49.7198687,18.5697457
2129834998,49.7199537,18.5752121
2129835002,49.7208032,18.5790438
261728575,49.7269852,18.6018618
261728576,49.7263100,18.6005026
261728577,49.7258176,18.5991480
261728578,49.7254881,18.5978908
261728579,49.7252858,18.5968736
261728580,49.7250983,18.5955741
261728581,49.7247053,18.5924312
261728582,49.7243536,18.5895859
261728583,49.7240378,18.5873416
1467072650,49.7242164,18.5884815
1467072655,49.7245303,18.5910030
1467072662,49.7256197,18.5984633
1467072670,49.7260537,18.5998359
261728549,49.7268961,18.6019902
261728550,49.7271743,18.6024522
261728550,49.7271743,18.6024522
261728551,49.7279027,18.6034808
312177006,49.7285575,18.6042402
261728574,49.7272468,18.6023140
261728575,49.7269852,18.6018618
261728573,49.7279922,18.6033647
261728574,49.7272468,18.6023140
261728548,49.7262362,18.6006260
261728549,49.7268961,18.6019902
312177171,49.7258050,18.5994819