@id,@lat,@lon
18007473,49.2731737,17.0216646
18007478,49.2726793,17.0225538
18007482,49.2741964,17.0211766
18007502,49.2726418,17.0252824
2129816111,49.2725004,17.0237963
2318223003,49.2725354,17.0243169
2318223027,49.2725363,17.0231601
2318223031,49.2737951,17.0212354
2318223032,49.2728961,17.0220569
2318223035,49.2734533,17.0214106
3565342264,49.2726007,17.0228430
3565342265,49.2726026,17.0246940
3565342268,49.2727786,17.0222948
3565342270,49.2730276,17.0218438
3565342273,49.2733122,17.0215240
3565342274,49.2736247,17.0213059
3565342277,49.2739968,17.0211894
18007483,49.2751146,17.0212497
21456433,49.2702662,17.0178942
21456434,49.2718069,17.0200828
21456435,49.2726652,17.0204956
21456602,49.2705676,17.0187064
25232107,49.2707910,17.0191066
25468488,49.2700302,17.0153853
25468489,49.2712048,17.0196252
1661251915,49.2700977,17.0169550
3565342232,49.2700587,17.0162519
3565342234,49.2701599,17.0174357
3565342240,49.2704045,17.0183182
3565342247,49.2709922,17.0193995
3565342272,49.2732775,17.0207353
3565342275,49.2738863,17.0209419
3565342278,49.2745007,17.0211113
3565390104,49.2715120,17.0198899
1329109,49.2735347,17.0201283
25232700,49.2744012,17.0206880
25232701,49.2752303,17.0210355
25468491,49.2729422,17.0196199
25468492,49.2727654,17.0194382
3565330349,49.2757696,17.0211697
3565342271,49.2731972,17.0198528
3565342276,49.2739587,17.0204341
3565342280,49.2748152,17.0208889
18007476,49.2715371,17.0202890
3565342251,49.2714226,17.0200305
3565390101,49.2712701,17.0194050
25468492,49.2727654,17.0194382
1830431166,49.2719873,17.0181483
3565342258,49.2721517,17.0185365
3565342260,49.2723502,17.0188618
3565342263,49.2725280,17.0190908
3565342266,49.2727196,17.0192941
25468493,49.2711262,17.0170180
3565342244,49.2708347,17.0163526
3565390100,49.2707094,17.0160289
25468487,49.2699635,17.0148397
25468488,49.2700302,17.0153853
245931048,49.2697612,17.0137233
3565342230,49.2697609,17.0139230
3565342231,49.2698621,17.0143017
3565382891,49.2699186,17.0145624
25468492,49.2727654,17.0194382
25468493,49.2711262,17.0170180
1830431160,49.2716484,17.0179984
3565342259,49.2722008,17.0187820
3565342262,49.2724759,17.0191209
500328023,49.2718125,17.0174173
500328025,49.2716046,17.0159696
500328027,49.2713567,17.0156388
500328029,49.2708222,17.0155138
500328031,49.2702884,17.0161779
500328033,49.2702678,17.0170806
1661251929,49.2702184,17.0166810
1661251940,49.2704518,17.0175214
1661251942,49.2704583,17.0158140
1661251946,49.2707609,17.0180289
1661251955,49.2710895,17.0155091
1830431163,49.2717531,17.0165165
1830431166,49.2719873,17.0181483
2318223037,49.2716958,17.0162233
3565342235,49.2702336,17.0168830
3565342236,49.2702365,17.0164312
3565342237,49.2703466,17.0173137
3565342246,49.2709755,17.0154884
3565342249,49.2712251,17.0155441
3565342252,49.2714923,17.0157851
3565342255,49.2718815,17.0177956
3565390094,49.2703628,17.0159785
3565390096,49.2705310,17.0157069
3565390099,49.2706363,17.0156105
1661251946,49.2707609,17.0180289
1830431155,49.2710054,17.0185328
3565342248,49.2711514,17.0189341
3565390101,49.2712701,17.0194050
3565342241,49.2704604,17.0153637
3565390097,49.2705814,17.0157050
3565390100,49.2707094,17.0160289
25237300,49.2700114,17.0141551
3565342233,49.2701450,17.0143799
3565342238,49.2703546,17.0150578
3565342241,49.2704604,17.0153637
1327056,49.2752278,17.0212645
18007483,49.2751146,17.0212497
3565330348,49.2757532,17.0213406
18007482,49.2741964,17.0211766
18007483,49.2751146,17.0212497
3565342279,49.2745593,17.0212086
3565342281,49.2749055,17.0212838
1327057,49.2776130,17.0214232
25468490,49.2762770,17.0213969
25470013,49.2786343,17.0213160
457491168,49.2791236,17.0212249
3565330348,49.2757532,17.0213406
3565330351,49.2769464,17.0214232
25469989,49.2876997,17.0199287
25469990,49.2866432,17.0195312
25469991,49.2859193,17.0194201
25469992,49.2851082,17.0194486
268615816,49.2882733,17.0202326
3565330397,49.2855209,17.0194129
3565330398,49.2862885,17.0194591
3565330400,49.2871653,17.0197014
1327058,49.2833170,17.0200723
1327059,49.2849663,17.0196285
1327060,49.2876886,17.0200919
25469301,49.2811583,17.0207091
25469302,49.2866378,17.0196797
25469303,49.2859301,17.0195705
245931518,49.2806911,17.0208466
245931519,49.2797857,17.0210873
268615817,49.2882286,17.0203757
457491168,49.2791236,17.0212249
3459527444,49.2844148,17.0197523
3565330396,49.2854174,17.0195744
3565330399,49.2871577,17.0198542
25469994,49.2810672,17.0205740
25469995,49.2775749,17.0212587
25469996,49.2763160,17.0212411
25470014,49.2786322,17.0211556
25470016,49.2797563,17.0209407
3565330349,49.2757696,17.0211697
3565330350,49.2769455,17.0212699
3565330352,49.2781040,17.0212198
3565330353,49.2791982,17.0210533
3565330357,49.2799966,17.0208757
3565330366,49.2804249,17.0207600
25469992,49.2851082,17.0194486
245931509,49.2837635,17.0197659
3459527443,49.2843750,17.0195905
25469993,49.2833112,17.0199031
245931506,49.2825277,17.0201403
833741757,49.2819110,17.0203190
833741817,49.2814257,17.0204629
25469994,49.2810672,17.0205740
833741817,49.2814257,17.0204629
25469993,49.2833112,17.0199031
245931509,49.2837635,17.0197659
25469988,49.3119264,17.0333456
268615816,49.2882733,17.0202326
1327063,49.3118999,17.0335074
70835209,49.3049415,17.0296717
70835353,49.3081072,17.0314239
268615817,49.2882286,17.0203757
25469977,49.3329140,17.0584958
25469978,49.3321817,17.0575388
25469979,49.3312995,17.0561669
25469980,49.3307719,17.0551067
25469981,49.3302697,17.0539119
25469982,49.3291086,17.0509002
25469983,49.3284267,17.0495640
25469984,49.3277263,17.0484682
25469985,49.3265099,17.0469694
25469986,49.3152503,17.0356204
25469987,49.3136403,17.0343157
25469988,49.3119264,17.0333456
146065724,49.3326281,17.0581287
1469153004,49.3140846,17.0346275
1469153008,49.3144504,17.0349176
2386781123,49.3167509,17.0371327
2386781155,49.3193191,17.0397212
1327063,49.3118999,17.0335074
1327065,49.3136122,17.0344656
1327069,49.3277563,17.0487904
1327070,49.3284044,17.0498672
1327072,49.3307841,17.0553770
1327073,49.3328269,17.0586029
25469304,49.3151970,17.0357468
25469305,49.3265295,17.0473319
25469306,49.3290778,17.0511895
25469307,49.3302654,17.0541332
25469308,49.3313155,17.0564232
25469309,49.3321901,17.0578241
28223875,49.3322861,17.0579471
1469153002,49.3140404,17.0347712
1469153006,49.3143939,17.0350450
25469961,49.3688846,17.0970578
25469962,49.3673132,17.0962096
25469963,49.3657066,17.0950747
25469964,49.3639912,17.0935157
25469965,49.3626179,17.0919687
25469966,49.3616454,17.0906366
25469967,49.3607273,17.0892329
25469968,49.3595796,17.0872618
25469969,49.3529909,17.0752612
25469970,49.3523525,17.0741624
25469971,49.3516529,17.0731196
25469972,49.3506059,17.0718260
25469973,49.3497223,17.0709557
25469974,49.3485476,17.0700306
146182877,49.3422098,17.0655669
245932575,49.3695126,17.0973553
1327074,49.3343490,17.0601046
25469310,49.3337670,17.0596170
146147836,49.3331428,17.0589628
146182870,49.3416574,17.0653456
265743187,49.3362072,17.0614848
25469975,49.3343801,17.0599417
25469976,49.3338108,17.0594560
146147833,49.3332129,17.0588627
146182872,49.3416944,17.0651904
265743186,49.3362474,17.0613055
1327073,49.3328269,17.0586029
146147836,49.3331428,17.0589628
25469977,49.3329140,17.0584958
146147833,49.3332129,17.0588627
146182872,49.3416944,17.0651904
146182877,49.3422098,17.0655669
146182868,49.3421886,17.0657399
146182870,49.3416574,17.0653456
1327077,49.3484936,17.0702835
1327078,49.3504963,17.0720078
1327080,49.3522554,17.0743069
25469311,49.3496282,17.0711376
25469312,49.3515477,17.0732629
25469313,49.3529007,17.0754023
146182868,49.3421886,17.0657399
2386781156,49.3579615,17.0846162
1327081,49.3594786,17.0873784
1327082,49.3625224,17.0921139
1327084,49.3672567,17.0963970
25469314,49.3606421,17.0893671
25469315,49.3615424,17.0907718
25469316,49.3656430,17.0952485
25469317,49.3638979,17.0936593
25469318,49.3682188,17.0969293
245932576,49.3695232,17.0975532
2386781156,49.3579615,17.0846162
25469816,49.4423883,17.1123640
25469817,49.4415196,17.1115073
25469913,49.4391547,17.1094010
25469914,49.4383913,17.1088716
25469915,49.4377147,17.1086035
25469916,49.4367031,17.1083233
25469917,49.4352636,17.1083750
25469918,49.4347675,17.1084895
25469919,49.4339724,17.1088018
25469920,49.4332076,17.1092798
25469921,49.4314127,17.1107638
25469922,49.4304302,17.1114059
25469923,49.4295049,17.1118371
25469924,49.4284959,17.1121270
25469925,49.4272383,17.1122370
25469926,49.4239293,17.1116569
25469927,49.4219753,17.1114267
25469928,49.4207549,17.1113231
25469929,49.4193099,17.1112886
25469930,49.4178349,17.1113231
25469931,49.4164047,17.1113807
25469932,49.4153639,17.1114152
25469933,49.4139637,17.1112771
25469934,49.4121815,17.1108743
25469935,49.4105714,17.1102412
25469936,49.4092834,17.1095391
25469937,49.4081403,17.1087930
25469938,49.4067186,17.1077429
25469939,49.4047000,17.1060172
245932645,49.4033495,17.1050255
1994426574,49.4263179,17.1121409
1994426677,49.4360595,17.1082992
1994426686,49.4372232,17.1084370
1327097,49.4066554,17.1078911
1327098,49.4121401,17.1111024
1327099,49.4153515,17.1116378
1327100,49.4207270,17.1115213
1327102,49.4239066,17.1118487
25469332,49.4046487,17.1061855
25469333,49.4092330,17.1097674
25469334,49.4105094,17.1104502
25469335,49.4080885,17.1090073
25469336,49.4139408,17.1115092
25469337,49.4193049,17.1115088
25469338,49.4163973,17.1116260
25469339,49.4178432,17.1115515
25469340,49.4219480,17.1116272
28223836,49.4041866,17.1058727
245932297,49.4035439,17.1054001
245932646,49.4032986,17.1052415
3494796440,49.4248474,17.1120226
1327087,49.3811727,17.0974859
1327089,49.3844884,17.0972789
1327091,49.3885639,17.0982326
1327092,49.3935403,17.1010306
1327093,49.3950699,17.1017389
1327094,49.3988947,17.1029976
1327096,49.4029201,17.1049459
25469321,49.3749721,17.0983596
25469322,49.3764389,17.0981905
25469323,49.3741780,17.0984027
25469325,49.3830558,17.0973080
25469326,49.3863780,17.0975366
25469327,49.3875781,17.0978933
25469328,49.3901704,17.0990577
25469330,49.3961531,17.1021562
25469331,49.4014880,17.1040651
245932644,49.4020975,17.1043912
2386781157,49.3738385,17.0983794
245932576,49.3695232,17.0975532
245932578,49.3700860,17.0977265
245932575,49.3695126,17.0973553
245932577,49.3700625,17.0975165
1327086,49.3735527,17.0983598
25469319,49.3722541,17.0982389
25469324,49.3728321,17.0983127
2386781157,49.3738385,17.0983794
25469958,49.3722729,17.0980075
25469959,49.3712161,17.0978317
25469960,49.3701915,17.0975476
245932577,49.3700625,17.0975165
1327085,49.3701642,17.0977517
25469319,49.3722541,17.0982389
25469320,49.3712669,17.0980763
245932556,49.3715732,17.0981281
245932578,49.3700860,17.0977265
25469952,49.3811547,17.0972830
25469953,49.3764175,17.0979558
25469953,49.3764175,17.0979558
25469954,49.3749821,17.0981214
25469955,49.3742071,17.0981731
25469956,49.3735602,17.0981421
25469957,49.3728458,17.0980800
25469958,49.3722729,17.0980075
25469940,49.4029398,17.1047279
25469941,49.4015256,17.1038792
25469942,49.3989327,17.1027714
25469943,49.3961837,17.1019082
25469944,49.3950874,17.1015162
25469945,49.3902370,17.0988976
25469946,49.3935587,17.1008296
25469947,49.3886201,17.0980489
25469948,49.3875960,17.0976660
25469949,49.3864237,17.0973244
25469950,49.3845102,17.0970657
25469951,49.3830683,17.0970760
25469952,49.3811547,17.0972830
93445478,49.4021126,17.1041943
25469940,49.4029398,17.1047279
245932645,49.4033495,17.1050255
1327096,49.4029201,17.1049459
245932646,49.4032986,17.1052415
1327103,49.4285016,17.1122798
1327105,49.4295299,17.1119871
1327106,49.4332382,17.1094363
1327107,49.4352743,17.1085205
1327108,49.4383193,17.1090541
1327109,49.4414611,17.1116609
25469341,49.4272306,17.1123898
25469342,49.4314569,17.1108982
25469343,49.4304442,17.1115691
25469344,49.4376926,17.1087428
25469345,49.4367075,17.1084851
25469346,49.4347686,17.1086494
25469347,49.4339818,17.1089684
25469348,49.4390922,17.1095156
25469616,49.4423326,17.1124954
69350689,49.4418921,17.1120705
1994426573,49.4263127,17.1122936
1994426675,49.4360577,17.1084498
1994426684,49.4372062,17.1085897
3494796440,49.4248474,17.1120226
1327111,49.4442875,17.1141259
25469616,49.4423326,17.1124954
2386781158,49.4452616,17.1147384
3678592463,49.4433181,17.1133744
25469810,49.4476959,17.1155267
25469811,49.4469798,17.1152814
25469812,49.4496815,17.1158589
25469814,49.4458451,17.1148451
25469815,49.4443335,17.1139934
25469816,49.4423883,17.1123640
78342510,49.4461940,17.1149905
2706080143,49.4545888,17.1165067
3678592464,49.4433556,17.1132267
3678592465,49.4452962,17.1145610
1327112,49.4480301,17.1158017
1327113,49.4597638,17.1175135
1327114,49.4619318,17.1189271
25469617,49.4457994,17.1150443
25469618,49.4469333,17.1155124
25469619,49.4583948,17.1172166
25469620,49.4612190,17.1182993
25469621,49.4630005,17.1202425
25469813,49.4496794,17.1160558
882331826,49.4576793,17.1171281
2386781158,49.4452616,17.1147384
3494796439,49.4633126,17.1207948
3538359774,49.4591866,17.1173412
3538359789,49.4604816,17.1178395
3538362448,49.4624533,17.1195028
882331764,49.4576888,17.1169502
2706080143,49.4545888,17.1165067
27786108,49.5087858,17.1456599
27786124,49.5053130,17.1432854
27786131,49.5036821,17.1421307
27786133,49.5022356,17.1414474
27786136,49.5004596,17.1410282
27786138,49.4985180,17.1410401
27788928,49.4938118,17.1415413
27788934,49.4920512,17.1415376
27788940,49.4906488,17.1411547
27788944,49.4891420,17.1402189
27788949,49.4876533,17.1385565
27788953,49.4867638,17.1371730
244076121,49.5097558,17.1462532
246523657,49.4897731,17.1406772
246523663,49.4913799,17.1413989
246523827,49.4882220,17.1392908
2132754118,49.4928040,17.1416065
2132754150,49.5029919,17.1417592
3250606632,49.4967270,17.1412099
3250606636,49.4993403,17.1409864
3250606638,49.4955929,17.1413493
3250606639,49.5013012,17.1411393
3250606641,49.4977728,17.1411241
1327128,49.4891113,17.1403645
1327129,49.4906169,17.1412738
1327130,49.4938073,17.1416693
1327131,49.5003031,17.1411344
1327675,49.5035969,17.1422209
1327676,49.5087657,17.1457875
25470326,49.4866744,17.1372801
25470327,49.4920135,17.1416670
25470328,49.4984921,17.1411696
25470329,49.5052438,17.1433617
27786140,49.5021605,17.1415330
27788967,49.4876102,17.1386862
244076123,49.5097443,17.1464450
246523659,49.4897482,17.1407911
246523661,49.4913610,17.1415216
246523828,49.4881714,17.1394036
2132754115,49.4927884,17.1417233
2132754148,49.5029508,17.1418669
3250605636,49.5074077,17.1448490
3250606631,49.4967118,17.1413528
3250606633,49.4955895,17.1414798
3250606634,49.5042956,17.1426817
3250606635,49.4993138,17.1411148
3250606637,49.5012962,17.1412767
3250606640,49.4977239,17.1412612
25469802,49.4648419,17.1244027
25469803,49.4643887,17.1230219
25469804,49.4639052,17.1216061
25469805,49.4630847,17.1201511
25469806,49.4619525,17.1187637
25469807,49.4612496,17.1181450
25469808,49.4597913,17.1173774
25469809,49.4583953,17.1170557
882331764,49.4576888,17.1169502
3538359775,49.4592053,17.1171896
3538359790,49.4605326,17.1176992
3538362450,49.4625283,17.1193874
25469623,49.4657144,17.1277290
25469625,49.4647510,17.1244750
25469637,49.4651087,17.1252896
25469801,49.4658061,17.1276633
25469802,49.4648419,17.1244027
1327117,49.4671712,17.1311728
246524163,49.4665513,17.1299575
246524349,49.4675810,17.1317845
3074755105,49.4667399,17.1303704
3074755107,49.4669373,17.1307703
3074755121,49.4674026,17.1315211
27789040,49.4672194,17.1310479
60621363,49.4674399,17.1313972
246524162,49.4666424,17.1298924
246524350,49.4676280,17.1316541
3074755106,49.4668273,17.1302971
3074755110,49.4670065,17.1306673
1327115,49.4638009,17.1217138
25469622,49.4643222,17.1231604
25469625,49.4647510,17.1244750
3494796439,49.4633126,17.1207948
25469623,49.4657144,17.1277290
25469624,49.4661608,17.1289960
246524163,49.4665513,17.1299575
3074755094,49.4659451,17.1284062
3074755101,49.4663336,17.1294373
25469801,49.4658061,17.1276633
27789043,49.4660457,17.1283740
246524162,49.4666424,17.1298924
2522201289,49.4662560,17.1289470
3074755102,49.4664282,17.1293876
25470320,49.4683581,17.1326513
25470321,49.4697765,17.1335676
246524343,49.4707139,17.1338190
246524346,49.4690266,17.1331752
246524351,49.4680413,17.1323394
1653315539,49.4717635,17.1338470
3074755235,49.4687244,17.1329615
3074755247,49.4693417,17.1333613
3074755273,49.4702494,17.1337297
3074755293,49.4712308,17.1338572
27789032,49.4697886,17.1334153
27789034,49.4680857,17.1322115
246524344,49.4707042,17.1336677
246524345,49.4690541,17.1330313
246524352,49.4684046,17.1325285
1653315535,49.4717453,17.1336886
3074755237,49.4687562,17.1328183
3074755250,49.4694120,17.1332426
3074755274,49.4702551,17.1335743
3074755292,49.4712263,17.1337035
27789034,49.4680857,17.1322115
246524350,49.4676280,17.1316541
3074755127,49.4678587,17.1319436
246524349,49.4675810,17.1317845
246524351,49.4680413,17.1323394
3074755125,49.4678122,17.1320728
1327125,49.4829894,17.1319056
25470324,49.4818180,17.1310429
25470325,49.4847817,17.1342854
69334802,49.4835519,17.1324778
1600458812,49.4865866,17.1371394
1665816697,49.4824747,17.1314785
1665816749,49.4841719,17.1333131
27788960,49.4842546,17.1331531
27788972,49.4830527,17.1317796
27788978,49.4818244,17.1308754
69334821,49.4836406,17.1324024
1600458822,49.4866727,17.1370270
1665816701,49.4825247,17.1313244
27788996,49.4775245,17.1309211
27789008,49.4740879,17.1329956
27789015,49.4730442,17.1334577
27789019,49.4723260,17.1336358
1653315535,49.4717453,17.1336886
1653315807,49.4735774,17.1332533
1653315987,49.4784906,17.1305178
3074755376,49.4727046,17.1335604
3074755386,49.4733105,17.1333631
3074755396,49.4738494,17.1331256
3074755424,49.4748111,17.1325750
1327120,49.4723437,17.1337795
1327121,49.4741361,17.1331323
1327122,49.4775459,17.1310906
27789049,49.4730740,17.1336091
1653315539,49.4717635,17.1338470
1653315813,49.4736154,17.1333995
1653315990,49.4785102,17.1306769
3074755377,49.4727273,17.1337070
3074755389,49.4733763,17.1335027
3074755399,49.4738891,17.1332688
3074755426,49.4748849,17.1326963
27788985,49.4801529,17.1303467
69334887,49.4809434,17.1305163
69334911,49.4815914,17.1307526
69334945,49.4794520,17.1303301
1574659043,49.4791881,17.1303725
25470324,49.4818180,17.1310429
69334927,49.4815652,17.1309151
27788978,49.4818244,17.1308754
69334911,49.4815914,17.1307526
27788992,49.4787595,17.1304414
1574659037,49.4790823,17.1303903
1653315987,49.4784906,17.1305178
1574659037,49.4790823,17.1303903
1574659043,49.4791881,17.1303725
1574659040,49.4790954,17.1305347
1574659046,49.4791982,17.1305184
25470323,49.4801731,17.1304984
69334895,49.4809298,17.1306704
69334927,49.4815652,17.1309151
69334958,49.4794444,17.1304794
1574659046,49.4791982,17.1305184
1327124,49.4787817,17.1305970
1574659040,49.4790954,17.1305347
1653315990,49.4785102,17.1306769
25470326,49.4866744,17.1372801
1600458812,49.4865866,17.1371394
27788953,49.4867638,17.1371730
1600458822,49.4866727,17.1370270
244076118,49.5100511,17.1464335
244076121,49.5097558,17.1462532
244076115,49.5100319,17.1466214
244076123,49.5097443,17.1464450
1327678,49.5107404,17.1470319
1327679,49.5200743,17.1514096
1327681,49.5231142,17.1533969
1327682,49.5255210,17.1561751
1327683,49.5261650,17.1572095
1327685,49.5282594,17.1621655
25470330,49.5286854,17.1638084
25470331,49.5295752,17.1677830
27786115,49.5128688,17.1480917
27786118,49.5215773,17.1522354
27786120,49.5244286,17.1547463
27786122,49.5268492,17.1585020
244076115,49.5100319,17.1466214
2132754194,49.5118000,17.1475820
2132754358,49.5223529,17.1527816
2132754421,49.5237896,17.1540414
2132754519,49.5274314,17.1597964
2132754521,49.5278492,17.1608910
27786054,49.5287691,17.1637301
27786058,49.5295206,17.1671038
27786065,49.5283445,17.1620946
27786070,49.5275129,17.1596983
27786074,49.5262524,17.1571477
27786080,49.5255776,17.1560608
27786085,49.5244779,17.1546163
27786089,49.5231648,17.1532663
27786094,49.5216214,17.1521036
27786098,49.5200655,17.1511643
27786106,49.5107562,17.1468910
27786110,49.5129015,17.1479442
244076118,49.5100511,17.1464335
2132754195,49.5118324,17.1474399
2132754366,49.5224088,17.1526474
2132754437,49.5238410,17.1539072
2132754501,49.5269220,17.1584058
2132754522,49.5279318,17.1608187
27785968,49.5592769,17.1947357
27785992,49.5556609,17.1883811
27785998,49.5545572,17.1864863
27786000,49.5533950,17.1847601
27786002,49.5520656,17.1830377
27786003,49.5505880,17.1814269
27786005,49.5492020,17.1801301
27786007,49.5474942,17.1788422
27786010,49.5456326,17.1776758
27786012,49.5440336,17.1768566
27786016,49.5406104,17.1757771
27786018,49.5368430,17.1755052
27786030,49.5388307,17.1755538
116043549,49.5425150,17.1762630
457506867,49.5633911,17.2020325
2080475510,49.5397223,17.1756373
2080475516,49.5415739,17.1759895
2080475518,49.5432736,17.1765404
2126915817,49.5512179,17.1820873
2126915844,49.5527301,17.1838708
2126919545,49.5539825,17.1856018
1327690,49.5368444,17.1756589
1327692,49.5405983,17.1759214
1327693,49.5455934,17.1778092
1327694,49.5491493,17.1802425
1327696,49.5505285,17.1815382
25470333,49.5346926,17.1753404
25470334,49.5440005,17.1769903
25470335,49.5474551,17.1789886
25470336,49.5544796,17.1866066
25470337,49.5533293,17.1848748
25470338,49.5519936,17.1831603
27785995,49.5555863,17.1884946
27786033,49.5388215,17.1757035
59968621,49.5352795,17.1755189
116043526,49.5424944,17.1764128
457506863,49.5608526,17.1977700
457506869,49.5633393,17.2021797
2080474831,49.5357970,17.1756110
2080475509,49.5397155,17.1757764
2080475515,49.5415558,17.1761356
2080475517,49.5432508,17.1766862
2126915821,49.5516179,17.1827305
2126915840,49.5524596,17.1837413
2126919544,49.5539186,17.1857278
27786018,49.5368430,17.1755052
27786025,49.5352902,17.1753686
27786036,49.5339180,17.1748306
27786040,49.5328226,17.1740106
27786043,49.5317642,17.1728004
27786048,49.5308750,17.1712994
27786058,49.5295206,17.1671038
59968622,49.5347115,17.1752066
2080474581,49.5313002,17.1720937
2080474601,49.5322752,17.1734584
2080474678,49.5332126,17.1743580
2080474833,49.5358065,17.1754560
2132754572,49.5304139,17.1701878
2386781159,49.5297414,17.1680010
2386781160,49.5299873,17.1688983
2386781161,49.5302249,17.1696660
1327686,49.5307989,17.1713878
1327688,49.5316830,17.1729004
1327689,49.5338877,17.1749648
25470331,49.5295752,17.1677830
25470332,49.5327698,17.1741464
25470333,49.5346926,17.1753404
27786061,49.5299208,17.1690511
59968627,49.5331794,17.1745073
2080474580,49.5312257,17.1721702
2080474596,49.5322142,17.1735767
2132754571,49.5303379,17.1702601
27785968,49.5592769,17.1947357
27785974,49.5616033,17.1985407
457506866,49.5598860,17.1955454
457506863,49.5608526,17.1977700
496116844,49.5613519,17.1989020
496116845,49.5623018,17.2006097
27785974,49.5616033,17.1985407
457506868,49.5634942,17.2019020
2389488254,49.5626661,17.2004299
457506868,49.5634942,17.2019020
457506872,49.5637451,17.2023399
457506867,49.5633911,17.2020325
457506871,49.5636385,17.2024627
457506869,49.5633393,17.2021797
457506870,49.5635584,17.2025629
496116845,49.5623018,17.2006097
496116847,49.5632610,17.2022781
496116847,49.5632610,17.2022781
496116848,49.5634630,17.2026433
1327700,49.5669097,17.2084735
69308872,49.5659551,17.2067644
27785965,49.5669914,17.2083641
27785971,49.5662743,17.2070789
457506871,49.5636385,17.2024627
1327700,49.5669097,17.2084735
1327701,49.5675766,17.2098793
27785977,49.5673414,17.2093073
496116840,49.5678731,17.2106503
28164273,49.5670854,17.2082298
31312627,49.5663670,17.2069187
69308811,49.5654482,17.2053539
457506872,49.5637451,17.2023399
25470339,49.5666461,17.2087525
25470340,49.5674879,17.2110405
116043570,49.5670218,17.2100049
69308872,49.5659551,17.2067644
457506865,49.5648766,17.2048769
457506870,49.5635584,17.2025629
25470339,49.5666461,17.2087525
116043592,49.5664146,17.2080129
496116848,49.5634630,17.2026433
496116849,49.5643637,17.2042472
496116850,49.5658927,17.2069586
496116852,49.5660379,17.2072067
1329108,49.5686124,17.2151188
25470344,49.5686190,17.2138326
27785954,49.5685017,17.2127640
27785958,49.5682639,17.2115614
27785962,49.5676802,17.2098006
27785965,49.5669914,17.2083641
496116841,49.5674353,17.2092273
496116842,49.5679874,17.2106321
496122669,49.5685600,17.2156673
3081543816,49.5685731,17.2132621
3081543819,49.5686356,17.2144565
28164265,49.5713267,17.2183776
28164267,49.5695223,17.2129537
28164270,49.5690184,17.2118707
28164273,49.5670854,17.2082298
95974822,49.5709577,17.2170053
150541849,49.5699651,17.2140562
150541861,49.5686586,17.2111110
151023941,49.5703136,17.2149748
496116860,49.5679251,17.2096792
25470340,49.5674879,17.2110405
496122667,49.5679021,17.2115288
25470340,49.5674879,17.2110405
27785988,49.5680893,17.2149942
69308876,49.5680632,17.2129959
496116838,49.5681373,17.2138917
496116839,49.5678612,17.2120855
1329105,49.5676671,17.2180910
25470343,49.5653209,17.2192778
27785950,49.5672107,17.2185140
496116858,49.5666748,17.2187587
1536389823,49.5657521,17.2190594
1536389826,49.5661865,17.2188813
1329105,49.5676671,17.2180910
25470346,49.5712100,17.2184786
69308885,49.5697429,17.2170029
252648045,49.5691956,17.2170122
252648046,49.5687071,17.2172082
252648047,49.5682965,17.2174917
252648048,49.5709328,17.2178292
252648049,49.5705361,17.2173648
252648050,49.5701933,17.2171356
28164265,49.5713267,17.2183776
95974840,49.5711989,17.2173766
95974860,49.5712189,17.2166933
116040011,49.5716420,17.2144929
181307749,49.5722977,17.2124344
252648051,49.5714208,17.2155571
496119289,49.5720055,17.2131326
95968769,49.5702211,17.2150573
151023924,49.5703546,17.2161565
151023925,49.5702586,17.2164147
151023926,49.5699371,17.2166240
151023927,49.5694900,17.2160771
151023928,49.5694888,17.2157611
151023930,49.5701384,17.2165650
193587697,49.5696039,17.2153830
254762315,49.5695975,17.2163841
254762316,49.5697583,17.2165867
1536389831,49.5702812,17.2153785
1536389833,49.5703817,17.2157876
25470342,49.5688572,17.2124968
25470345,49.5698741,17.2141500
25470346,49.5712100,17.2184786
95968769,49.5702211,17.2150573
116043612,49.5693705,17.2131124
496116859,49.5708594,17.2170498
496122668,49.5686289,17.2122580
1536389827,49.5696681,17.2136810
25470341,49.5681916,17.2118443
496122667,49.5679021,17.2115288
496122668,49.5686289,17.2122580
496116853,49.5685128,17.2160160
496122669,49.5685600,17.2156673
496122670,49.5683577,17.2167256
28164258,49.5721629,17.2267278
28164260,49.5720688,17.2239599
28164263,49.5716506,17.2200655
254760845,49.5719041,17.2220232
667027402,49.5719886,17.2228921
25470346,49.5712100,17.2184786
25470347,49.5715406,17.2201424
25470348,49.5719640,17.2240099
25470349,49.5720597,17.2267660
254760846,49.5717970,17.2220474
667027403,49.5718830,17.2229124
2544920632,49.5713990,17.2194297
2544920639,49.5719184,17.2233923
1327703,49.5678249,17.2158565
27785980,49.5681478,17.2115833
27785983,49.5683247,17.2133071
27785988,49.5680893,17.2149942
193587721,49.5670619,17.2171792
496116834,49.5675694,17.2164094
496116835,49.5682596,17.2142748
496116837,49.5682753,17.2123592
496116840,49.5678731,17.2106503
1329105,49.5676671,17.2180910
1329107,49.5682785,17.2169654
496116854,49.5680277,17.2175302
496122670,49.5683577,17.2167256
95968623,49.5705271,17.2136872
150541849,49.5699651,17.2140562
150541850,49.5697559,17.2133069
150541851,49.5697449,17.2129766
150541852,49.5698580,17.2126309
150541853,49.5702229,17.2124232
150541854,49.5704295,17.2125301
150541855,49.5706008,17.2127860
150541856,49.5706680,17.2130959
150541857,49.5706277,17.2133975
150541858,49.5700112,17.2124605
31312634,49.5724358,17.2115911
150541859,49.5715842,17.2120312
150541860,49.5698674,17.2120699
150541861,49.5686586,17.2111110
496116861,49.5690689,17.2116176
496116862,49.5694879,17.2119445
496116863,49.5707549,17.2121422
496116864,49.5720169,17.2118761
25470345,49.5698741,17.2141500
95968626,49.5696244,17.2146801
95968634,49.5694554,17.2148054
95968638,49.5693760,17.2148345
95968653,49.5691743,17.2148343
95968662,49.5690632,17.2147797
95968671,49.5689686,17.2146720
95968680,49.5688771,17.2145035
95968696,49.5688242,17.2142229
95968711,49.5688665,17.2138439
95968723,49.5689776,17.2136278
95968732,49.5691213,17.2135055
95968747,49.5693676,17.2134834
95968765,49.5695181,17.2135805
1536389830,49.5697539,17.2139788
3081543831,49.5688203,17.2140776
3081543834,49.5688388,17.2143498
3081543835,49.5688414,17.2139490
3081543841,49.5689055,17.2137540
3081543854,49.5690399,17.2135698
3081543870,49.5691953,17.2134764
3081543880,49.5692664,17.2134683
3081543881,49.5692735,17.2148480
3081543896,49.5694342,17.2135170
3081543919,49.5696381,17.2137302
151023933,49.5711154,17.2143233
151023935,49.5713120,17.2148936
151023937,49.5709097,17.2155802
151023939,49.5705943,17.2154372
151023941,49.5703136,17.2149748
193587696,49.5704989,17.2143936
193587700,49.5712643,17.2152212
193587701,49.5711123,17.2154753
254762314,49.5709318,17.2142075
496119286,49.5712557,17.2145638
496119288,49.5707653,17.2155615
1536389835,49.5705989,17.2143293
1536389838,49.5707444,17.2142319
1536389839,49.5711927,17.2144332
28164263,49.5716506,17.2200655
28164265,49.5713267,17.2183776