{
  "type": "FeatureCollection",
  "generator": "overpass-turbo",
  "copyright": "The data included in this document is from www.openstreetmap.org. The data is made available under ODbL.",
  "timestamp": "2015-11-23T20:43:02Z",
  "features": [
    {
      "type": "Feature",
      "id": "way/24844750",
      "properties": {
        "@id": "way/24844750",
        "highway": "motorway",
        "lanes": "2",
        "motorroad": "yes",
        "oneway": "yes",
        "ref": "D55",
        "toll": "yes"
      },
      "geometry": {
        "type": "LineString",
        "coordinates": [
          [
            17.5513329,
            49.2072319
          ],
          [
            17.5510158,
            49.2076856
          ],
          [
            17.5506099,
            49.2082188
          ]
        ]
      }
    },
    {
      "type": "Feature",
      "id": "way/26343222",
      "properties": {
        "@id": "way/26343222",
        "bridge": "yes",
        "highway": "motorway",
        "lanes": "2",
        "layer": "1",
        "motorroad": "yes",
        "oneway": "yes",
        "ref": "D55",
        "ref:bridge": "55-031",
        "source": "HELP SERVICE - REMOTE SENSING spol. s r.o. http://www.bnhelp.cz",
        "toll": "yes"
      },
      "geometry": {
        "type": "LineString",
        "coordinates": [
          [
            17.5526384,
            49.203187
          ],
          [
            17.5526396,
            49.2023628
          ],
          [
            17.5526034,
            49.2019501
          ],
          [
            17.5525831,
            49.2017215
          ],
          [
            17.5525532,
            49.2014916
          ]
        ]
      }
    },
    {
      "type": "Feature",
      "id": "way/26343278",
      "properties": {
        "@id": "way/26343278",
        "bridge": "yes",
        "highway": "motorway",
        "lanes": "2",
        "layer": "1",
        "motorroad": "yes",
        "oneway": "yes",
        "ref": "D55",
        "source": "HELP SERVICE - REMOTE SENSING spol. s r.o. http://www.bnhelp.cz",
        "toll": "yes"
      },
      "geometry": {
        "type": "LineString",
        "coordinates": [
          [
            17.5517769,
            49.2065225
          ],
          [
            17.551616,
            49.2067907
          ],
          [
            17.5513329,
            49.2072319
          ]
        ]
      }
    },
    {
      "type": "Feature",
      "id": "way/26343279",
      "properties": {
        "@id": "way/26343279",
        "highway": "motorway",
        "lanes": "2",
        "motorroad": "yes",
        "oneway": "yes",
        "ref": "D55",
        "toll": "yes"
      },
      "geometry": {
        "type": "LineString",
        "coordinates": [
          [
            17.5528019,
            49.2033029
          ],
          [
            17.5527005,
            49.2039867
          ],
          [
            17.5525611,
            49.2046436
          ],
          [
            17.5524995,
            49.2048336
          ],
          [
            17.5522281,
            49.2055981
          ],
          [
            17.5520147,
            49.2060546
          ],
          [
            17.5517769,
            49.2065225
          ]
        ]
      }
    },
    {
      "type": "Feature",
      "id": "way/27617219",
      "properties": {
        "@id": "way/27617219",
        "bridge": "yes",
        "highway": "motorway",
        "lanes": "2",
        "layer": "1",
        "motorroad": "yes",
        "oneway": "yes",
        "ref": "D55",
        "ref:bridge": "55-031",
        "toll": "yes"
      },
      "geometry": {
        "type": "LineString",
        "coordinates": [
          [
            17.552758,
            49.2015039
          ],
          [
            17.5528054,
            49.2019259
          ],
          [
            17.5528296,
            49.2023231
          ],
          [
            17.5528343,
            49.2028137
          ],
          [
            17.5528019,
            49.2033029
          ]
        ]
      }
    },
    {
      "type": "Feature",
      "id": "way/27617221",
      "properties": {
        "@id": "way/27617221",
        "highway": "motorway",
        "lanes": "2",
        "motorroad": "yes",
        "oneway": "yes",
        "ref": "D55",
        "toll": "yes"
      },
      "geometry": {
        "type": "LineString",
        "coordinates": [
          [
            17.5516285,
            49.20648
          ],
          [
            17.551889,
            49.2059905
          ],
          [
            17.5521026,
            49.2054927
          ],
          [
            17.5523518,
            49.2047696
          ],
          [
            17.5524521,
            49.2043154
          ],
          [
            17.5525516,
            49.2038702
          ],
          [
            17.5526025,
            49.2035223
          ],
          [
            17.5526384,
            49.203187
          ]
        ]
      }
    },
    {
      "type": "Feature",
      "id": "way/27617222",
      "properties": {
        "@id": "way/27617222",
        "bridge": "yes",
        "highway": "motorway",
        "lanes": "2",
        "layer": "1",
        "motorroad": "yes",
        "oneway": "yes",
        "ref": "D55",
        "toll": "yes"
      },
      "geometry": {
        "type": "LineString",
        "coordinates": [
          [
            17.5512003,
            49.2071763
          ],
          [
            17.5516285,
            49.20648
          ]
        ]
      }
    },
    {
      "type": "Feature",
      "id": "way/27617223",
      "properties": {
        "@id": "way/27617223",
        "highway": "motorway",
        "lanes": "2",
        "motorroad": "yes",
        "oneway": "yes",
        "ref": "D55",
        "toll": "yes"
      },
      "geometry": {
        "type": "LineString",
        "coordinates": [
          [
            17.5347474,
            49.2201405
          ],
          [
            17.5356369,
            49.2194237
          ],
          [
            17.5365946,
            49.218754
          ],
          [
            17.5379527,
            49.2178784
          ],
          [
            17.5388057,
            49.2173357
          ],
          [
            17.5427108,
            49.2148646
          ],
          [
            17.5437595,
            49.2141662
          ],
          [
            17.5448019,
            49.2134356
          ],
          [
            17.5452296,
            49.2131227
          ],
          [
            17.5459034,
            49.2126032
          ],
          [
            17.5468775,
            49.2118131
          ],
          [
            17.5476727,
            49.211099
          ],
          [
            17.5482899,
            49.2105203
          ],
          [
            17.5487996,
            49.2100118
          ],
          [
            17.5492254,
            49.2095744
          ],
          [
            17.5497125,
            49.2090483
          ],
          [
            17.550184,
            49.2085094
          ]
        ]
      }
    },
    {
      "type": "Feature",
      "id": "way/27617224",
      "properties": {
        "@id": "way/27617224",
        "bridge": "yes",
        "highway": "motorway",
        "lanes": "2",
        "layer": "1",
        "motorroad": "yes",
        "oneway": "yes",
        "ref": "D55",
        "source": "HELP SERVICE - REMOTE SENSING spol. s r.o. http://www.bnhelp.cz",
        "toll": "yes"
      },
      "geometry": {
        "type": "LineString",
        "coordinates": [
          [
            17.5348708,
            49.220199
          ],
          [
            17.5346699,
            49.2203583
          ]
        ]
      }
    },
    {
      "type": "Feature",
      "id": "way/27617225",
      "properties": {
        "@id": "way/27617225",
        "highway": "motorway",
        "lanes": "2",
        "motorroad": "yes",
        "oneway": "yes",
        "ref": "D55",
        "toll": "yes"
      },
      "geometry": {
        "type": "LineString",
        "coordinates": [
          [
            17.5346699,
            49.2203583
          ],
          [
            17.5337652,
            49.2211485
          ],
          [
            17.5330165,
            49.2218648
          ],
          [
            17.5324324,
            49.2224887
          ],
          [
            17.5320365,
            49.2229393
          ]
        ]
      }
    },
    {
      "type": "Feature",
      "id": "way/27617226",
      "properties": {
        "@id": "way/27617226",
        "bridge": "yes",
        "highway": "motorway",
        "lanes": "2",
        "layer": "1",
        "motorroad": "yes",
        "oneway": "yes",
        "ref": "D55",
        "toll": "yes"
      },
      "geometry": {
        "type": "LineString",
        "coordinates": [
          [
            17.5345296,
            49.2202993
          ],
          [
            17.5347474,
            49.2201405
          ]
        ]
      }
    },
    {
      "type": "Feature",
      "id": "way/28760129",
      "properties": {
        "@id": "way/28760129",
        "bridge": "yes",
        "highway": "motorway",
        "lanes": "2",
        "layer": "1",
        "motorroad": "yes",
        "oneway": "yes",
        "ref": "D55",
        "toll": "yes"
      },
      "geometry": {
        "type": "LineString",
        "coordinates": [
          [
            17.550184,
            49.2085094
          ],
          [
            17.5504597,
            49.2081734
          ]
        ]
      }
    },
    {
      "type": "Feature",
      "id": "way/28760130",
      "properties": {
        "@id": "way/28760130",
        "highway": "motorway",
        "lanes": "2",
        "motorroad": "yes",
        "oneway": "yes",
        "ref": "D55",
        "toll": "yes"
      },
      "geometry": {
        "type": "LineString",
        "coordinates": [
          [
            17.5504597,
            49.2081734
          ],
          [
            17.5508712,
            49.2076426
          ],
          [
            17.5512003,
            49.2071763
          ]
        ]
      }
    },
    {
      "type": "Feature",
      "id": "way/28760131",
      "properties": {
        "@id": "way/28760131",
        "bridge": "yes",
        "highway": "motorway",
        "lanes": "2",
        "layer": "1",
        "motorroad": "yes",
        "oneway": "yes",
        "ref": "D55",
        "source": "HELP SERVICE - REMOTE SENSING spol. s r.o. http://www.bnhelp.cz",
        "toll": "yes"
      },
      "geometry": {
        "type": "LineString",
        "coordinates": [
          [
            17.5506099,
            49.2082188
          ],
          [
            17.5503001,
            49.208583
          ]
        ]
      }
    },
    {
      "type": "Feature",
      "id": "way/28760132",
      "properties": {
        "@id": "way/28760132",
        "highway": "motorway",
        "lanes": "2",
        "motorroad": "yes",
        "oneway": "yes",
        "ref": "D55",
        "toll": "yes"
      },
      "geometry": {
        "type": "LineString",
        "coordinates": [
          [
            17.5503001,
            49.208583
          ],
          [
            17.5498257,
            49.209125
          ],
          [
            17.5491933,
            49.2098037
          ],
          [
            17.5481077,
            49.2108762
          ],
          [
            17.5470025,
            49.2118827
          ],
          [
            17.545714,
            49.2129063
          ],
          [
            17.54487,
            49.213532
          ],
          [
            17.5432148,
            49.2146796
          ],
          [
            17.5405744,
            49.2163689
          ],
          [
            17.5400599,
            49.2166944
          ],
          [
            17.5379512,
            49.2180198
          ],
          [
            17.5365996,
            49.2189013
          ],
          [
            17.5361268,
            49.2192209
          ],
          [
            17.5356882,
            49.2195409
          ],
          [
            17.5348708,
            49.220199
          ]
        ]
      }
    },
    {
      "type": "Feature",
      "id": "way/30985519",
      "properties": {
        "@id": "way/30985519",
        "highway": "motorway",
        "lanes": "2",
        "maxspeed": "130",
        "motorroad": "yes",
        "oneway": "yes",
        "ref": "D55",
        "source": "cuzk:km",
        "toll": "yes"
      },
      "geometry": {
        "type": "LineString",
        "coordinates": [
          [
            17.4753506,
            49.3421065
          ],
          [
            17.4752955,
            49.3418164
          ],
          [
            17.47521,
            49.341506
          ],
          [
            17.4751138,
            49.3412368
          ],
          [
            17.4749967,
            49.3408985
          ],
          [
            17.4748824,
            49.3405745
          ],
          [
            17.4748184,
            49.3403337
          ],
          [
            17.4747837,
            49.3401088
          ],
          [
            17.4747832,
            49.3398897
          ],
          [
            17.4748056,
            49.339654
          ],
          [
            17.474846,
            49.3394642
          ],
          [
            17.4749102,
            49.3392627
          ],
          [
            17.4750018,
            49.3390441
          ],
          [
            17.4751121,
            49.3388474
          ]
        ]
      }
    },
    {
      "type": "Feature",
      "id": "way/78337774",
      "properties": {
        "@id": "way/78337774",
        "destination": "Uh. Hradiště;Zlín",
        "destination:ref": "55",
        "highway": "motorway",
        "lanes": "1",
        "maxspeed": "100",
        "motorroad": "yes",
        "oneway": "yes",
        "ref": "D55"
      },
      "geometry": {
        "type": "LineString",
        "coordinates": [
          [
            17.467132,
            49.3324335
          ],
          [
            17.4676258,
            49.3325482
          ]
        ]
      }
    },
    {
      "type": "Feature",
      "id": "way/78497415",
      "properties": {
        "@id": "way/78497415",
        "destination:ref": "D1",
        "highway": "motorway",
        "lanes": "2",
        "motorroad": "yes",
        "oneway": "yes",
        "ref": "D55",
        "source": "cuzk:km",
        "toll": "yes"
      },
      "geometry": {
        "type": "LineString",
        "coordinates": [
          [
            17.4764251,
            49.3348915
          ],
          [
            17.4763498,
            49.3351575
          ],
          [
            17.476274,
            49.3354659
          ],
          [
            17.4762288,
            49.3356596
          ],
          [
            17.4761883,
            49.3358658
          ],
          [
            17.4761231,
            49.3363065
          ],
          [
            17.476097,
            49.3366411
          ],
          [
            17.4761049,
            49.3371031
          ],
          [
            17.4761602,
            49.3375971
          ],
          [
            17.4762462,
            49.3380866
          ],
          [
            17.4762991,
            49.338406
          ],
          [
            17.4763649,
            49.338767
          ],
          [
            17.4764265,
            49.3391953
          ],
          [
            17.476472,
            49.3396982
          ],
          [
            17.4764841,
            49.3401797
          ],
          [
            17.4764763,
            49.3406693
          ],
          [
            17.4764663,
            49.3410498
          ],
          [
            17.4764133,
            49.3415304
          ],
          [
            17.4763185,
            49.3420382
          ],
          [
            17.4761712,
            49.3426248
          ],
          [
            17.4760862,
            49.3429186
          ],
          [
            17.4759864,
            49.3432223
          ],
          [
            17.4757388,
            49.3436486
          ]
        ]
      }
    },
    {
      "type": "Feature",
      "id": "way/85265705",
      "properties": {
        "@id": "way/85265705",
        "highway": "motorway",
        "lanes": "2",
        "maxspeed": "130",
        "motorroad": "yes",
        "oneway": "yes",
        "ref": "D55",
        "source": "cuzk:km",
        "toll": "yes"
      },
      "geometry": {
        "type": "LineString",
        "coordinates": [
          [
            17.5320365,
            49.2229393
          ],
          [
            17.531276,
            49.223851
          ],
          [
            17.5306497,
            49.2246519
          ],
          [
            17.5297816,
            49.2259276
          ],
          [
            17.5289052,
            49.2273326
          ],
          [
            17.5275842,
            49.2297264
          ],
          [
            17.5270102,
            49.230745
          ],
          [
            17.5265625,
            49.2314551
          ],
          [
            17.5262134,
            49.2319543
          ],
          [
            17.5258516,
            49.2324431
          ],
          [
            17.5253623,
            49.233045
          ],
          [
            17.5248551,
            49.2336464
          ],
          [
            17.5243013,
            49.2342383
          ],
          [
            17.523753,
            49.2348114
          ],
          [
            17.5222554,
            49.2363288
          ]
        ]
      }
    },
    {
      "type": "Feature",
      "id": "way/85265706",
      "properties": {
        "@id": "way/85265706",
        "bridge": "yes",
        "highway": "motorway",
        "lanes": "3",
        "layer": "1",
        "maxspeed": "130",
        "motorroad": "yes",
        "oneway": "yes",
        "ref": "D55",
        "source": "cuzk:km",
        "toll": "yes"
      },
      "geometry": {
        "type": "LineString",
        "coordinates": [
          [
            17.4897231,
            49.3157008
          ],
          [
            17.4889753,
            49.3169562
          ]
        ]
      }
    },
    {
      "type": "Feature",
      "id": "way/85265707",
      "properties": {
        "@id": "way/85265707",
        "highway": "motorway",
        "lanes": "2",
        "maxspeed": "130",
        "motorroad": "yes",
        "oneway": "yes",
        "ref": "D55",
        "source": "cuzk:km",
        "toll": "yes"
      },
      "geometry": {
        "type": "LineString",
        "coordinates": [
          [
            17.4895759,
            49.3156607
          ],
          [
            17.4902465,
            49.3144568
          ],
          [
            17.4906258,
            49.3136468
          ],
          [
            17.490946,
            49.3128441
          ]
        ]
      }
    },
    {
      "type": "Feature",
      "id": "way/85265713",
      "properties": {
        "@id": "way/85265713",
        "FIXME": "guessed from km, needs survey",
        "designation": "Holešov; Hulín",
        "highway": "motorway",
        "lanes": "1",
        "motorroad": "yes",
        "oneway": "yes",
        "ref": "D55",
        "source": "cuzk:km"
      },
      "geometry": {
        "type": "LineString",
        "coordinates": [
          [
            17.4857624,
            49.3211647
          ],
          [
            17.4858037,
            49.3209883
          ]
        ]
      }
    },
    {
      "type": "Feature",
      "id": "way/85265716",
      "properties": {
        "@id": "way/85265716",
        "bridge": "yes",
        "highway": "motorway",
        "lanes": "2",
        "layer": "1",
        "motorroad": "yes",
        "oneway": "yes",
        "ref": "D55",
        "source": "cuzk:km",
        "toll": "yes"
      },
      "geometry": {
        "type": "LineString",
        "coordinates": [
          [
            17.490946,
            49.3128441
          ],
          [
            17.4910954,
            49.312372
          ]
        ]
      }
    },
    {
      "type": "Feature",
      "id": "way/85265720",
      "properties": {
        "@id": "way/85265720",
        "highway": "motorway",
        "lanes": "2",
        "maxspeed": "130",
        "motorroad": "yes",
        "oneway": "yes",
        "ref": "D55",
        "source": "cuzk:km",
        "toll": "yes"
      },
      "geometry": {
        "type": "LineString",
        "coordinates": [
          [
            17.4911025,
            49.3128703
          ],
          [
            17.4907821,
            49.3136763
          ],
          [
            17.4904071,
            49.3144884
          ],
          [
            17.4897231,
            49.3157008
          ]
        ]
      }
    },
    {
      "type": "Feature",
      "id": "way/85265728",
      "properties": {
        "@id": "way/85265728",
        "highway": "motorway",
        "lanes": "3",
        "maxspeed": "130",
        "motorroad": "yes",
        "oneway": "yes",
        "ref": "D55",
        "source": "cuzk:km",
        "toll": "yes"
      },
      "geometry": {
        "type": "LineString",
        "coordinates": [
          [
            17.4889753,
            49.3169562
          ],
          [
            17.4887084,
            49.3173918
          ]
        ]
      }
    },
    {
      "type": "Feature",
      "id": "way/85265733",
      "properties": {
        "@id": "way/85265733",
        "bridge": "yes",
        "highway": "motorway",
        "lanes": "2",
        "layer": "1",
        "maxspeed": "130",
        "motorroad": "yes",
        "oneway": "yes",
        "ref": "D55",
        "source": "cuzk:km",
        "toll": "yes"
      },
      "geometry": {
        "type": "LineString",
        "coordinates": [
          [
            17.4888383,
            49.3169034
          ],
          [
            17.4895759,
            49.3156607
          ]
        ]
      }
    },
    {
      "type": "Feature",
      "id": "way/85265734",
      "properties": {
        "@id": "way/85265734",
        "bridge": "yes",
        "highway": "motorway",
        "lanes": "2",
        "layer": "1",
        "motorroad": "yes",
        "oneway": "yes",
        "ref": "D55",
        "source": "cuzk:km",
        "toll": "yes"
      },
      "geometry": {
        "type": "LineString",
        "coordinates": [
          [
            17.4912601,
            49.3123846
          ],
          [
            17.4911025,
            49.3128703
          ]
        ]
      }
    },
    {
      "type": "Feature",
      "id": "way/86101422",
      "properties": {
        "@id": "way/86101422",
        "highway": "motorway",
        "lanes": "2",
        "motorroad": "yes",
        "oneway": "yes",
        "ref": "D55",
        "source": "cuzk:km",
        "toll": "yes"
      },
      "geometry": {
        "type": "LineString",
        "coordinates": [
          [
            17.5322101,
            49.2225435
          ],
          [
            17.5328868,
            49.2218213
          ],
          [
            17.5336606,
            49.2210721
          ],
          [
            17.5345296,
            49.2202993
          ]
        ]
      }
    },
    {
      "type": "Feature",
      "id": "way/86101439",
      "properties": {
        "@id": "way/86101439",
        "construction": "trunk",
        "highway": "motorway",
        "lanes": "2",
        "motorroad": "yes",
        "note": "zprovozneni 3. prosince 2010",
        "oneway": "yes",
        "ref": "D55",
        "source": "cuzk:km",
        "toll": "yes"
      },
      "geometry": {
        "type": "LineString",
        "coordinates": [
          [
            17.531774,
            49.223023
          ],
          [
            17.5322101,
            49.2225435
          ]
        ]
      }
    },
    {
      "type": "Feature",
      "id": "way/89215435",
      "properties": {
        "@id": "way/89215435",
        "designation": "Ostrava;Olomouc;Přerov",
        "highway": "motorway",
        "lanes": "2",
        "motorroad": "yes",
        "oneway": "yes",
        "ref": "D55",
        "source": "cuzk:km",
        "toll": "yes"
      },
      "geometry": {
        "type": "LineString",
        "coordinates": [
          [
            17.4797367,
            49.3294059
          ],
          [
            17.4792085,
            49.330104
          ]
        ]
      }
    },
    {
      "type": "Feature",
      "id": "way/95848671",
      "properties": {
        "@id": "way/95848671",
        "highway": "motorway",
        "lanes": "2",
        "maxspeed": "130",
        "motorroad": "yes",
        "oneway": "yes",
        "ref": "D55",
        "source": "cuzk:km",
        "toll": "yes"
      },
      "geometry": {
        "type": "LineString",
        "coordinates": [
          [
            17.521882,
            49.2367294
          ],
          [
            17.5214122,
            49.2372824
          ],
          [
            17.520882,
            49.2379948
          ],
          [
            17.5203533,
            49.2388597
          ],
          [
            17.5199577,
            49.2396811
          ],
          [
            17.5195611,
            49.2406433
          ],
          [
            17.518961,
            49.2423881
          ],
          [
            17.5181664,
            49.2446992
          ]
        ]
      }
    },
    {
      "type": "Feature",
      "id": "way/95848677",
      "properties": {
        "@id": "way/95848677",
        "highway": "motorway",
        "lanes": "2",
        "maxspeed": "130",
        "motorroad": "yes",
        "oneway": "yes",
        "ref": "D55",
        "source": "cuzk:km",
        "toll": "yes"
      },
      "geometry": {
        "type": "LineString",
        "coordinates": [
          [
            17.5221039,
            49.236271
          ],
          [
            17.5236194,
            49.2347661
          ],
          [
            17.52473,
            49.233599
          ],
          [
            17.5257194,
            49.2324061
          ],
          [
            17.5264279,
            49.2314195
          ],
          [
            17.5268609,
            49.2307017
          ],
          [
            17.5274281,
            49.2296935
          ],
          [
            17.5287471,
            49.2273038
          ],
          [
            17.5296268,
            49.2258765
          ],
          [
            17.5305046,
            49.2245937
          ],
          [
            17.5311266,
            49.2238076
          ],
          [
            17.531774,
            49.223023
          ]
        ]
      }
    },
    {
      "type": "Feature",
      "id": "way/95848680",
      "properties": {
        "@id": "way/95848680",
        "bridge": "yes",
        "highway": "motorway",
        "lanes": "2",
        "layer": "1",
        "maxspeed": "130",
        "motorroad": "yes",
        "oneway": "yes",
        "ref": "D55",
        "source": "cuzk:km",
        "toll": "yes"
      },
      "geometry": {
        "type": "LineString",
        "coordinates": [
          [
            17.5222554,
            49.2363288
          ],
          [
            17.521882,
            49.2367294
          ]
        ]
      }
    },
    {
      "type": "Feature",
      "id": "way/95848686",
      "properties": {
        "@id": "way/95848686",
        "bridge": "yes",
        "highway": "motorway",
        "lanes": "2",
        "layer": "1",
        "maxspeed": "130",
        "motorroad": "yes",
        "oneway": "yes",
        "ref": "D55",
        "source": "cuzk:km",
        "toll": "yes"
      },
      "geometry": {
        "type": "LineString",
        "coordinates": [
          [
            17.5217299,
            49.2366861
          ],
          [
            17.5221039,
            49.236271
          ]
        ]
      }
    },
    {
      "type": "Feature",
      "id": "way/117671359",
      "properties": {
        "@id": "way/117671359",
        "bridge": "yes",
        "highway": "motorway",
        "lanes": "2",
        "layer": "1",
        "maxspeed": "130",
        "motorroad": "yes",
        "oneway": "yes",
        "ref": "D55",
        "source": "cuzk:km",
        "toll": "yes"
      },
      "geometry": {
        "type": "LineString",
        "coordinates": [
          [
            17.5179211,
            49.2449567
          ],
          [
            17.5180146,
            49.2446946
          ]
        ]
      }
    },
    {
      "type": "Feature",
      "id": "way/117671363",
      "properties": {
        "@id": "way/117671363",
        "highway": "motorway",
        "lanes": "2",
        "maxspeed": "130",
        "motorroad": "yes",
        "oneway": "yes",
        "ref": "D55",
        "source": "cuzk:km",
        "toll": "yes"
      },
      "geometry": {
        "type": "LineString",
        "coordinates": [
          [
            17.5180146,
            49.2446946
          ],
          [
            17.5187997,
            49.242379
          ],
          [
            17.5194113,
            49.2405944
          ],
          [
            17.5198014,
            49.2396463
          ],
          [
            17.5202091,
            49.2388213
          ],
          [
            17.5207325,
            49.2379565
          ],
          [
            17.5212654,
            49.2372304
          ],
          [
            17.5217299,
            49.2366861
          ]
        ]
      }
    },
    {
      "type": "Feature",
      "id": "way/117671369",
      "properties": {
        "@id": "way/117671369",
        "bridge": "yes",
        "highway": "motorway",
        "lanes": "2",
        "layer": "1",
        "maxspeed": "130",
        "motorroad": "yes",
        "oneway": "yes",
        "ref": "D55",
        "source": "cuzk:km",
        "toll": "yes"
      },
      "geometry": {
        "type": "LineString",
        "coordinates": [
          [
            17.5181664,
            49.2446992
          ],
          [
            17.5180848,
            49.2449491
          ]
        ]
      }
    },
    {
      "type": "Feature",
      "id": "way/166881185",
      "properties": {
        "@id": "way/166881185",
        "highway": "motorway",
        "lanes": "2",
        "maxspeed": "130",
        "motorroad": "yes",
        "oneway": "yes",
        "ref": "D55",
        "source": "cuzk:km;survey",
        "toll": "yes"
      },
      "geometry": {
        "type": "LineString",
        "coordinates": [
          [
            17.5081085,
            49.2647571
          ],
          [
            17.5086138,
            49.264037
          ],
          [
            17.5089932,
            49.2635128
          ],
          [
            17.5092033,
            49.2631948
          ],
          [
            17.5095597,
            49.2626698
          ],
          [
            17.5103655,
            49.2614871
          ],
          [
            17.5111635,
            49.2602475
          ],
          [
            17.512245,
            49.2583971
          ],
          [
            17.5128482,
            49.2573175
          ],
          [
            17.5135137,
            49.2560555
          ],
          [
            17.5142799,
            49.2545279
          ],
          [
            17.5146651,
            49.2536698
          ],
          [
            17.5153455,
            49.2521269
          ],
          [
            17.5157988,
            49.2510261
          ],
          [
            17.5162084,
            49.2499246
          ],
          [
            17.5171804,
            49.247142
          ],
          [
            17.5179211,
            49.2449567
          ]
        ]
      }
    },
    {
      "type": "Feature",
      "id": "way/166881186",
      "properties": {
        "@id": "way/166881186",
        "highway": "motorway",
        "lanes": "2",
        "maxspeed": "130",
        "motorroad": "yes",
        "oneway": "yes",
        "ref": "D55",
        "source": "cuzk:km;survey",
        "toll": "yes"
      },
      "geometry": {
        "type": "LineString",
        "coordinates": [
          [
            17.5180848,
            49.2449491
          ],
          [
            17.5173431,
            49.2471662
          ],
          [
            17.5163664,
            49.2499532
          ],
          [
            17.5159506,
            49.2510519
          ],
          [
            17.5154924,
            49.2521594
          ],
          [
            17.5148258,
            49.2537066
          ],
          [
            17.5144283,
            49.2545589
          ],
          [
            17.5136699,
            49.2560974
          ],
          [
            17.5130023,
            49.2573571
          ],
          [
            17.5124068,
            49.2584446
          ],
          [
            17.5113222,
            49.260281
          ],
          [
            17.5105242,
            49.2615175
          ],
          [
            17.509704,
            49.262721
          ],
          [
            17.5091218,
            49.2635725
          ],
          [
            17.5087776,
            49.264073
          ],
          [
            17.5082435,
            49.2648105
          ]
        ]
      }
    },
    {
      "type": "Feature",
      "id": "way/166881187",
      "properties": {
        "@id": "way/166881187",
        "highway": "motorway",
        "lanes": "2",
        "maxspeed": "130",
        "motorroad": "yes",
        "oneway": "yes",
        "ref": "D55",
        "source": "cuzk:km;survey",
        "toll": "yes"
      },
      "geometry": {
        "type": "LineString",
        "coordinates": [
          [
            17.4910954,
            49.312372
          ],
          [
            17.4912716,
            49.3117562
          ],
          [
            17.491397,
            49.311099
          ],
          [
            17.4914691,
            49.310359
          ],
          [
            17.491477,
            49.3096755
          ],
          [
            17.4914362,
            49.3089939
          ],
          [
            17.4913498,
            49.3083958
          ],
          [
            17.4911878,
            49.3077139
          ],
          [
            17.4906669,
            49.3057004
          ],
          [
            17.4904794,
            49.3048348
          ],
          [
            17.4903109,
            49.3037053
          ],
          [
            17.4902564,
            49.3028493
          ],
          [
            17.4902892,
            49.3015033
          ],
          [
            17.4904015,
            49.3006328
          ],
          [
            17.4906083,
            49.2996301
          ],
          [
            17.4909022,
            49.2986465
          ],
          [
            17.4912073,
            49.2978298
          ],
          [
            17.4916428,
            49.2968786
          ],
          [
            17.4921608,
            49.2959519
          ],
          [
            17.4926927,
            49.2951387
          ],
          [
            17.4940332,
            49.2934285
          ],
          [
            17.495588,
            49.2916788
          ],
          [
            17.4964262,
            49.2907221
          ],
          [
            17.4970437,
            49.2899717
          ],
          [
            17.4976052,
            49.2892444
          ],
          [
            17.4981861,
            49.288413
          ],
          [
            17.4988203,
            49.2874302
          ],
          [
            17.499153,
            49.2868614
          ],
          [
            17.4996963,
            49.2858174
          ],
          [
            17.5002024,
            49.2846766
          ],
          [
            17.5006126,
            49.2835514
          ],
          [
            17.5010295,
            49.2821055
          ],
          [
            17.5013737,
            49.2804445
          ],
          [
            17.5019707,
            49.2773634
          ],
          [
            17.502242,
            49.2762244
          ],
          [
            17.5025339,
            49.2751133
          ],
          [
            17.5028799,
            49.2740424
          ],
          [
            17.503258,
            49.2730388
          ],
          [
            17.5036012,
            49.2722308
          ],
          [
            17.5041365,
            49.2710809
          ],
          [
            17.5045936,
            49.2701893
          ],
          [
            17.505295,
            49.268962
          ],
          [
            17.5060701,
            49.2677182
          ],
          [
            17.507197,
            49.2660596
          ],
          [
            17.5079281,
            49.2650138
          ]
        ]
      }
    },
    {
      "type": "Feature",
      "id": "way/166881188",
      "properties": {
        "@id": "way/166881188",
        "highway": "motorway",
        "lanes": "2",
        "maxspeed": "130",
        "motorroad": "yes",
        "oneway": "yes",
        "ref": "D55",
        "source": "cuzk:km;survey",
        "toll": "yes"
      },
      "geometry": {
        "type": "LineString",
        "coordinates": [
          [
            17.5080735,
            49.2650602
          ],
          [
            17.5073513,
            49.2661003
          ],
          [
            17.5062179,
            49.2677808
          ],
          [
            17.5054651,
            49.2689794
          ],
          [
            17.5047435,
            49.2702249
          ],
          [
            17.5042884,
            49.2711017
          ],
          [
            17.5037532,
            49.2722682
          ],
          [
            17.5034039,
            49.2730848
          ],
          [
            17.5030438,
            49.2740476
          ],
          [
            17.5026878,
            49.2751254
          ],
          [
            17.5024004,
            49.2762311
          ],
          [
            17.5021234,
            49.2773855
          ],
          [
            17.501537,
            49.2804727
          ],
          [
            17.5011178,
            49.2823989
          ],
          [
            17.5007752,
            49.2835548
          ],
          [
            17.5003476,
            49.2847085
          ],
          [
            17.4998589,
            49.2858106
          ],
          [
            17.4992972,
            49.2869007
          ],
          [
            17.4989829,
            49.2874508
          ],
          [
            17.4983486,
            49.2884379
          ],
          [
            17.4977495,
            49.2892806
          ],
          [
            17.4971919,
            49.2900216
          ],
          [
            17.4965682,
            49.2907662
          ],
          [
            17.49573,
            49.2917494
          ],
          [
            17.4941735,
            49.2934819
          ],
          [
            17.4934826,
            49.2943195
          ],
          [
            17.4928325,
            49.2951774
          ],
          [
            17.4923008,
            49.2960067
          ],
          [
            17.4918038,
            49.296906
          ],
          [
            17.4913641,
            49.2978483
          ],
          [
            17.4910595,
            49.2986533
          ],
          [
            17.4907766,
            49.2996592
          ],
          [
            17.4905633,
            49.3006513
          ],
          [
            17.4904643,
            49.301517
          ],
          [
            17.4904211,
            49.302854
          ],
          [
            17.4904754,
            49.3037133
          ],
          [
            17.4906358,
            49.3048207
          ],
          [
            17.4908232,
            49.3056682
          ],
          [
            17.4913566,
            49.3076757
          ],
          [
            17.491502,
            49.3084012
          ],
          [
            17.4916048,
            49.3089912
          ],
          [
            17.4916376,
            49.3096721
          ],
          [
            17.4916295,
            49.3103697
          ],
          [
            17.4915452,
            49.3110957
          ],
          [
            17.4914279,
            49.3117696
          ],
          [
            17.4912601,
            49.3123846
          ]
        ]
      }
    },
    {
      "type": "Feature",
      "id": "way/167453640",
      "properties": {
        "@id": "way/167453640",
        "bridge": "yes",
        "highway": "motorway",
        "lanes": "2",
        "layer": "1",
        "maxspeed": "130",
        "motorroad": "yes",
        "oneway": "yes",
        "ref": "D55",
        "source": "cuzk:km;survey;Bing",
        "toll": "yes"
      },
      "geometry": {
        "type": "LineString",
        "coordinates": [
          [
            17.5079281,
            49.2650138
          ],
          [
            17.5081085,
            49.2647571
          ]
        ]
      }
    },
    {
      "type": "Feature",
      "id": "way/167453641",
      "properties": {
        "@id": "way/167453641",
        "bridge": "yes",
        "highway": "motorway",
        "lanes": "2",
        "layer": "1",
        "maxspeed": "130",
        "motorroad": "yes",
        "oneway": "yes",
        "ref": "D55",
        "source": "cuzk:km;survey;Bing",
        "toll": "yes"
      },
      "geometry": {
        "type": "LineString",
        "coordinates": [
          [
            17.5082435,
            49.2648105
          ],
          [
            17.5080735,
            49.2650602
          ]
        ]
      }
    },
    {
      "type": "Feature",
      "id": "way/171876012",
      "properties": {
        "@id": "way/171876012",
        "highway": "motorway",
        "lanes": "2",
        "maxspeed": "130",
        "motorroad": "yes",
        "oneway": "yes",
        "ref": "D55",
        "source": "cuzk:km",
        "toll": "yes"
      },
      "geometry": {
        "type": "LineString",
        "coordinates": [
          [
            17.4757834,
            49.3377528
          ],
          [
            17.4758356,
            49.3376176
          ],
          [
            17.4758769,
            49.3374454
          ],
          [
            17.4759268,
            49.3371258
          ],
          [
            17.4759527,
            49.3366551
          ],
          [
            17.4759815,
            49.3363062
          ],
          [
            17.4760356,
            49.3358934
          ],
          [
            17.476083,
            49.335647
          ],
          [
            17.4761207,
            49.3354393
          ],
          [
            17.4761909,
            49.3351572
          ],
          [
            17.4762669,
            49.3348882
          ],
          [
            17.4764017,
            49.3344608
          ],
          [
            17.4765731,
            49.3339986
          ],
          [
            17.4767784,
            49.3335256
          ],
          [
            17.4769138,
            49.3332444
          ],
          [
            17.4770538,
            49.3329686
          ],
          [
            17.4772061,
            49.3326927
          ],
          [
            17.4773008,
            49.3325352
          ],
          [
            17.477499,
            49.3322187
          ],
          [
            17.4778367,
            49.3317305
          ]
        ]
      }
    },
    {
      "type": "Feature",
      "id": "way/171876013",
      "properties": {
        "@id": "way/171876013",
        "bridge": "yes",
        "highway": "motorway",
        "lanes": "2",
        "layer": "1",
        "maxspeed": "130",
        "motorroad": "yes",
        "oneway": "yes",
        "ref": "D55",
        "source": "cuzk:km",
        "toll": "yes"
      },
      "geometry": {
        "type": "LineString",
        "coordinates": [
          [
            17.4751121,
            49.3388474
          ],
          [
            17.4752209,
            49.3386731
          ],
          [
            17.4753525,
            49.3384891
          ],
          [
            17.4754971,
            49.3382666
          ],
          [
            17.475622,
            49.3380631
          ],
          [
            17.4757034,
            49.337923
          ],
          [
            17.4757834,
            49.3377528
          ]
        ]
      }
    },
    {
      "type": "Feature",
      "id": "way/171876016",
      "properties": {
        "@id": "way/171876016",
        "highway": "motorway",
        "lanes": "2",
        "maxspeed": "100",
        "motorroad": "yes",
        "oneway": "yes",
        "ref": "D55"
      },
      "geometry": {
        "type": "LineString",
        "coordinates": [
          [
            17.4717391,
            49.3340868
          ],
          [
            17.4720591,
            49.3341629
          ],
          [
            17.4723394,
            49.3342156
          ],
          [
            17.4725837,
            49.3342488
          ],
          [
            17.4728014,
            49.3342766
          ],
          [
            17.4730553,
            49.3342922
          ],
          [
            17.4733123,
            49.334295
          ],
          [
            17.4735595,
            49.3342913
          ],
          [
            17.4738349,
            49.3342768
          ],
          [
            17.4741788,
            49.3342408
          ],
          [
            17.4744199,
            49.3342027
          ],
          [
            17.4746645,
            49.3341541
          ],
          [
            17.4749473,
            49.3340865
          ],
          [
            17.4752381,
            49.3339964
          ],
          [
            17.4754725,
            49.3339113
          ],
          [
            17.4757124,
            49.3338086
          ],
          [
            17.4758526,
            49.333742
          ],
          [
            17.4760603,
            49.3336297
          ],
          [
            17.4762599,
            49.3335115
          ],
          [
            17.4764997,
            49.3333287
          ],
          [
            17.4767189,
            49.3331332
          ],
          [
            17.4769138,
            49.3329309
          ],
          [
            17.477113,
            49.3326574
          ],
          [
            17.4773396,
            49.3323329
          ]
        ]
      }
    },
    {
      "type": "Feature",
      "id": "way/186658992",
      "properties": {
        "@id": "way/186658992",
        "bridge": "yes",
        "highway": "motorway",
        "lanes": "2",
        "layer": "1",
        "maxspeed": "130",
        "motorroad": "yes",
        "oneway": "yes",
        "ref": "D55",
        "source": "cuzk:km",
        "toll": "yes"
      },
      "geometry": {
        "type": "LineString",
        "coordinates": [
          [
            17.4858788,
            49.321006
          ],
          [
            17.4862242,
            49.3205388
          ]
        ]
      }
    },
    {
      "type": "Feature",
      "id": "way/186658993",
      "properties": {
        "@id": "way/186658993",
        "highway": "motorway",
        "lanes": "2",
        "layer": "-1",
        "maxspeed": "130",
        "motorroad": "yes",
        "oneway": "yes",
        "ref": "D55",
        "source": "cuzk:km",
        "toll": "yes"
      },
      "geometry": {
        "type": "LineString",
        "coordinates": [
          [
            17.4862242,
            49.3205388
          ],
          [
            17.4870032,
            49.3195096
          ],
          [
            17.4878166,
            49.3183941
          ],
          [
            17.4882873,
            49.3177282
          ],
          [
            17.4887451,
            49.3170501
          ],
          [
            17.4888383,
            49.3169034
          ]
        ]
      }
    },
    {
      "type": "Feature",
      "id": "way/242829722",
      "properties": {
        "@id": "way/242829722",
        "FIXME": "guessed from km, needs survey",
        "bridge": "yes",
        "highway": "motorway",
        "lanes": "1",
        "layer": "1",
        "motorroad": "yes",
        "oneway": "yes",
        "ref": "D55",
        "source": "cuzk:km"
      },
      "geometry": {
        "type": "LineString",
        "coordinates": [
          [
            17.4858037,
            49.3209883
          ],
          [
            17.4861482,
            49.3205251
          ]
        ]
      }
    },
    {
      "type": "Feature",
      "id": "way/242829723",
      "properties": {
        "@id": "way/242829723",
        "bridge": "yes",
        "highway": "motorway",
        "lanes": "3",
        "layer": "1",
        "maxspeed": "130",
        "motorroad": "yes",
        "oneway": "yes",
        "ref": "D55",
        "source": "cuzk:km",
        "toll": "yes"
      },
      "geometry": {
        "type": "LineString",
        "coordinates": [
          [
            17.4864513,
            49.320486
          ],
          [
            17.4860497,
            49.3210152
          ]
        ]
      }
    },
    {
      "type": "Feature",
      "id": "way/242829725",
      "properties": {
        "@id": "way/242829725",
        "highway": "motorway",
        "lanes": "3",
        "maxspeed": "130",
        "motorroad": "yes",
        "oneway": "yes",
        "ref": "D55",
        "source": "cuzk:km",
        "toll": "yes"
      },
      "geometry": {
        "type": "LineString",
        "coordinates": [
          [
            17.4860497,
            49.3210152
          ],
          [
            17.4848091,
            49.3226696
          ],
          [
            17.4835765,
            49.3243107
          ],
          [
            17.4816272,
            49.3268995
          ],
          [
            17.4797367,
            49.3294059
          ]
        ]
      }
    },
    {
      "type": "Feature",
      "id": "way/289213706",
      "properties": {
        "@id": "way/289213706",
        "highway": "motorway",
        "lanes": "3",
        "maxspeed": "130",
        "motorroad": "yes",
        "oneway": "yes",
        "ref": "D55",
        "source": "cuzk:km",
        "toll": "yes"
      },
      "geometry": {
        "type": "LineString",
        "coordinates": [
          [
            17.4778367,
            49.3317305
          ],
          [
            17.4782585,
            49.3311499
          ],
          [
            17.4786339,
            49.3306578
          ],
          [
            17.4790847,
            49.330056
          ],
          [
            17.479609,
            49.3293554
          ],
          [
            17.4814686,
            49.326865
          ],
          [
            17.4834238,
            49.3242767
          ],
          [
            17.4846842,
            49.322609
          ],
          [
            17.4850219,
            49.3221743
          ],
          [
            17.4857624,
            49.3211647
          ]
        ]
      }
    },
    {
      "type": "Feature",
      "id": "way/289213709",
      "properties": {
        "@id": "way/289213709",
        "designation": "Uh. Hradiště;Zlín;Otrokovice",
        "highway": "motorway",
        "lanes": "2",
        "maxspeed": "130",
        "motorroad": "yes",
        "oneway": "yes",
        "ref": "D55",
        "source": "cuzk:km",
        "toll": "yes"
      },
      "geometry": {
        "type": "LineString",
        "coordinates": [
          [
            17.4857624,
            49.3211647
          ],
          [
            17.4858788,
            49.321006
          ]
        ]
      }
    },
    {
      "type": "Feature",
      "id": "way/289214492",
      "properties": {
        "@id": "way/289214492",
        "highway": "motorway",
        "lanes": "2",
        "maxspeed": "100",
        "motorroad": "yes",
        "oneway": "yes",
        "ref": "D55"
      },
      "geometry": {
        "type": "LineString",
        "coordinates": [
          [
            17.4676258,
            49.3325482
          ],
          [
            17.4691788,
            49.3331579
          ],
          [
            17.4698203,
            49.3334121
          ],
          [
            17.4704283,
            49.3336505
          ],
          [
            17.4710101,
            49.3338617
          ],
          [
            17.4714154,
            49.3339906
          ],
          [
            17.4717391,
            49.3340868
          ]
        ]
      }
    },
    {
      "type": "Feature",
      "id": "way/289215325",
      "properties": {
        "@id": "way/289215325",
        "highway": "motorway",
        "lanes": "1",
        "maxspeed": "100",
        "motorroad": "yes",
        "oneway": "yes",
        "ref": "D55"
      },
      "geometry": {
        "type": "LineString",
        "coordinates": [
          [
            17.4773396,
            49.3323329
          ],
          [
            17.4776627,
            49.3318309
          ],
          [
            17.4778367,
            49.3317305
          ]
        ]
      }
    },
    {
      "type": "Feature",
      "id": "way/289215326",
      "properties": {
        "@id": "way/289215326",
        "highway": "motorway",
        "lanes": "2",
        "maxspeed": "130",
        "motorroad": "yes",
        "oneway": "yes",
        "ref": "D55",
        "source": "cuzk:km",
        "toll": "yes"
      },
      "geometry": {
        "type": "LineString",
        "coordinates": [
          [
            17.4887084,
            49.3173918
          ],
          [
            17.4884324,
            49.3177655
          ],
          [
            17.4879644,
            49.3184342
          ],
          [
            17.4871467,
            49.319553
          ],
          [
            17.4865735,
            49.3203251
          ]
        ]
      }
    },
    {
      "type": "Feature",
      "id": "way/292841063",
      "properties": {
        "@id": "way/292841063",
        "highway": "motorway",
        "lanes": "3",
        "maxspeed": "130",
        "motorroad": "yes",
        "oneway": "yes",
        "ref": "D55",
        "source": "cuzk:km",
        "toll": "yes"
      },
      "geometry": {
        "type": "LineString",
        "coordinates": [
          [
            17.4865735,
            49.3203251
          ],
          [
            17.4864513,
            49.320486
          ]
        ]
      }
    },
    {
      "type": "Feature",
      "id": "way/365839680",
      "properties": {
        "@id": "way/365839680",
        "highway": "motorway",
        "lanes": "2",
        "motorroad": "yes",
        "oneway": "yes",
        "ref": "D55",
        "source": "cuzk:km",
        "toll": "yes"
      },
      "geometry": {
        "type": "LineString",
        "coordinates": [
          [
            17.4792085,
            49.330104
          ],
          [
            17.4787564,
            49.3307129
          ],
          [
            17.4783837,
            49.3312023
          ],
          [
            17.4781384,
            49.3315359
          ],
          [
            17.4778821,
            49.3318966
          ],
          [
            17.4776586,
            49.3322321
          ],
          [
            17.4775137,
            49.3324636
          ],
          [
            17.4773596,
            49.3327184
          ],
          [
            17.4772025,
            49.3330006
          ],
          [
            17.4770579,
            49.3332914
          ],
          [
            17.4769226,
            49.3335738
          ],
          [
            17.4767154,
            49.3340411
          ],
          [
            17.4765545,
            49.3344824
          ],
          [
            17.4764251,
            49.3348915
          ]
        ]
      }
    }
  ]
}