{
  "type": "FeatureCollection",
  "generator": "overpass-turbo",
  "copyright": "The data included in this document is from www.openstreetmap.org. The data is made available under ODbL.",
  "timestamp": "2015-11-23T20:43:02Z",
  "features": [
    {
      "type": "Feature",
      "id": "way/4261715",
      "properties": {
        "@id": "way/4261715",
        "highway": "motorway",
        "int_ref": "E 461",
        "lanes": "2",
        "oneway": "yes",
        "ref": "D52",
        "toll": "yes"
      },
      "geometry": {
        "type": "LineString",
        "coordinates": [
          [
            16.599962,
            49.0983248
          ],
          [
            16.6012377,
            49.1000808
          ]
        ]
      }
    },
    {
      "type": "Feature",
      "id": "way/4337188",
      "properties": {
        "@id": "way/4337188",
        "highway": "motorway",
        "int_ref": "E 461",
        "lanes": "2",
        "maxspeed": "130",
        "oneway": "yes",
        "ref": "D52",
        "toll": "yes"
      },
      "geometry": {
        "type": "LineString",
        "coordinates": [
          [
            16.525008,
            48.9700651
          ],
          [
            16.5255765,
            48.9704877
          ],
          [
            16.5263824,
            48.9710482
          ],
          [
            16.526979,
            48.9714183
          ]
        ]
      }
    },
    {
      "type": "Feature",
      "id": "way/4368948",
      "properties": {
        "@id": "way/4368948",
        "highway": "motorway",
        "int_ref": "E 461",
        "lanes": "2",
        "maxspeed": "80",
        "name": "Brněnská",
        "oneway": "yes",
        "ref": "D52",
        "toll:hgv": "yes"
      },
      "geometry": {
        "type": "LineString",
        "coordinates": [
          [
            16.603611,
            49.1048031
          ],
          [
            16.6033055,
            49.1040574
          ],
          [
            16.6029951,
            49.1033854
          ],
          [
            16.6025863,
            49.1026126
          ]
        ]
      }
    },
    {
      "type": "Feature",
      "id": "way/4750887",
      "properties": {
        "@id": "way/4750887",
        "highway": "motorway",
        "int_ref": "E 461",
        "lanes": "2",
        "maxspeed": "100",
        "name": "Brněnská",
        "oneway": "yes",
        "ref": "D52",
        "toll:hgv": "yes"
      },
      "geometry": {
        "type": "LineString",
        "coordinates": [
          [
            16.6038188,
            49.1046879
          ],
          [
            16.6040412,
            49.1053343
          ],
          [
            16.6041772,
            49.1057527
          ]
        ]
      }
    },
    {
      "type": "Feature",
      "id": "way/5033767",
      "properties": {
        "@id": "way/5033767",
        "highway": "motorway",
        "int_ref": "E 461",
        "lanes": "2",
        "maxspeed": "110",
        "oneway": "yes",
        "ref": "D52",
        "toll:hgv": "yes"
      },
      "geometry": {
        "type": "LineString",
        "coordinates": [
          [
            16.5203939,
            48.9617474
          ],
          [
            16.5204855,
            48.9621561
          ],
          [
            16.5205237,
            48.9625569
          ],
          [
            16.5205494,
            48.9628516
          ],
          [
            16.5205928,
            48.9631693
          ],
          [
            16.5206499,
            48.9635141
          ],
          [
            16.5208006,
            48.9641841
          ],
          [
            16.5209829,
            48.9647672
          ],
          [
            16.5212206,
            48.9653561
          ],
          [
            16.5213713,
            48.9656979
          ],
          [
            16.5215374,
            48.9660247
          ],
          [
            16.521757,
            48.9664698
          ],
          [
            16.5224323,
            48.9674868
          ]
        ]
      }
    },
    {
      "type": "Feature",
      "id": "way/5033768",
      "properties": {
        "@id": "way/5033768",
        "highway": "motorway",
        "int_ref": "E 461",
        "lanes": "2",
        "maxspeed": "110",
        "oneway": "yes",
        "ref": "D52",
        "toll": "yes"
      },
      "geometry": {
        "type": "LineString",
        "coordinates": [
          [
            16.5249104,
            48.9701635
          ],
          [
            16.5242229,
            48.9695856
          ],
          [
            16.5235707,
            48.9689922
          ],
          [
            16.5230542,
            48.9684496
          ],
          [
            16.5227184,
            48.9680469
          ],
          [
            16.5222664,
            48.9675043
          ]
        ]
      }
    },
    {
      "type": "Feature",
      "id": "way/22733922",
      "properties": {
        "@id": "way/22733922",
        "bridge": "yes",
        "highway": "motorway",
        "int_ref": "E 461",
        "lanes": "2",
        "layer": "1",
        "maxspeed": "130",
        "motorroad": "yes",
        "oneway": "yes",
        "ref": "D52",
        "toll": "yes"
      },
      "geometry": {
        "type": "LineString",
        "coordinates": [
          [
            16.5600425,
            49.0750557
          ],
          [
            16.5596028,
            49.074609
          ]
        ]
      }
    },
    {
      "type": "Feature",
      "id": "way/22733923",
      "properties": {
        "@id": "way/22733923",
        "highway": "motorway",
        "int_ref": "E 461",
        "lanes": "2",
        "maxspeed": "130",
        "motorroad": "yes",
        "oneway": "yes",
        "ref": "D52",
        "toll": "yes"
      },
      "geometry": {
        "type": "LineString",
        "coordinates": [
          [
            16.5601915,
            49.0750268
          ],
          [
            16.5620904,
            49.0768917
          ],
          [
            16.5635177,
            49.0781161
          ],
          [
            16.565329,
            49.0794689
          ]
        ]
      }
    },
    {
      "type": "Feature",
      "id": "way/22733924",
      "properties": {
        "@id": "way/22733924",
        "bridge": "yes",
        "highway": "motorway",
        "int_ref": "E 461",
        "lanes": "2",
        "layer": "1",
        "maxspeed": "130",
        "motorroad": "yes",
        "oneway": "yes",
        "ref": "D52",
        "toll": "yes"
      },
      "geometry": {
        "type": "LineString",
        "coordinates": [
          [
            16.5597703,
            49.0745641
          ],
          [
            16.5601915,
            49.0750268
          ]
        ]
      }
    },
    {
      "type": "Feature",
      "id": "way/22733925",
      "properties": {
        "@id": "way/22733925",
        "highway": "motorway",
        "int_ref": "E 461",
        "lanes": "2",
        "maxspeed": "130",
        "motorroad": "yes",
        "oneway": "yes",
        "ref": "D52",
        "toll": "yes"
      },
      "geometry": {
        "type": "LineString",
        "coordinates": [
          [
            16.5596028,
            49.074609
          ],
          [
            16.5512345,
            49.0654029
          ],
          [
            16.5499207,
            49.0638571
          ]
        ]
      }
    },
    {
      "type": "Feature",
      "id": "way/26553966",
      "properties": {
        "@id": "way/26553966",
        "bridge": "yes",
        "highway": "motorway",
        "int_ref": "E 461",
        "lanes": "2",
        "layer": "1",
        "maxspeed": "130",
        "motorroad": "yes",
        "oneway": "yes",
        "ref": "D52",
        "toll": "yes"
      },
      "geometry": {
        "type": "LineString",
        "coordinates": [
          [
            16.5681743,
            49.0813073
          ],
          [
            16.5689028,
            49.0817112
          ]
        ]
      }
    },
    {
      "type": "Feature",
      "id": "way/26553967",
      "properties": {
        "@id": "way/26553967",
        "highway": "motorway",
        "int_ref": "E 461",
        "lanes": "2",
        "maxspeed": "130",
        "maxspeed:wet": "100",
        "motorroad": "yes",
        "oneway": "yes",
        "ref": "D52",
        "toll": "yes"
      },
      "geometry": {
        "type": "LineString",
        "coordinates": [
          [
            16.5689028,
            49.0817112
          ],
          [
            16.570168,
            49.0823857
          ],
          [
            16.5720932,
            49.0832718
          ],
          [
            16.5743193,
            49.0842369
          ],
          [
            16.5770689,
            49.085221
          ],
          [
            16.5848691,
            49.0877279
          ]
        ]
      }
    },
    {
      "type": "Feature",
      "id": "way/26553969",
      "properties": {
        "@id": "way/26553969",
        "bridge": "yes",
        "highway": "motorway",
        "int_ref": "E 461",
        "lanes": "2",
        "layer": "1",
        "maxspeed": "130",
        "motorroad": "yes",
        "oneway": "yes",
        "ref": "D52",
        "toll": "yes"
      },
      "geometry": {
        "type": "LineString",
        "coordinates": [
          [
            16.5684376,
            49.0816014
          ],
          [
            16.5678576,
            49.08127
          ]
        ]
      }
    },
    {
      "type": "Feature",
      "id": "way/26553970",
      "properties": {
        "@id": "way/26553970",
        "highway": "motorway",
        "int_ref": "E 461",
        "lanes": "2",
        "maxspeed": "130",
        "motorroad": "yes",
        "oneway": "yes",
        "ref": "D52",
        "toll": "yes"
      },
      "geometry": {
        "type": "LineString",
        "coordinates": [
          [
            16.5678576,
            49.08127
          ],
          [
            16.5658231,
            49.0800039
          ],
          [
            16.5654443,
            49.0797381
          ]
        ]
      }
    },
    {
      "type": "Feature",
      "id": "way/26561434",
      "properties": {
        "@id": "way/26561434",
        "bridge": "yes",
        "highway": "motorway",
        "int_ref": "E 461",
        "lanes": "2",
        "layer": "1",
        "maxspeed": "130",
        "motorroad": "yes",
        "oneway": "yes",
        "ref": "D52",
        "toll": "yes"
      },
      "geometry": {
        "type": "LineString",
        "coordinates": [
          [
            16.5493927,
            49.0080231
          ],
          [
            16.5494139,
            49.0075153
          ]
        ]
      }
    },
    {
      "type": "Feature",
      "id": "way/26561435",
      "properties": {
        "@id": "way/26561435",
        "highway": "motorway",
        "int_ref": "E 461",
        "lanes": "2",
        "maxspeed": "130",
        "motorroad": "yes",
        "oneway": "yes",
        "ref": "D52",
        "toll": "yes"
      },
      "geometry": {
        "type": "LineString",
        "coordinates": [
          [
            16.5494139,
            49.0075153
          ],
          [
            16.5494245,
            49.0071676
          ],
          [
            16.5494457,
            49.0064372
          ],
          [
            16.5494775,
            49.0047957
          ],
          [
            16.5494245,
            49.0026532
          ],
          [
            16.549215,
            48.9998358
          ],
          [
            16.5490334,
            48.9984972
          ],
          [
            16.5489002,
            48.9977902
          ],
          [
            16.5487706,
            48.997118
          ]
        ]
      }
    },
    {
      "type": "Feature",
      "id": "way/26561436",
      "properties": {
        "@id": "way/26561436",
        "bridge": "yes",
        "highway": "motorway",
        "int_ref": "E 461",
        "lanes": "2",
        "layer": "1",
        "maxspeed": "130",
        "motorroad": "yes",
        "oneway": "yes",
        "ref": "D52",
        "toll": "yes"
      },
      "geometry": {
        "type": "LineString",
        "coordinates": [
          [
            16.5496421,
            49.0075272
          ],
          [
            16.5495976,
            49.0080396
          ]
        ]
      }
    },
    {
      "type": "Feature",
      "id": "way/26561437",
      "properties": {
        "@id": "way/26561437",
        "highway": "motorway",
        "int_ref": "E 461",
        "lanes": "2",
        "maxspeed": "130",
        "motorroad": "yes",
        "oneway": "yes",
        "ref": "D52",
        "toll": "yes"
      },
      "geometry": {
        "type": "LineString",
        "coordinates": [
          [
            16.5495976,
            49.0080396
          ],
          [
            16.549223,
            49.011911
          ],
          [
            16.5485904,
            49.016326
          ],
          [
            16.5479105,
            49.0197565
          ],
          [
            16.544814,
            49.0318276
          ],
          [
            16.5438767,
            49.0363436
          ],
          [
            16.5433318,
            49.0408305
          ],
          [
            16.5433536,
            49.0453885
          ],
          [
            16.5437338,
            49.0482071
          ]
        ]
      }
    },
    {
      "type": "Feature",
      "id": "way/26561442",
      "properties": {
        "@id": "way/26561442",
        "bridge": "yes",
        "highway": "motorway",
        "int_ref": "E 461",
        "lanes": "2",
        "layer": "1",
        "maxspeed": "130",
        "motorroad": "yes",
        "oneway": "yes",
        "ref": "D52",
        "toll": "yes"
      },
      "geometry": {
        "type": "LineString",
        "coordinates": [
          [
            16.5499207,
            49.0638571
          ],
          [
            16.5497007,
            49.0635657
          ]
        ]
      }
    },
    {
      "type": "Feature",
      "id": "way/26561444",
      "properties": {
        "@id": "way/26561444",
        "highway": "motorway",
        "int_ref": "E 461",
        "lanes": "2",
        "maxspeed": "130",
        "motorroad": "yes",
        "oneway": "yes",
        "ref": "D52",
        "toll": "yes"
      },
      "geometry": {
        "type": "LineString",
        "coordinates": [
          [
            16.5497007,
            49.0635657
          ],
          [
            16.5493495,
            49.0630892
          ],
          [
            16.5483622,
            49.0616463
          ],
          [
            16.5474738,
            49.0601943
          ],
          [
            16.5467957,
            49.0588694
          ],
          [
            16.5458687,
            49.0567565
          ],
          [
            16.5450722,
            49.0545891
          ],
          [
            16.5443111,
            49.0521313
          ],
          [
            16.5438519,
            49.05007
          ],
          [
            16.5435234,
            49.0482259
          ]
        ]
      }
    },
    {
      "type": "Feature",
      "id": "way/26561445",
      "properties": {
        "@id": "way/26561445",
        "bridge": "yes",
        "highway": "motorway",
        "int_ref": "E 461",
        "lanes": "2",
        "layer": "1",
        "maxspeed": "130",
        "motorroad": "yes",
        "oneway": "yes",
        "ref": "D52",
        "toll": "yes"
      },
      "geometry": {
        "type": "LineString",
        "coordinates": [
          [
            16.5498749,
            49.0635115
          ],
          [
            16.5500889,
            49.0638019
          ]
        ]
      }
    },
    {
      "type": "Feature",
      "id": "way/26561446",
      "properties": {
        "@id": "way/26561446",
        "highway": "motorway",
        "int_ref": "E 461",
        "lanes": "2",
        "maxspeed": "130",
        "motorroad": "yes",
        "oneway": "yes",
        "ref": "D52",
        "toll": "yes"
      },
      "geometry": {
        "type": "LineString",
        "coordinates": [
          [
            16.5500889,
            49.0638019
          ],
          [
            16.5513811,
            49.0653305
          ],
          [
            16.5597703,
            49.0745641
          ]
        ]
      }
    },
    {
      "type": "Feature",
      "id": "way/28900991",
      "properties": {
        "@id": "way/28900991",
        "bridge": "yes",
        "highway": "motorway",
        "int_ref": "E 461",
        "lanes": "2",
        "layer": "1",
        "maxspeed": "80",
        "name": "Brněnská",
        "oneway": "yes",
        "ref": "D52",
        "toll:hgv": "yes"
      },
      "geometry": {
        "type": "LineString",
        "coordinates": [
          [
            16.6049323,
            49.1091164
          ],
          [
            16.6049754,
            49.1093976
          ]
        ]
      }
    },
    {
      "type": "Feature",
      "id": "way/28900992",
      "properties": {
        "@id": "way/28900992",
        "highway": "motorway",
        "int_ref": "E 461",
        "lanes": "2",
        "maxspeed": "80",
        "name": "Brněnská",
        "oneway": "yes",
        "ref": "D52",
        "toll:hgv": "yes"
      },
      "geometry": {
        "type": "LineString",
        "coordinates": [
          [
            16.6049754,
            49.1093976
          ],
          [
            16.6051078,
            49.1105204
          ],
          [
            16.6051585,
            49.1116753
          ],
          [
            16.605057,
            49.1131064
          ],
          [
            16.604514,
            49.1191802
          ],
          [
            16.6042906,
            49.1220705
          ]
        ]
      }
    },
    {
      "type": "Feature",
      "id": "way/28900993",
      "properties": {
        "@id": "way/28900993",
        "bridge": "yes",
        "highway": "motorway",
        "int_ref": "E 461",
        "lanes": "2",
        "layer": "1",
        "maxspeed": "80",
        "name": "Brněnská",
        "oneway": "yes",
        "ref": "D52",
        "toll:hgv": "yes"
      },
      "geometry": {
        "type": "LineString",
        "coordinates": [
          [
            16.6047752,
            49.1093951
          ],
          [
            16.6047448,
            49.1091164
          ]
        ]
      }
    },
    {
      "type": "Feature",
      "id": "way/28900994",
      "properties": {
        "@id": "way/28900994",
        "highway": "motorway",
        "int_ref": "E 461",
        "lanes": "2",
        "maxspeed": "80",
        "name": "Brněnská",
        "oneway": "yes",
        "ref": "D52",
        "toll:hgv": "yes"
      },
      "geometry": {
        "type": "LineString",
        "coordinates": [
          [
            16.6047448,
            49.1091164
          ],
          [
            16.6046741,
            49.1084208
          ],
          [
            16.6043912,
            49.1071635
          ],
          [
            16.604026,
            49.106027
          ]
        ]
      }
    },
    {
      "type": "Feature",
      "id": "way/40428179",
      "properties": {
        "@id": "way/40428179",
        "bridge": "yes",
        "highway": "motorway",
        "int_ref": "E 461",
        "lanes": "2",
        "layer": "1",
        "maxspeed": "130",
        "motorroad": "yes",
        "oneway": "yes",
        "ref": "D52",
        "toll": "yes"
      },
      "geometry": {
        "type": "LineString",
        "coordinates": [
          [
            16.584894,
            49.0878831
          ],
          [
            16.5846959,
            49.0878108
          ]
        ]
      }
    },
    {
      "type": "Feature",
      "id": "way/40428180",
      "properties": {
        "@id": "way/40428180",
        "highway": "motorway",
        "int_ref": "E 461",
        "lanes": "2",
        "maxspeed": "130",
        "maxspeed:wet": "100",
        "motorroad": "yes",
        "oneway": "yes",
        "ref": "D52",
        "toll": "yes"
      },
      "geometry": {
        "type": "LineString",
        "coordinates": [
          [
            16.5846959,
            49.0878108
          ],
          [
            16.5769613,
            49.085333
          ],
          [
            16.5742061,
            49.0843452
          ],
          [
            16.5719655,
            49.083397
          ],
          [
            16.5700326,
            49.0824776
          ],
          [
            16.5684376,
            49.0816014
          ]
        ]
      }
    },
    {
      "type": "Feature",
      "id": "way/40428181",
      "properties": {
        "@id": "way/40428181",
        "bridge": "yes",
        "highway": "motorway",
        "int_ref": "E 461",
        "lanes": "2",
        "layer": "1",
        "maxspeed": "130",
        "motorroad": "yes",
        "oneway": "yes",
        "ref": "D52",
        "toll": "yes"
      },
      "geometry": {
        "type": "LineString",
        "coordinates": [
          [
            16.5848691,
            49.0877279
          ],
          [
            16.5850861,
            49.0878075
          ]
        ]
      }
    },
    {
      "type": "Feature",
      "id": "way/40428182",
      "properties": {
        "@id": "way/40428182",
        "highway": "motorway",
        "int_ref": "E 461",
        "lanes": "2",
        "maxspeed": "130",
        "motorroad": "yes",
        "oneway": "yes",
        "ref": "D52",
        "toll": "yes"
      },
      "geometry": {
        "type": "LineString",
        "coordinates": [
          [
            16.5850861,
            49.0878075
          ],
          [
            16.5854839,
            49.0879607
          ],
          [
            16.5872257,
            49.0886453
          ],
          [
            16.5892403,
            49.089557
          ],
          [
            16.5920499,
            49.091079
          ],
          [
            16.593087,
            49.0917984
          ],
          [
            16.5952826,
            49.09336
          ],
          [
            16.5978313,
            49.0957364
          ],
          [
            16.599962,
            49.0983248
          ]
        ]
      }
    },
    {
      "type": "Feature",
      "id": "way/40428193",
      "properties": {
        "@id": "way/40428193",
        "bridge": "yes",
        "highway": "motorway",
        "int_ref": "E 461",
        "lanes": "2",
        "layer": "1",
        "name": "Brněnská",
        "oneway": "yes",
        "ref": "D52",
        "toll:hgv": "yes"
      },
      "geometry": {
        "type": "LineString",
        "coordinates": [
          [
            16.6041772,
            49.1057527
          ],
          [
            16.6042355,
            49.1059524
          ]
        ]
      }
    },
    {
      "type": "Feature",
      "id": "way/40428194",
      "properties": {
        "@id": "way/40428194",
        "highway": "motorway",
        "int_ref": "E 461",
        "lanes": "2",
        "maxspeed": "80",
        "name": "Brněnská",
        "oneway": "yes",
        "ref": "D52",
        "toll:hgv": "yes"
      },
      "geometry": {
        "type": "LineString",
        "coordinates": [
          [
            16.6042355,
            49.1059524
          ],
          [
            16.6045861,
            49.1071524
          ],
          [
            16.6048675,
            49.1084111
          ],
          [
            16.6049323,
            49.1091164
          ]
        ]
      }
    },
    {
      "type": "Feature",
      "id": "way/40428195",
      "properties": {
        "@id": "way/40428195",
        "bridge": "yes",
        "highway": "motorway",
        "int_ref": "E 461",
        "lanes": "2",
        "layer": "1",
        "name": "Brněnská",
        "oneway": "yes",
        "ref": "D52",
        "toll:hgv": "yes"
      },
      "geometry": {
        "type": "LineString",
        "coordinates": [
          [
            16.604026,
            49.106027
          ],
          [
            16.6039643,
            49.105835
          ]
        ]
      }
    },
    {
      "type": "Feature",
      "id": "way/40428196",
      "properties": {
        "@id": "way/40428196",
        "highway": "motorway",
        "int_ref": "E 461",
        "lanes": "2",
        "maxspeed": "100",
        "name": "Brněnská",
        "oneway": "yes",
        "ref": "D52",
        "toll:hgv": "yes"
      },
      "geometry": {
        "type": "LineString",
        "coordinates": [
          [
            16.6039643,
            49.105835
          ],
          [
            16.603887,
            49.1055945
          ],
          [
            16.603611,
            49.1048031
          ]
        ]
      }
    },
    {
      "type": "Feature",
      "id": "way/47012475",
      "properties": {
        "@id": "way/47012475",
        "highway": "motorway",
        "int_ref": "E 461",
        "lanes": "2",
        "maxspeed": "80",
        "name": "Brněnská",
        "oneway": "yes",
        "ref": "D52",
        "toll:hgv": "yes"
      },
      "geometry": {
        "type": "LineString",
        "coordinates": [
          [
            16.6038707,
            49.1245809
          ],
          [
            16.6039658,
            49.1235154
          ],
          [
            16.6044316,
            49.1182637
          ],
          [
            16.6045132,
            49.1173433
          ],
          [
            16.6048899,
            49.1130949
          ],
          [
            16.6049366,
            49.1116598
          ],
          [
            16.6049004,
            49.1105284
          ],
          [
            16.6047752,
            49.1093951
          ]
        ]
      }
    },
    {
      "type": "Feature",
      "id": "way/49682136",
      "properties": {
        "@id": "way/49682136",
        "highway": "motorway",
        "int_ref": "E 461",
        "lanes": "2",
        "maxspeed": "80",
        "oneway": "yes",
        "ref": "D52",
        "toll": "yes"
      },
      "geometry": {
        "type": "LineString",
        "coordinates": [
          [
            16.6025863,
            49.1026126
          ],
          [
            16.6020241,
            49.1016424
          ],
          [
            16.6013859,
            49.1006448
          ]
        ]
      }
    },
    {
      "type": "Feature",
      "id": "way/49682138",
      "properties": {
        "@id": "way/49682138",
        "highway": "motorway",
        "int_ref": "E 461",
        "lanes": "2",
        "maxspeed": "80",
        "name": "Brněnská",
        "oneway": "yes",
        "ref": "D52",
        "toll:hgv": "yes"
      },
      "geometry": {
        "type": "LineString",
        "coordinates": [
          [
            16.6012377,
            49.1000808
          ],
          [
            16.6023062,
            49.1016055
          ],
          [
            16.6026749,
            49.1023149
          ],
          [
            16.6028851,
            49.1027005
          ],
          [
            16.6032053,
            49.1033214
          ],
          [
            16.6033959,
            49.1037198
          ],
          [
            16.6038188,
            49.1046879
          ]
        ]
      }
    },
    {
      "type": "Feature",
      "id": "way/65987623",
      "properties": {
        "@id": "way/65987623",
        "highway": "motorway",
        "int_ref": "E 461",
        "lanes": "2",
        "maxspeed": "130",
        "motorroad": "yes",
        "oneway": "yes",
        "ref": "D52",
        "toll": "yes"
      },
      "geometry": {
        "type": "LineString",
        "coordinates": [
          [
            16.5484646,
            48.9952547
          ],
          [
            16.5489761,
            48.9971221
          ],
          [
            16.5490822,
            48.9977176
          ],
          [
            16.5492635,
            48.9989024
          ],
          [
            16.5493845,
            48.9998675
          ],
          [
            16.5495623,
            49.0015333
          ],
          [
            16.549626,
            49.0027228
          ],
          [
            16.5496527,
            49.0073545
          ],
          [
            16.5496421,
            49.0075272
          ]
        ]
      }
    },
    {
      "type": "Feature",
      "id": "way/65987632",
      "properties": {
        "@id": "way/65987632",
        "highway": "motorway",
        "int_ref": "E 461",
        "lanes": "2",
        "maxspeed": "130",
        "motorroad": "yes",
        "oneway": "yes",
        "ref": "D52",
        "toll": "yes"
      },
      "geometry": {
        "type": "LineString",
        "coordinates": [
          [
            16.5487706,
            48.997118
          ],
          [
            16.5484866,
            48.995889
          ],
          [
            16.5482297,
            48.9950616
          ],
          [
            16.5480099,
            48.9943295
          ],
          [
            16.5478679,
            48.9939279
          ],
          [
            16.5477192,
            48.9935196
          ],
          [
            16.5474767,
            48.992883
          ],
          [
            16.5469561,
            48.9916758
          ],
          [
            16.5466248,
            48.9909538
          ],
          [
            16.5450524,
            48.9880444
          ],
          [
            16.5431367,
            48.9851
          ],
          [
            16.5415417,
            48.98302
          ],
          [
            16.5404116,
            48.9816381
          ]
        ]
      }
    },
    {
      "type": "Feature",
      "id": "way/82406858",
      "properties": {
        "@id": "way/82406858",
        "highway": "motorway",
        "int_ref": "E 461",
        "lanes": "2",
        "maxspeed": "130",
        "motorroad": "yes",
        "oneway": "yes",
        "ref": "D52",
        "surface": "asphalt",
        "toll": "yes"
      },
      "geometry": {
        "type": "LineString",
        "coordinates": [
          [
            16.6013859,
            49.1006448
          ],
          [
            16.5997685,
            49.0983783
          ],
          [
            16.5990113,
            49.0974054
          ],
          [
            16.5983247,
            49.0965624
          ],
          [
            16.5977882,
            49.0959512
          ],
          [
            16.5951596,
            49.0934291
          ],
          [
            16.5929175,
            49.0918494
          ],
          [
            16.5918686,
            49.0911981
          ],
          [
            16.5893221,
            49.089785
          ],
          [
            16.5870599,
            49.0887337
          ],
          [
            16.5853578,
            49.0880653
          ],
          [
            16.584894,
            49.0878831
          ]
        ]
      }
    },
    {
      "type": "Feature",
      "id": "way/98329043",
      "properties": {
        "@id": "way/98329043",
        "highway": "motorway",
        "int_ref": "E 461",
        "lanes": "2",
        "maxspeed": "110",
        "oneway": "yes",
        "ref": "D52",
        "toll": "yes"
      },
      "geometry": {
        "type": "LineString",
        "coordinates": [
          [
            16.5222664,
            48.9675043
          ],
          [
            16.5218151,
            48.9668598
          ],
          [
            16.5214817,
            48.9662848
          ]
        ]
      }
    },
    {
      "type": "Feature",
      "id": "way/99694947",
      "properties": {
        "@id": "way/99694947",
        "highway": "motorway",
        "int_ref": "E 461",
        "lanes": "2",
        "maxspeed": "130",
        "motorroad": "yes",
        "oneway": "yes",
        "ref": "D52",
        "toll": "yes"
      },
      "geometry": {
        "type": "LineString",
        "coordinates": [
          [
            16.5437338,
            49.0482071
          ],
          [
            16.544039,
            49.0500613
          ],
          [
            16.5447379,
            49.0528436
          ],
          [
            16.5452857,
            49.0545668
          ],
          [
            16.5460668,
            49.0567409
          ],
          [
            16.5469732,
            49.0588509
          ],
          [
            16.5476565,
            49.0601526
          ],
          [
            16.5485452,
            49.0616161
          ],
          [
            16.5495212,
            49.0630449
          ],
          [
            16.5498749,
            49.0635115
          ]
        ]
      }
    },
    {
      "type": "Feature",
      "id": "way/99694948",
      "properties": {
        "@id": "way/99694948",
        "highway": "motorway",
        "int_ref": "E 461",
        "lanes": "2",
        "maxspeed": "130",
        "motorroad": "yes",
        "oneway": "yes",
        "ref": "D52",
        "toll": "yes"
      },
      "geometry": {
        "type": "LineString",
        "coordinates": [
          [
            16.5435234,
            49.0482259
          ],
          [
            16.5431433,
            49.0454233
          ],
          [
            16.5431317,
            49.0408267
          ],
          [
            16.5436567,
            49.0363467
          ],
          [
            16.5446133,
            49.0317883
          ],
          [
            16.547645,
            49.0197333
          ],
          [
            16.5483854,
            49.0163271
          ],
          [
            16.5487247,
            49.0141852
          ],
          [
            16.5490383,
            49.0118983
          ],
          [
            16.5493927,
            49.0080231
          ]
        ]
      }
    },
    {
      "type": "Feature",
      "id": "way/100626628",
      "properties": {
        "@id": "way/100626628",
        "highway": "motorway",
        "int_ref": "E 461",
        "lanes": "2",
        "maxspeed": "130",
        "motorroad": "yes",
        "oneway": "yes",
        "ref": "D52",
        "toll": "yes"
      },
      "geometry": {
        "type": "LineString",
        "coordinates": [
          [
            16.5406074,
            48.9815545
          ],
          [
            16.5418228,
            48.9829932
          ],
          [
            16.5433915,
            48.9850577
          ],
          [
            16.5452702,
            48.9879574
          ],
          [
            16.5469065,
            48.9909308
          ],
          [
            16.547666,
            48.9929141
          ],
          [
            16.5480683,
            48.9939971
          ],
          [
            16.5484646,
            48.9952547
          ]
        ]
      }
    },
    {
      "type": "Feature",
      "id": "way/100626633",
      "properties": {
        "@id": "way/100626633",
        "highway": "motorway",
        "int_ref": "E 461",
        "lanes": "2",
        "maxspeed": "130",
        "motorroad": "yes",
        "oneway": "yes",
        "ref": "D52",
        "toll": "yes"
      },
      "geometry": {
        "type": "LineString",
        "coordinates": [
          [
            16.5398786,
            48.9809864
          ],
          [
            16.5396656,
            48.9807259
          ],
          [
            16.5378867,
            48.9790567
          ],
          [
            16.5367002,
            48.9780088
          ],
          [
            16.5353981,
            48.9769476
          ],
          [
            16.5344344,
            48.9762542
          ],
          [
            16.5337632,
            48.9757807
          ],
          [
            16.5332792,
            48.975448
          ],
          [
            16.5327975,
            48.9751288
          ],
          [
            16.5322564,
            48.9747782
          ],
          [
            16.5313501,
            48.9742132
          ],
          [
            16.5305054,
            48.9736992
          ],
          [
            16.5298137,
            48.9732826
          ],
          [
            16.5287384,
            48.9726487
          ],
          [
            16.5269903,
            48.9716109
          ]
        ]
      }
    },
    {
      "type": "Feature",
      "id": "way/100626639",
      "properties": {
        "@id": "way/100626639",
        "bridge": "yes",
        "highway": "motorway",
        "int_ref": "E 461",
        "lanes": "2",
        "maxspeed": "130",
        "motorroad": "yes",
        "oneway": "yes",
        "ref": "D52",
        "toll": "yes"
      },
      "geometry": {
        "type": "LineString",
        "coordinates": [
          [
            16.5400654,
            48.9809131
          ],
          [
            16.5406074,
            48.9815545
          ]
        ]
      }
    },
    {
      "type": "Feature",
      "id": "way/100626643",
      "properties": {
        "@id": "way/100626643",
        "bridge": "yes",
        "highway": "motorway",
        "int_ref": "E 461",
        "lanes": "2",
        "maxspeed": "130",
        "motorroad": "yes",
        "oneway": "yes",
        "ref": "D52",
        "toll": "yes"
      },
      "geometry": {
        "type": "LineString",
        "coordinates": [
          [
            16.5404116,
            48.9816381
          ],
          [
            16.5398786,
            48.9809864
          ]
        ]
      }
    },
    {
      "type": "Feature",
      "id": "way/162944865",
      "properties": {
        "@id": "way/162944865",
        "bridge": "yes",
        "highway": "motorway",
        "int_ref": "E 461",
        "lanes": "2",
        "maxspeed": "130",
        "motorroad": "yes",
        "oneway": "yes",
        "ref": "D52",
        "ref:bridge": "52029",
        "toll": "yes"
      },
      "geometry": {
        "type": "LineString",
        "coordinates": [
          [
            16.5654443,
            49.0797381
          ],
          [
            16.5651534,
            49.0795253
          ]
        ]
      }
    },
    {
      "type": "Feature",
      "id": "way/162944866",
      "properties": {
        "@id": "way/162944866",
        "bridge": "yes",
        "highway": "motorway",
        "int_ref": "E 461",
        "lanes": "2",
        "maxspeed": "130",
        "motorroad": "yes",
        "oneway": "yes",
        "ref": "D52",
        "ref:bridge": "52029",
        "toll": "yes"
      },
      "geometry": {
        "type": "LineString",
        "coordinates": [
          [
            16.565329,
            49.0794689
          ],
          [
            16.5656215,
            49.0796834
          ]
        ]
      }
    },
    {
      "type": "Feature",
      "id": "way/162944867",
      "properties": {
        "@id": "way/162944867",
        "highway": "motorway",
        "int_ref": "E 461",
        "lanes": "2",
        "maxspeed": "130",
        "motorroad": "yes",
        "oneway": "yes",
        "ref": "D52",
        "toll": "yes"
      },
      "geometry": {
        "type": "LineString",
        "coordinates": [
          [
            16.5656215,
            49.0796834
          ],
          [
            16.5659746,
            49.0799183
          ],
          [
            16.5681743,
            49.0813073
          ]
        ]
      }
    },
    {
      "type": "Feature",
      "id": "way/162944868",
      "properties": {
        "@id": "way/162944868",
        "highway": "motorway",
        "int_ref": "E 461",
        "lanes": "2",
        "maxspeed": "130",
        "motorroad": "yes",
        "oneway": "yes",
        "ref": "D52",
        "toll": "yes"
      },
      "geometry": {
        "type": "LineString",
        "coordinates": [
          [
            16.5651534,
            49.0795253
          ],
          [
            16.5633587,
            49.0782007
          ],
          [
            16.5619322,
            49.0769685
          ],
          [
            16.5600425,
            49.0750557
          ]
        ]
      }
    },
    {
      "type": "Feature",
      "id": "way/217345521",
      "properties": {
        "@id": "way/217345521",
        "highway": "motorway",
        "int_ref": "E 461",
        "lanes": "2",
        "maxspeed": "110",
        "oneway": "yes",
        "ref": "D52",
        "toll": "yes"
      },
      "geometry": {
        "type": "LineString",
        "coordinates": [
          [
            16.5224323,
            48.9674868
          ],
          [
            16.5230434,
            48.9682278
          ],
          [
            16.5236662,
            48.9688947
          ],
          [
            16.5242296,
            48.9694177
          ],
          [
            16.525008,
            48.9700651
          ]
        ]
      }
    },
    {
      "type": "Feature",
      "id": "way/217345522",
      "properties": {
        "@id": "way/217345522",
        "highway": "motorway",
        "int_ref": "E 461",
        "lanes": "2",
        "oneway": "yes",
        "ref": "D52",
        "toll:hgv": "yes",
        "turn:lanes": "none|none|merge_to_left"
      },
      "geometry": {
        "type": "LineString",
        "coordinates": [
          [
            16.5214817,
            48.9662848
          ],
          [
            16.5211106,
            48.9655162
          ],
          [
            16.5208253,
            48.9648008
          ]
        ]
      }
    },
    {
      "type": "Feature",
      "id": "way/241716673",
      "properties": {
        "@id": "way/241716673",
        "highway": "motorway",
        "int_ref": "E 461",
        "lanes": "2",
        "maxspeed": "100",
        "oneway": "yes",
        "ref": "D52",
        "toll:hgv": "yes"
      },
      "geometry": {
        "type": "LineString",
        "coordinates": [
          [
            16.5208253,
            48.9648008
          ],
          [
            16.5207216,
            48.964499
          ],
          [
            16.5206382,
            48.9641801
          ],
          [
            16.5204982,
            48.9635338
          ],
          [
            16.520406,
            48.9629216
          ]
        ]
      }
    },
    {
      "type": "Feature",
      "id": "way/241716675",
      "properties": {
        "@id": "way/241716675",
        "highway": "motorway",
        "int_ref": "E 461",
        "lanes": "2",
        "maxspeed": "80",
        "oneway": "yes",
        "ref": "D52",
        "toll:hgv": "yes",
        "turn:lanes": "left|through|right"
      },
      "geometry": {
        "type": "LineString",
        "coordinates": [
          [
            16.520406,
            48.9629216
          ],
          [
            16.520363,
            48.9624951
          ],
          [
            16.5203427,
            48.9619635
          ],
          [
            16.5203939,
            48.9617474
          ]
        ]
      }
    },
    {
      "type": "Feature",
      "id": "way/342486046",
      "properties": {
        "@id": "way/342486046",
        "highway": "motorway",
        "int_ref": "E 461",
        "lanes": "2",
        "maxspeed": "110",
        "oneway": "yes",
        "ref": "D52",
        "toll": "yes"
      },
      "geometry": {
        "type": "LineString",
        "coordinates": [
          [
            16.5258893,
            48.9708789
          ],
          [
            16.5254213,
            48.9705462
          ],
          [
            16.5249104,
            48.9701635
          ]
        ]
      }
    },
    {
      "type": "Feature",
      "id": "way/346662039",
      "properties": {
        "@id": "way/346662039",
        "highway": "motorway",
        "int_ref": "E 461",
        "lanes": "2",
        "maxspeed": "130",
        "oneway": "yes",
        "ref": "D52",
        "toll": "yes"
      },
      "geometry": {
        "type": "LineString",
        "coordinates": [
          [
            16.5269903,
            48.9716109
          ],
          [
            16.5258893,
            48.9708789
          ]
        ]
      }
    },
    {
      "type": "Feature",
      "id": "way/346662040",
      "properties": {
        "@id": "way/346662040",
        "highway": "motorway",
        "int_ref": "E 461",
        "lanes": "2",
        "maxspeed": "130",
        "motorroad": "yes",
        "oneway": "yes",
        "ref": "D52",
        "toll": "yes"
      },
      "geometry": {
        "type": "LineString",
        "coordinates": [
          [
            16.526979,
            48.9714183
          ],
          [
            16.5284119,
            48.9723056
          ],
          [
            16.5294918,
            48.972944
          ],
          [
            16.5306515,
            48.9736333
          ],
          [
            16.5315693,
            48.9741937
          ],
          [
            16.5324071,
            48.9747197
          ],
          [
            16.5328865,
            48.9750299
          ],
          [
            16.5336102,
            48.9755079
          ],
          [
            16.5346168,
            48.9761783
          ],
          [
            16.5355717,
            48.9769119
          ],
          [
            16.5364615,
            48.9776099
          ],
          [
            16.5372862,
            48.978315
          ],
          [
            16.5380567,
            48.9790059
          ],
          [
            16.5400654,
            48.9809131
          ]
        ]
      }
    }
  ]
}