{
  "type": "FeatureCollection",
  "generator": "overpass-turbo",
  "copyright": "The data included in this document is from www.openstreetmap.org. The data is made available under ODbL.",
  "timestamp": "2015-11-23T20:32:02Z",
  "features": [
    {
      "type": "Feature",
      "id": "way/4051208",
      "properties": {
        "@id": "way/4051208",
        "highway": "motorway",
        "lanes": "2",
        "maxspeed": "130",
        "motorroad": "yes",
        "oneway": "yes",
        "ref": "D4",
        "source:maxspeed": "CZ:trunk",
        "toll": "yes"
      },
      "geometry": {
        "type": "LineString",
        "coordinates": [
          [
            14.1608616,
            49.7591733
          ],
          [
            14.1618789,
            49.7602607
          ],
          [
            14.1630516,
            49.7613127
          ],
          [
            14.1647058,
            49.7625271
          ]
        ]
      }
    },
    {
      "type": "Feature",
      "id": "way/4052277",
      "properties": {
        "@id": "way/4052277",
        "highway": "motorway",
        "lanes": "2",
        "maxspeed": "130",
        "motorroad": "yes",
        "oneway": "yes",
        "ref": "D4",
        "toll": "yes"
      },
      "geometry": {
        "type": "LineString",
        "coordinates": [
          [
            14.2341197,
            49.8288889
          ],
          [
            14.2361838,
            49.8306277
          ],
          [
            14.2434986,
            49.8370098
          ],
          [
            14.2441004,
            49.8375679
          ],
          [
            14.2455045,
            49.8388513
          ],
          [
            14.2457044,
            49.8390444
          ],
          [
            14.2459454,
            49.839286
          ]
        ]
      }
    },
    {
      "type": "Feature",
      "id": "way/13062272",
      "properties": {
        "@id": "way/13062272",
        "highway": "motorway",
        "lanes": "2",
        "maxspeed": "130",
        "motorroad": "yes",
        "oneway": "yes",
        "ref": "D4",
        "source:maxspeed": "CZ:trunk",
        "toll": "yes"
      },
      "geometry": {
        "type": "LineString",
        "coordinates": [
          [
            14.2340419,
            49.8289797
          ],
          [
            14.2291516,
            49.8247018
          ],
          [
            14.2249321,
            49.8209945
          ],
          [
            14.2243331,
            49.8204656
          ],
          [
            14.2237619,
            49.8199346
          ],
          [
            14.2229122,
            49.8190353
          ],
          [
            14.222667,
            49.8187603
          ],
          [
            14.2220501,
            49.8180262
          ],
          [
            14.2216988,
            49.8175838
          ]
        ]
      }
    },
    {
      "type": "Feature",
      "id": "way/13062275",
      "properties": {
        "@id": "way/13062275",
        "bridge": "yes",
        "highway": "motorway",
        "lanes": "2",
        "layer": "1",
        "maxspeed": "130",
        "motorroad": "yes",
        "oneway": "yes",
        "ref": "D4",
        "source:maxspeed": "CZ:trunk",
        "toll": "yes"
      },
      "geometry": {
        "type": "LineString",
        "coordinates": [
          [
            14.2200797,
            49.8154564
          ],
          [
            14.2205622,
            49.816003
          ],
          [
            14.221031,
            49.816558
          ],
          [
            14.2214488,
            49.8170324
          ],
          [
            14.2218362,
            49.8175196
          ]
        ]
      }
    },
    {
      "type": "Feature",
      "id": "way/13062279",
      "properties": {
        "@id": "way/13062279",
        "highway": "motorway",
        "lanes": "2",
        "maxspeed": "130",
        "motorroad": "yes",
        "oneway": "yes",
        "ref": "D4",
        "source:maxspeed": "CZ:trunk",
        "toll": "yes"
      },
      "geometry": {
        "type": "LineString",
        "coordinates": [
          [
            14.2218362,
            49.8175196
          ],
          [
            14.2224432,
            49.8182527
          ],
          [
            14.2230778,
            49.8189775
          ],
          [
            14.2239089,
            49.8198628
          ],
          [
            14.2250198,
            49.82091
          ],
          [
            14.2292895,
            49.8245907
          ],
          [
            14.2341197,
            49.8288889
          ]
        ]
      }
    },
    {
      "type": "Feature",
      "id": "way/13062282",
      "properties": {
        "@id": "way/13062282",
        "bridge": "yes",
        "highway": "motorway",
        "lanes": "2",
        "layer": "1",
        "maxspeed": "130",
        "motorroad": "yes",
        "oneway": "yes",
        "ref": "D4",
        "source:maxspeed": "CZ:trunk",
        "toll": "yes"
      },
      "geometry": {
        "type": "LineString",
        "coordinates": [
          [
            14.2216988,
            49.8175838
          ],
          [
            14.2212944,
            49.8170656
          ],
          [
            14.220866,
            49.8165522
          ],
          [
            14.2204078,
            49.8160362
          ],
          [
            14.2199383,
            49.8155233
          ]
        ]
      }
    },
    {
      "type": "Feature",
      "id": "way/13062297",
      "properties": {
        "@id": "way/13062297",
        "highway": "motorway",
        "lanes": "2",
        "maxspeed": "130",
        "motorroad": "yes",
        "oneway": "yes",
        "ref": "D4",
        "source:maxspeed": "CZ:trunk",
        "toll": "yes"
      },
      "geometry": {
        "type": "LineString",
        "coordinates": [
          [
            14.2199383,
            49.8155233
          ],
          [
            14.2194901,
            49.8150664
          ],
          [
            14.2190828,
            49.8147124
          ],
          [
            14.2186205,
            49.81438
          ],
          [
            14.2181163,
            49.8140549
          ],
          [
            14.2177786,
            49.8138691
          ],
          [
            14.2174327,
            49.8137095
          ],
          [
            14.2167385,
            49.8134327
          ],
          [
            14.2139244,
            49.8124469
          ],
          [
            14.2123676,
            49.811821
          ],
          [
            14.2106743,
            49.8109623
          ],
          [
            14.2092058,
            49.8099993
          ],
          [
            14.2077372,
            49.8087876
          ],
          [
            14.2044631,
            49.8059468
          ],
          [
            14.2005102,
            49.8025788
          ],
          [
            14.2000136,
            49.8021385
          ],
          [
            14.1988062,
            49.8010097
          ],
          [
            14.1976418,
            49.7997672
          ],
          [
            14.1966195,
            49.7982976
          ],
          [
            14.1959734,
            49.7970338
          ],
          [
            14.1955261,
            49.7957558
          ],
          [
            14.1952776,
            49.794563
          ],
          [
            14.1952337,
            49.7934091
          ],
          [
            14.1952797,
            49.7925331
          ],
          [
            14.1953557,
            49.7916592
          ],
          [
            14.1956764,
            49.7897639
          ],
          [
            14.1959538,
            49.7878663
          ],
          [
            14.1959969,
            49.7873103
          ],
          [
            14.1960233,
            49.7867565
          ]
        ]
      }
    },
    {
      "type": "Feature",
      "id": "way/13063984",
      "properties": {
        "@id": "way/13063984",
        "bridge": "yes",
        "highway": "motorway",
        "lanes": "2",
        "layer": "1",
        "maxspeed": "130",
        "motorroad": "yes",
        "oneway": "yes",
        "ref": "D4",
        "source:maxspeed": "CZ:trunk",
        "toll": "yes"
      },
      "geometry": {
        "type": "LineString",
        "coordinates": [
          [
            14.1955443,
            49.7835491
          ],
          [
            14.1957385,
            49.7840225
          ]
        ]
      }
    },
    {
      "type": "Feature",
      "id": "way/13063986",
      "properties": {
        "@id": "way/13063986",
        "highway": "motorway",
        "lanes": "2",
        "maxspeed": "130",
        "motorroad": "yes",
        "oneway": "yes",
        "ref": "D4",
        "source:maxspeed": "CZ:trunk",
        "toll": "yes"
      },
      "geometry": {
        "type": "LineString",
        "coordinates": [
          [
            14.1957385,
            49.7840225
          ],
          [
            14.1959361,
            49.7846357
          ],
          [
            14.1960619,
            49.7852392
          ],
          [
            14.1961498,
            49.7858485
          ]
        ]
      }
    },
    {
      "type": "Feature",
      "id": "way/13064004",
      "properties": {
        "@id": "way/13064004",
        "bridge": "yes",
        "highway": "motorway",
        "lanes": "2",
        "layer": "1",
        "maxspeed": "130",
        "motorroad": "yes",
        "oneway": "yes",
        "ref": "D4",
        "source:maxspeed": "CZ:trunk",
        "toll": "yes"
      },
      "geometry": {
        "type": "LineString",
        "coordinates": [
          [
            14.1955919,
            49.7840638
          ],
          [
            14.1953708,
            49.7835534
          ]
        ]
      }
    },
    {
      "type": "Feature",
      "id": "way/13064022",
      "properties": {
        "@id": "way/13064022",
        "highway": "motorway",
        "lanes": "2",
        "maxspeed": "130",
        "motorroad": "yes",
        "oneway": "yes",
        "ref": "D4",
        "source:maxspeed": "CZ:trunk",
        "toll": "yes"
      },
      "geometry": {
        "type": "LineString",
        "coordinates": [
          [
            14.1953708,
            49.7835534
          ],
          [
            14.1947025,
            49.7824507
          ],
          [
            14.1939925,
            49.7816555
          ],
          [
            14.1932825,
            49.7810165
          ],
          [
            14.1922309,
            49.7802706
          ],
          [
            14.1909003,
            49.7795114
          ],
          [
            14.18854,
            49.7783237
          ],
          [
            14.1870441,
            49.7774893
          ],
          [
            14.185443,
            49.7763618
          ],
          [
            14.1840222,
            49.7751064
          ],
          [
            14.1818949,
            49.7729565
          ],
          [
            14.1810168,
            49.7721019
          ]
        ]
      }
    },
    {
      "type": "Feature",
      "id": "way/13064025",
      "properties": {
        "@id": "way/13064025",
        "bridge": "yes",
        "highway": "motorway",
        "lanes": "2",
        "layer": "1",
        "maxspeed": "130",
        "motorroad": "yes",
        "oneway": "yes",
        "ref": "D4",
        "source:maxspeed": "CZ:trunk",
        "toll": "yes"
      },
      "geometry": {
        "type": "LineString",
        "coordinates": [
          [
            14.1961498,
            49.7858485
          ],
          [
            14.1961834,
            49.7866701
          ]
        ]
      }
    },
    {
      "type": "Feature",
      "id": "way/13064043",
      "properties": {
        "@id": "way/13064043",
        "highway": "motorway",
        "lanes": "2",
        "maxspeed": "130",
        "motorroad": "yes",
        "oneway": "yes",
        "ref": "D4",
        "source:maxspeed": "CZ:trunk",
        "toll": "yes"
      },
      "geometry": {
        "type": "LineString",
        "coordinates": [
          [
            14.1961834,
            49.7866701
          ],
          [
            14.1961597,
            49.7872779
          ],
          [
            14.1961153,
            49.7878867
          ],
          [
            14.1958498,
            49.7896776
          ],
          [
            14.1955231,
            49.7917549
          ],
          [
            14.1954425,
            49.7925865
          ],
          [
            14.1954007,
            49.7934263
          ],
          [
            14.1954469,
            49.7945355
          ],
          [
            14.1957031,
            49.795727
          ],
          [
            14.1961376,
            49.7970117
          ],
          [
            14.1967604,
            49.7982647
          ],
          [
            14.1977538,
            49.7996802
          ],
          [
            14.1983184,
            49.8002958
          ],
          [
            14.1987199,
            49.8007336
          ],
          [
            14.2006162,
            49.8024622
          ],
          [
            14.2010772,
            49.8028558
          ],
          [
            14.2045931,
            49.8058575
          ],
          [
            14.2078758,
            49.8087225
          ],
          [
            14.2093315,
            49.8099079
          ],
          [
            14.2107763,
            49.8108747
          ],
          [
            14.2124399,
            49.8117326
          ],
          [
            14.2139904,
            49.8123468
          ],
          [
            14.2168262,
            49.8133259
          ],
          [
            14.2175061,
            49.8136027
          ],
          [
            14.2178511,
            49.8137619
          ],
          [
            14.2181885,
            49.8139372
          ],
          [
            14.2189645,
            49.8144309
          ],
          [
            14.2192011,
            49.8146157
          ],
          [
            14.2194442,
            49.8148109
          ],
          [
            14.2196526,
            49.8150024
          ],
          [
            14.2200797,
            49.8154564
          ]
        ]
      }
    },
    {
      "type": "Feature",
      "id": "way/13064053",
      "properties": {
        "@id": "way/13064053",
        "bridge": "yes",
        "highway": "motorway",
        "lanes": "2",
        "layer": "1",
        "maxspeed": "130",
        "motorroad": "yes",
        "oneway": "yes",
        "ref": "D4",
        "source:maxspeed": "CZ:trunk",
        "toll": "yes"
      },
      "geometry": {
        "type": "LineString",
        "coordinates": [
          [
            14.1960233,
            49.7867565
          ],
          [
            14.1959845,
            49.7858646
          ]
        ]
      }
    },
    {
      "type": "Feature",
      "id": "way/13064082",
      "properties": {
        "@id": "way/13064082",
        "highway": "motorway",
        "lanes": "2",
        "maxspeed": "130",
        "motorroad": "yes",
        "oneway": "yes",
        "ref": "D4",
        "source:maxspeed": "CZ:trunk",
        "toll": "yes"
      },
      "geometry": {
        "type": "LineString",
        "coordinates": [
          [
            14.1959845,
            49.7858646
          ],
          [
            14.1959064,
            49.7852285
          ],
          [
            14.1957862,
            49.7846789
          ],
          [
            14.1955919,
            49.7840638
          ]
        ]
      }
    },
    {
      "type": "Feature",
      "id": "way/13065093",
      "properties": {
        "@id": "way/13065093",
        "bridge": "yes",
        "highway": "motorway",
        "lanes": "2",
        "layer": "1",
        "maxspeed": "130",
        "motorroad": "yes",
        "oneway": "yes",
        "ref": "D4",
        "source:maxspeed": "CZ:trunk",
        "toll": "yes"
      },
      "geometry": {
        "type": "LineString",
        "coordinates": [
          [
            14.1810168,
            49.7721019
          ],
          [
            14.1807159,
            49.7718281
          ]
        ]
      }
    },
    {
      "type": "Feature",
      "id": "way/13065106",
      "properties": {
        "@id": "way/13065106",
        "highway": "motorway",
        "lanes": "2",
        "maxspeed": "130",
        "motorroad": "yes",
        "oneway": "yes",
        "ref": "D4",
        "source:maxspeed": "CZ:trunk",
        "toll": "yes"
      },
      "geometry": {
        "type": "LineString",
        "coordinates": [
          [
            14.1807159,
            49.7718281
          ],
          [
            14.1798277,
            49.7710622
          ],
          [
            14.1780838,
            49.7697618
          ],
          [
            14.1767355,
            49.7688999
          ],
          [
            14.1749816,
            49.7679255
          ],
          [
            14.1730159,
            49.7669595
          ],
          [
            14.1693471,
            49.7653073
          ],
          [
            14.1680039,
            49.764617
          ],
          [
            14.1667996,
            49.7639948
          ],
          [
            14.1656495,
            49.7633162
          ]
        ]
      }
    },
    {
      "type": "Feature",
      "id": "way/13065108",
      "properties": {
        "@id": "way/13065108",
        "bridge": "yes",
        "highway": "motorway",
        "lanes": "2",
        "layer": "1",
        "maxspeed": "130",
        "motorroad": "yes",
        "oneway": "yes",
        "ref": "D4",
        "source:maxspeed": "CZ:trunk",
        "toll": "yes"
      },
      "geometry": {
        "type": "LineString",
        "coordinates": [
          [
            14.1808485,
            49.7717581
          ],
          [
            14.18113,
            49.7720289
          ]
        ]
      }
    },
    {
      "type": "Feature",
      "id": "way/13065110",
      "properties": {
        "@id": "way/13065110",
        "highway": "motorway",
        "lanes": "2",
        "maxspeed": "130",
        "motorroad": "yes",
        "oneway": "yes",
        "ref": "D4",
        "source:maxspeed": "CZ:trunk",
        "toll": "yes"
      },
      "geometry": {
        "type": "LineString",
        "coordinates": [
          [
            14.18113,
            49.7720289
          ],
          [
            14.1820224,
            49.7728984
          ],
          [
            14.1841401,
            49.7750245
          ],
          [
            14.1855615,
            49.7763071
          ],
          [
            14.1871467,
            49.7773918
          ],
          [
            14.1886276,
            49.7782397
          ],
          [
            14.1909783,
            49.7794128
          ],
          [
            14.192301,
            49.7801621
          ],
          [
            14.1934032,
            49.78091
          ],
          [
            14.1941249,
            49.7815902
          ],
          [
            14.1948239,
            49.7823879
          ],
          [
            14.1955443,
            49.7835491
          ]
        ]
      }
    },
    {
      "type": "Feature",
      "id": "way/13068297",
      "properties": {
        "@id": "way/13068297",
        "highway": "motorway",
        "lanes": "2",
        "maxspeed": "130",
        "motorroad": "yes",
        "oneway": "yes",
        "ref": "D4",
        "source:maxspeed": "CZ:trunk",
        "toll": "yes"
      },
      "geometry": {
        "type": "LineString",
        "coordinates": [
          [
            14.100223,
            49.7127636
          ],
          [
            14.1016556,
            49.7134624
          ],
          [
            14.1039603,
            49.7146824
          ],
          [
            14.1054535,
            49.7155757
          ],
          [
            14.1075702,
            49.7170164
          ],
          [
            14.1113233,
            49.7197741
          ],
          [
            14.1128725,
            49.7208552
          ],
          [
            14.1140891,
            49.7215832
          ],
          [
            14.1158795,
            49.7225201
          ],
          [
            14.1171102,
            49.7230892
          ],
          [
            14.1191736,
            49.7239012
          ],
          [
            14.1212802,
            49.7245874
          ],
          [
            14.1259648,
            49.7259852
          ],
          [
            14.1285294,
            49.7268704
          ],
          [
            14.1305214,
            49.7277251
          ],
          [
            14.1322481,
            49.7286069
          ],
          [
            14.1336273,
            49.7293586
          ],
          [
            14.1347899,
            49.7301235
          ],
          [
            14.1357169,
            49.7308162
          ],
          [
            14.1365228,
            49.7314761
          ],
          [
            14.1372631,
            49.7321497
          ],
          [
            14.1384246,
            49.7332438
          ],
          [
            14.1390099,
            49.7338569
          ],
          [
            14.1396454,
            49.7346417
          ],
          [
            14.1403086,
            49.7355775
          ],
          [
            14.1413714,
            49.7373632
          ],
          [
            14.1426396,
            49.7395571
          ],
          [
            14.1435531,
            49.7409479
          ],
          [
            14.1445049,
            49.7421003
          ],
          [
            14.1456106,
            49.7431548
          ],
          [
            14.1470046,
            49.7442816
          ],
          [
            14.1492372,
            49.7458685
          ],
          [
            14.1512151,
            49.7472365
          ],
          [
            14.1533057,
            49.7488895
          ],
          [
            14.1544146,
            49.7499828
          ],
          [
            14.1558061,
            49.751591
          ],
          [
            14.1568012,
            49.753022
          ],
          [
            14.1583182,
            49.7555016
          ]
        ]
      }
    },
    {
      "type": "Feature",
      "id": "way/13068300",
      "properties": {
        "@id": "way/13068300",
        "bridge": "yes",
        "highway": "motorway",
        "lanes": "2",
        "layer": "1",
        "maxspeed": "130",
        "motorroad": "yes",
        "oneway": "yes",
        "ref": "D4",
        "source:maxspeed": "CZ:trunk",
        "toll": "yes"
      },
      "geometry": {
        "type": "LineString",
        "coordinates": [
          [
            14.1583182,
            49.7555016
          ],
          [
            14.1584756,
            49.7557693
          ]
        ]
      }
    },
    {
      "type": "Feature",
      "id": "way/13068303",
      "properties": {
        "@id": "way/13068303",
        "highway": "motorway",
        "lanes": "2",
        "maxspeed": "130",
        "motorroad": "yes",
        "oneway": "yes",
        "ref": "D4",
        "source:maxspeed": "CZ:trunk",
        "toll": "yes"
      },
      "geometry": {
        "type": "LineString",
        "coordinates": [
          [
            14.1584756,
            49.7557693
          ],
          [
            14.1591247,
            49.7568604
          ],
          [
            14.159991,
            49.7581041
          ],
          [
            14.1608616,
            49.7591733
          ]
        ]
      }
    },
    {
      "type": "Feature",
      "id": "way/13068306",
      "properties": {
        "@id": "way/13068306",
        "bridge": "yes",
        "highway": "motorway",
        "lanes": "2",
        "layer": "1",
        "maxspeed": "130",
        "motorroad": "yes",
        "oneway": "yes",
        "ref": "D4",
        "source:maxspeed": "CZ:trunk",
        "toll": "yes"
      },
      "geometry": {
        "type": "LineString",
        "coordinates": [
          [
            14.1583302,
            49.7558134
          ],
          [
            14.1581722,
            49.7555339
          ]
        ]
      }
    },
    {
      "type": "Feature",
      "id": "way/13068308",
      "properties": {
        "@id": "way/13068308",
        "highway": "motorway",
        "lanes": "2",
        "maxspeed": "130",
        "motorroad": "yes",
        "oneway": "yes",
        "ref": "D4",
        "source:maxspeed": "CZ:trunk",
        "toll": "yes"
      },
      "geometry": {
        "type": "LineString",
        "coordinates": [
          [
            14.1581722,
            49.7555339
          ],
          [
            14.1566566,
            49.7530738
          ],
          [
            14.1556666,
            49.7516581
          ],
          [
            14.1542737,
            49.7500477
          ],
          [
            14.1531856,
            49.7489813
          ],
          [
            14.1511471,
            49.7473708
          ],
          [
            14.1491521,
            49.7459416
          ],
          [
            14.1468905,
            49.7443644
          ],
          [
            14.1454324,
            49.7432079
          ],
          [
            14.1443695,
            49.7421831
          ],
          [
            14.1433756,
            49.740999
          ],
          [
            14.1424545,
            49.7395989
          ],
          [
            14.1411921,
            49.7373952
          ],
          [
            14.1401435,
            49.7356124
          ],
          [
            14.1394835,
            49.7346897
          ],
          [
            14.1388348,
            49.7339254
          ],
          [
            14.1381448,
            49.7331817
          ],
          [
            14.1370807,
            49.7321872
          ],
          [
            14.1364204,
            49.7315835
          ],
          [
            14.1357073,
            49.7309913
          ],
          [
            14.134658,
            49.7302156
          ],
          [
            14.1335115,
            49.7294565
          ],
          [
            14.1321478,
            49.728702
          ],
          [
            14.1304357,
            49.7278232
          ],
          [
            14.1284479,
            49.7269786
          ],
          [
            14.1258799,
            49.7260863
          ],
          [
            14.121179,
            49.7247079
          ],
          [
            14.1191187,
            49.724026
          ],
          [
            14.117041,
            49.7232021
          ],
          [
            14.1157371,
            49.7226122
          ],
          [
            14.1139543,
            49.721649
          ],
          [
            14.1127718,
            49.7209373
          ],
          [
            14.1111976,
            49.7198626
          ],
          [
            14.107466,
            49.7171225
          ],
          [
            14.1053676,
            49.7156755
          ],
          [
            14.103877,
            49.7147762
          ],
          [
            14.1015914,
            49.7135638
          ],
          [
            14.1001505,
            49.7128704
          ]
        ]
      }
    },
    {
      "type": "Feature",
      "id": "way/13068325",
      "properties": {
        "@id": "way/13068325",
        "bridge": "yes",
        "highway": "motorway",
        "lanes": "2",
        "layer": "2",
        "maxspeed": "130",
        "motorroad": "yes",
        "oneway": "yes",
        "ref": "D4",
        "source:maxspeed": "CZ:trunk",
        "toll": "yes"
      },
      "geometry": {
        "type": "LineString",
        "coordinates": [
          [
            14.1647058,
            49.7625271
          ],
          [
            14.1655655,
            49.7630983
          ]
        ]
      }
    },
    {
      "type": "Feature",
      "id": "way/13068341",
      "properties": {
        "@id": "way/13068341",
        "bridge": "yes",
        "highway": "motorway",
        "lanes": "2",
        "maxspeed": "130",
        "motorroad": "yes",
        "oneway": "yes",
        "ref": "D4",
        "source:maxspeed": "CZ:trunk",
        "toll": "yes"
      },
      "geometry": {
        "type": "LineString",
        "coordinates": [
          [
            14.1655655,
            49.7630983
          ],
          [
            14.1657832,
            49.7632286
          ]
        ]
      }
    },
    {
      "type": "Feature",
      "id": "way/13068356",
      "properties": {
        "@id": "way/13068356",
        "bridge": "yes",
        "highway": "motorway",
        "lanes": "2",
        "layer": "2",
        "maxspeed": "130",
        "motorroad": "yes",
        "oneway": "yes",
        "ref": "D4",
        "source:maxspeed": "CZ:trunk",
        "toll": "yes"
      },
      "geometry": {
        "type": "LineString",
        "coordinates": [
          [
            14.1656495,
            49.7633162
          ],
          [
            14.1650081,
            49.7629027
          ]
        ]
      }
    },
    {
      "type": "Feature",
      "id": "way/13068364",
      "properties": {
        "@id": "way/13068364",
        "bridge": "yes",
        "highway": "motorway",
        "lanes": "2",
        "maxspeed": "130",
        "motorroad": "yes",
        "oneway": "yes",
        "ref": "D4",
        "source:maxspeed": "CZ:trunk",
        "toll": "yes"
      },
      "geometry": {
        "type": "LineString",
        "coordinates": [
          [
            14.1650081,
            49.7629027
          ],
          [
            14.1646007,
            49.7626044
          ]
        ]
      }
    },
    {
      "type": "Feature",
      "id": "way/13240384",
      "properties": {
        "@id": "way/13240384",
        "highway": "motorway",
        "maxspeed": "130",
        "motorroad": "yes",
        "oneway": "yes",
        "ref": "D4",
        "source:maxspeed": "CZ:trunk",
        "toll": "yes"
      },
      "geometry": {
        "type": "LineString",
        "coordinates": [
          [
            14.3363509,
            49.9243694
          ],
          [
            14.3360252,
            49.9235182
          ],
          [
            14.3359323,
            49.9228133
          ],
          [
            14.335932,
            49.9223155
          ],
          [
            14.3359474,
            49.9216893
          ],
          [
            14.3362663,
            49.9203773
          ],
          [
            14.3363812,
            49.9200181
          ],
          [
            14.3369904,
            49.9180003
          ],
          [
            14.3372947,
            49.9161332
          ],
          [
            14.337309,
            49.915028
          ],
          [
            14.3371193,
            49.913564
          ],
          [
            14.3367216,
            49.912145
          ],
          [
            14.3361922,
            49.9108806
          ],
          [
            14.3352011,
            49.9093986
          ]
        ]
      }
    },
    {
      "type": "Feature",
      "id": "way/13240412",
      "properties": {
        "@id": "way/13240412",
        "highway": "motorway",
        "lanes": "2",
        "maxspeed": "130",
        "motorroad": "yes",
        "oneway": "yes",
        "ref": "D4",
        "source:maxspeed": "CZ:trunk",
        "toll": "yes"
      },
      "geometry": {
        "type": "LineString",
        "coordinates": [
          [
            14.0878126,
            49.7047486
          ],
          [
            14.0883223,
            49.7053405
          ],
          [
            14.0893446,
            49.7064565
          ],
          [
            14.0898389,
            49.70691
          ],
          [
            14.0904226,
            49.7074095
          ],
          [
            14.0910049,
            49.7078742
          ],
          [
            14.0916422,
            49.708344
          ],
          [
            14.0928018,
            49.7091113
          ],
          [
            14.093571,
            49.7095615
          ],
          [
            14.0943334,
            49.7099827
          ],
          [
            14.0952212,
            49.710434
          ],
          [
            14.0961272,
            49.7108786
          ],
          [
            14.0995616,
            49.7124409
          ]
        ]
      }
    },
    {
      "type": "Feature",
      "id": "way/25144563",
      "properties": {
        "@id": "way/25144563",
        "highway": "motorway",
        "lanes": "2",
        "maxspeed": "130",
        "motorroad": "yes",
        "oneway": "yes",
        "ref": "D4",
        "source": "cuzk:km;rsd_cr",
        "toll": "no",
        "toll:hgv": "yes"
      },
      "geometry": {
        "type": "LineString",
        "coordinates": [
          [
            14.055372,
            49.3567899
          ],
          [
            14.0555058,
            49.3576666
          ],
          [
            14.0555948,
            49.3585252
          ],
          [
            14.05562,
            49.3591018
          ],
          [
            14.0556536,
            49.3600763
          ],
          [
            14.0556255,
            49.3612078
          ]
        ]
      }
    },
    {
      "type": "Feature",
      "id": "way/25307233",
      "properties": {
        "@id": "way/25307233",
        "highway": "motorway",
        "lanes": "2",
        "layer": "1",
        "maxspeed": "130",
        "motorroad": "yes",
        "oneway": "yes",
        "ref": "D4",
        "source:maxspeed": "CZ:trunk",
        "toll": "yes"
      },
      "geometry": {
        "type": "LineString",
        "coordinates": [
          [
            14.1001505,
            49.7128704
          ],
          [
            14.0994748,
            49.7125452
          ]
        ]
      }
    },
    {
      "type": "Feature",
      "id": "way/25307235",
      "properties": {
        "@id": "way/25307235",
        "highway": "motorway",
        "lanes": "2",
        "maxspeed": "130",
        "motorroad": "yes",
        "oneway": "yes",
        "ref": "D4",
        "source:maxspeed": "CZ:trunk",
        "toll": "yes"
      },
      "geometry": {
        "type": "LineString",
        "coordinates": [
          [
            14.0994748,
            49.7125452
          ],
          [
            14.0960514,
            49.7109652
          ],
          [
            14.0952496,
            49.7105755
          ],
          [
            14.0944809,
            49.7101901
          ],
          [
            14.0942413,
            49.7100687
          ],
          [
            14.0934813,
            49.7096492
          ],
          [
            14.0932439,
            49.7095104
          ],
          [
            14.0927183,
            49.7092028
          ],
          [
            14.0915535,
            49.7084345
          ],
          [
            14.0908972,
            49.7079527
          ],
          [
            14.0902926,
            49.7074783
          ],
          [
            14.0897077,
            49.7069826
          ],
          [
            14.0891706,
            49.7064631
          ]
        ]
      }
    },
    {
      "type": "Feature",
      "id": "way/25307448",
      "properties": {
        "@id": "way/25307448",
        "highway": "motorway",
        "lanes": "2",
        "layer": "1",
        "maxspeed": "130",
        "motorroad": "yes",
        "oneway": "yes",
        "ref": "D4",
        "source:maxspeed": "CZ:trunk",
        "toll": "yes"
      },
      "geometry": {
        "type": "LineString",
        "coordinates": [
          [
            14.0995616,
            49.7124409
          ],
          [
            14.100223,
            49.7127636
          ]
        ]
      }
    },
    {
      "type": "Feature",
      "id": "way/26143653",
      "properties": {
        "@id": "way/26143653",
        "highway": "motorway",
        "lanes": "2",
        "maxspeed": "130",
        "motorroad": "yes",
        "oneway": "yes",
        "ref": "D4",
        "source": "cuzk:km;rsd_cr",
        "toll": "no",
        "toll:hgv": "yes"
      },
      "geometry": {
        "type": "LineString",
        "coordinates": [
          [
            14.0554879,
            49.360079
          ],
          [
            14.0554457,
            49.3590794
          ],
          [
            14.055431,
            49.3585885
          ],
          [
            14.0553318,
            49.3576796
          ],
          [
            14.05519,
            49.3567987
          ]
        ]
      }
    },
    {
      "type": "Feature",
      "id": "way/26143654",
      "properties": {
        "@id": "way/26143654",
        "bridge": "yes",
        "highway": "motorway",
        "lanes": "2",
        "layer": "1",
        "maxspeed": "130",
        "motorroad": "yes",
        "oneway": "yes",
        "ref": "D4",
        "source": "cuzk:km;rsd_cr",
        "toll": "no",
        "toll:hgv": "yes"
      },
      "geometry": {
        "type": "LineString",
        "coordinates": [
          [
            14.05519,
            49.3567987
          ],
          [
            14.0551407,
            49.3564379
          ]
        ]
      }
    },
    {
      "type": "Feature",
      "id": "way/26143658",
      "properties": {
        "@id": "way/26143658",
        "bridge": "yes",
        "highway": "motorway",
        "lanes": "2",
        "layer": "1",
        "maxspeed": "130",
        "motorroad": "yes",
        "oneway": "yes",
        "ref": "D4",
        "source": "cuzk:km;rsd_cr",
        "toll": "no",
        "toll:hgv": "yes"
      },
      "geometry": {
        "type": "LineString",
        "coordinates": [
          [
            14.0553063,
            49.3564428
          ],
          [
            14.055372,
            49.3567899
          ]
        ]
      }
    },
    {
      "type": "Feature",
      "id": "way/26258132",
      "properties": {
        "@id": "way/26258132",
        "highway": "motorway",
        "lanes": "2",
        "maxspeed": "130",
        "motorroad": "yes",
        "oneway": "yes",
        "ref": "D4",
        "source:maxspeed": "CZ:trunk",
        "toll": "yes"
      },
      "geometry": {
        "type": "LineString",
        "coordinates": [
          [
            14.2696376,
            49.8684588
          ],
          [
            14.2696073,
            49.8676256
          ],
          [
            14.2695025,
            49.8667444
          ],
          [
            14.2694496,
            49.8665131
          ],
          [
            14.269274,
            49.8657608
          ],
          [
            14.2688676,
            49.8647756
          ],
          [
            14.2682515,
            49.8637788
          ],
          [
            14.2675916,
            49.862935
          ],
          [
            14.2669747,
            49.8623161
          ],
          [
            14.2656422,
            49.8611739
          ],
          [
            14.2640431,
            49.860209
          ],
          [
            14.2618836,
            49.8591362
          ],
          [
            14.2591695,
            49.857855
          ],
          [
            14.2574799,
            49.8568203
          ],
          [
            14.256354,
            49.8559153
          ],
          [
            14.2552415,
            49.8548083
          ],
          [
            14.2543982,
            49.8537656
          ],
          [
            14.2535751,
            49.8526045
          ],
          [
            14.2520348,
            49.8502702
          ],
          [
            14.2496477,
            49.845808
          ],
          [
            14.2479696,
            49.8424157
          ],
          [
            14.2471741,
            49.8410815
          ],
          [
            14.2467339,
            49.8404665
          ],
          [
            14.2462466,
            49.8398335
          ],
          [
            14.2459014,
            49.8394804
          ]
        ]
      }
    },
    {
      "type": "Feature",
      "id": "way/26258135",
      "properties": {
        "@id": "way/26258135",
        "bridge": "yes",
        "highway": "motorway",
        "lanes": "2",
        "layer": "1",
        "maxspeed": "130",
        "motorroad": "yes",
        "oneway": "yes",
        "ref": "D4",
        "source:maxspeed": "CZ:trunk",
        "toll": "yes"
      },
      "geometry": {
        "type": "LineString",
        "coordinates": [
          [
            14.2696457,
            49.868725
          ],
          [
            14.2696376,
            49.8684588
          ]
        ]
      }
    },
    {
      "type": "Feature",
      "id": "way/26258138",
      "properties": {
        "@id": "way/26258138",
        "highway": "motorway",
        "lanes": "2",
        "maxspeed": "130",
        "motorroad": "yes",
        "oneway": "yes",
        "ref": "D4",
        "source:maxspeed": "CZ:trunk",
        "toll": "yes"
      },
      "geometry": {
        "type": "LineString",
        "coordinates": [
          [
            14.2698248,
            49.8687136
          ],
          [
            14.2698668,
            49.870232
          ],
          [
            14.269888,
            49.8711519
          ],
          [
            14.2701129,
            49.8723814
          ],
          [
            14.2704154,
            49.8735404
          ],
          [
            14.2709368,
            49.8747922
          ],
          [
            14.2715002,
            49.8758007
          ],
          [
            14.2722611,
            49.8768608
          ],
          [
            14.2730726,
            49.8778805
          ],
          [
            14.2742397,
            49.8792497
          ],
          [
            14.2753601,
            49.8804354
          ],
          [
            14.27764,
            49.8826235
          ],
          [
            14.2796282,
            49.8844441
          ],
          [
            14.2805978,
            49.8852547
          ],
          [
            14.2816184,
            49.8860446
          ],
          [
            14.2826655,
            49.8867577
          ],
          [
            14.2837453,
            49.8874104
          ],
          [
            14.2855219,
            49.88829
          ],
          [
            14.2870807,
            49.8888841
          ],
          [
            14.2882688,
            49.8892409
          ],
          [
            14.2893349,
            49.8895195
          ],
          [
            14.2903172,
            49.8897193
          ],
          [
            14.2929658,
            49.8901826
          ],
          [
            14.2954777,
            49.890645
          ],
          [
            14.29947,
            49.8915253
          ],
          [
            14.302422,
            49.8923094
          ],
          [
            14.3048746,
            49.8930576
          ],
          [
            14.3051425,
            49.8931393
          ],
          [
            14.3058206,
            49.8933462
          ],
          [
            14.3111947,
            49.8949854
          ],
          [
            14.3153538,
            49.89635
          ],
          [
            14.3184775,
            49.8975354
          ],
          [
            14.3195409,
            49.8979977
          ],
          [
            14.3208782,
            49.8986043
          ],
          [
            14.3237839,
            49.9001224
          ],
          [
            14.3262783,
            49.9017376
          ],
          [
            14.3314955,
            49.9056525
          ],
          [
            14.3318711,
            49.9059343
          ],
          [
            14.3320825,
            49.9061089
          ],
          [
            14.3329849,
            49.906854
          ],
          [
            14.3339585,
            49.9077518
          ],
          [
            14.3345427,
            49.908375
          ],
          [
            14.3350712,
            49.9089851
          ]
        ]
      }
    },
    {
      "type": "Feature",
      "id": "way/26258139",
      "properties": {
        "@id": "way/26258139",
        "bridge": "yes",
        "highway": "motorway",
        "lanes": "2",
        "layer": "1",
        "maxspeed": "130",
        "motorroad": "yes",
        "oneway": "yes",
        "ref": "D4",
        "source:maxspeed": "CZ:trunk",
        "toll": "yes"
      },
      "geometry": {
        "type": "LineString",
        "coordinates": [
          [
            14.2698248,
            49.8684331
          ],
          [
            14.2698248,
            49.8687136
          ]
        ]
      }
    },
    {
      "type": "Feature",
      "id": "way/44806986",
      "properties": {
        "@id": "way/44806986",
        "bridge": "yes",
        "highway": "motorway",
        "lanes": "2",
        "layer": "1",
        "maxspeed": "130",
        "motorroad": "yes",
        "oneway": "yes",
        "ref": "D4",
        "source:maxspeed": "CZ:trunk",
        "toll": "yes"
      },
      "geometry": {
        "type": "LineString",
        "coordinates": [
          [
            14.3350712,
            49.9089851
          ],
          [
            14.3352845,
            49.9092775
          ]
        ]
      }
    },
    {
      "type": "Feature",
      "id": "way/44806987",
      "properties": {
        "@id": "way/44806987",
        "highway": "motorway",
        "maxspeed": "130",
        "motorroad": "yes",
        "oneway": "yes",
        "ref": "D4",
        "source:maxspeed": "CZ:trunk",
        "toll": "yes"
      },
      "geometry": {
        "type": "LineString",
        "coordinates": [
          [
            14.3352845,
            49.9092775
          ],
          [
            14.3363219,
            49.9108197
          ],
          [
            14.3368926,
            49.9120938
          ],
          [
            14.3372841,
            49.9135272
          ],
          [
            14.3374633,
            49.9150136
          ],
          [
            14.3374633,
            49.9161683
          ],
          [
            14.3371381,
            49.9180662
          ],
          [
            14.3364281,
            49.920422
          ],
          [
            14.3361761,
            49.9214047
          ],
          [
            14.3360963,
            49.921716
          ],
          [
            14.3360764,
            49.9226053
          ],
          [
            14.3362091,
            49.9234746
          ]
        ]
      }
    },
    {
      "type": "Feature",
      "id": "way/44806989",
      "properties": {
        "@id": "way/44806989",
        "bridge": "yes",
        "highway": "motorway",
        "lanes": "2",
        "layer": "1",
        "maxspeed": "130",
        "motorroad": "yes",
        "oneway": "yes",
        "ref": "D4",
        "source:maxspeed": "CZ:trunk",
        "toll": "yes"
      },
      "geometry": {
        "type": "LineString",
        "coordinates": [
          [
            14.3352011,
            49.9093986
          ],
          [
            14.3349833,
            49.9091105
          ]
        ]
      }
    },
    {
      "type": "Feature",
      "id": "way/44806990",
      "properties": {
        "@id": "way/44806990",
        "highway": "motorway",
        "lanes": "2",
        "maxspeed": "130",
        "motorroad": "yes",
        "oneway": "yes",
        "ref": "D4",
        "source:maxspeed": "CZ:trunk",
        "toll": "yes",
        "vehicle:conditional": "no @ (2015 May 12-2015 Jun 20)"
      },
      "geometry": {
        "type": "LineString",
        "coordinates": [
          [
            14.3349833,
            49.9091105
          ],
          [
            14.3344515,
            49.9084431
          ],
          [
            14.3338502,
            49.9077943
          ],
          [
            14.3328746,
            49.9069052
          ],
          [
            14.3320123,
            49.9062264
          ],
          [
            14.3317406,
            49.9060125
          ],
          [
            14.3312971,
            49.9056756
          ],
          [
            14.3261977,
            49.9018014
          ],
          [
            14.3236963,
            49.9002207
          ],
          [
            14.3215755,
            49.8991005
          ],
          [
            14.3207104,
            49.8986402
          ],
          [
            14.3200607,
            49.8983556
          ],
          [
            14.319555,
            49.8981315
          ],
          [
            14.3184806,
            49.8976584
          ],
          [
            14.3181412,
            49.897509
          ],
          [
            14.3153282,
            49.8964583
          ],
          [
            14.3111506,
            49.8951237
          ],
          [
            14.3055844,
            49.8933973
          ],
          [
            14.3050134,
            49.8932202
          ],
          [
            14.3042243,
            49.8929788
          ],
          [
            14.302396,
            49.8924193
          ],
          [
            14.2995405,
            49.8916821
          ],
          [
            14.2961924,
            49.8909196
          ],
          [
            14.2922469,
            49.8901638
          ],
          [
            14.2899194,
            49.8897858
          ],
          [
            14.2885685,
            49.8894492
          ],
          [
            14.2870167,
            49.8889951
          ],
          [
            14.285407,
            49.8883882
          ],
          [
            14.2836168,
            49.887483
          ],
          [
            14.2825184,
            49.8868477
          ],
          [
            14.2814584,
            49.8860857
          ],
          [
            14.2799109,
            49.8849179
          ],
          [
            14.279432,
            49.8845299
          ],
          [
            14.2775006,
            49.8827111
          ],
          [
            14.2758055,
            49.881095
          ],
          [
            14.2751996,
            49.8805173
          ],
          [
            14.2740852,
            49.8793113
          ],
          [
            14.2740194,
            49.8792337
          ],
          [
            14.2729501,
            49.8779722
          ],
          [
            14.2726971,
            49.8776683
          ],
          [
            14.2720919,
            49.8769414
          ],
          [
            14.2713393,
            49.8758521
          ],
          [
            14.2707677,
            49.8748559
          ],
          [
            14.2702494,
            49.8735646
          ],
          [
            14.270005,
            49.8728122
          ],
          [
            14.2697785,
            49.8713951
          ],
          [
            14.2697418,
            49.8711654
          ],
          [
            14.2697025,
            49.8707733
          ],
          [
            14.2696457,
            49.868725
          ]
        ]
      }
    },
    {
      "type": "Feature",
      "id": "way/83702516",
      "properties": {
        "@id": "way/83702516",
        "highway": "motorway",
        "lanes": "2",
        "maxspeed": "130",
        "motorroad": "yes",
        "oneway": "yes",
        "ref": "D4",
        "source": "cuzk:km;rsd_cr",
        "toll": "no",
        "toll:hgv": "yes"
      },
      "geometry": {
        "type": "LineString",
        "coordinates": [
          [
            14.0378186,
            49.4125885
          ],
          [
            14.0394389,
            49.408882
          ],
          [
            14.0405144,
            49.4055126
          ],
          [
            14.0426818,
            49.3979305
          ],
          [
            14.0429931,
            49.397
          ],
          [
            14.0436619,
            49.3959635
          ],
          [
            14.0445005,
            49.3948564
          ],
          [
            14.0454073,
            49.3939429
          ],
          [
            14.0459918,
            49.3933271
          ],
          [
            14.0470271,
            49.3922203
          ],
          [
            14.0476428,
            49.3913986
          ],
          [
            14.0480785,
            49.3905268
          ],
          [
            14.0484551,
            49.3895458
          ],
          [
            14.0485781,
            49.3889907
          ]
        ]
      }
    },
    {
      "type": "Feature",
      "id": "way/83702519",
      "properties": {
        "@id": "way/83702519",
        "highway": "motorway",
        "lanes": "2",
        "maxspeed": "130",
        "oneway": "yes",
        "ref": "D4",
        "source": "cuzk:km;rsd_cr",
        "toll": "no"
      },
      "geometry": {
        "type": "LineString",
        "coordinates": [
          [
            14.0378032,
            49.41276
          ],
          [
            14.0378186,
            49.4125885
          ]
        ]
      }
    },
    {
      "type": "Feature",
      "id": "way/83702520",
      "properties": {
        "@id": "way/83702520",
        "highway": "motorway",
        "lanes": "2",
        "maxspeed": "130",
        "motorroad": "yes",
        "oneway": "yes",
        "ref": "D4",
        "source": "cuzk:km;rsd_cr",
        "toll": "no",
        "toll:hgv": "yes"
      },
      "geometry": {
        "type": "LineString",
        "coordinates": [
          [
            14.0551407,
            49.3564379
          ],
          [
            14.054907,
            49.3552436
          ]
        ]
      }
    },
    {
      "type": "Feature",
      "id": "way/83702521",
      "properties": {
        "@id": "way/83702521",
        "highway": "motorway",
        "lanes": "2",
        "oneway": "yes",
        "ref": "D4",
        "source": "cuzk:km;rsd_cr",
        "toll": "no"
      },
      "geometry": {
        "type": "LineString",
        "coordinates": [
          [
            14.0379367,
            49.4126164
          ],
          [
            14.0378032,
            49.41276
          ]
        ]
      }
    },
    {
      "type": "Feature",
      "id": "way/83702522",
      "properties": {
        "@id": "way/83702522",
        "highway": "motorway",
        "lanes": "2",
        "maxspeed": "130",
        "motorroad": "yes",
        "oneway": "yes",
        "ref": "D4",
        "source": "cuzk:km;rsd_cr",
        "toll": "no",
        "toll:hgv": "yes"
      },
      "geometry": {
        "type": "LineString",
        "coordinates": [
          [
            14.0556255,
            49.3612078
          ],
          [
            14.0554773,
            49.3628122
          ],
          [
            14.0551409,
            49.3645297
          ],
          [
            14.055012,
            49.3650192
          ],
          [
            14.054468,
            49.3670169
          ],
          [
            14.053495,
            49.3705817
          ],
          [
            14.0523111,
            49.374899
          ],
          [
            14.0507286,
            49.3807596
          ],
          [
            14.0505033,
            49.3816012
          ],
          [
            14.0497844,
            49.3842658
          ],
          [
            14.0491943,
            49.3867522
          ],
          [
            14.048867,
            49.3882157
          ]
        ]
      }
    },
    {
      "type": "Feature",
      "id": "way/121412390",
      "properties": {
        "@id": "way/121412390",
        "highway": "motorway",
        "lanes": "2",
        "maxspeed": "90",
        "motorroad": "no",
        "oneway": "yes",
        "ref": "D4",
        "toll": "yes"
      },
      "geometry": {
        "type": "LineString",
        "coordinates": [
          [
            14.0891706,
            49.7064631
          ],
          [
            14.0881983,
            49.7053926
          ]
        ]
      }
    },
    {
      "type": "Feature",
      "id": "way/187625923",
      "properties": {
        "@id": "way/187625923",
        "bridge": "yes",
        "highway": "motorway",
        "lanes": "2",
        "maxspeed": "130",
        "motorroad": "yes",
        "oneway": "yes",
        "ref": "D4",
        "source:maxspeed": "CZ:trunk",
        "toll": "yes"
      },
      "geometry": {
        "type": "LineString",
        "coordinates": [
          [
            14.2459014,
            49.8394804
          ],
          [
            14.2457595,
            49.8393352
          ]
        ]
      }
    },
    {
      "type": "Feature",
      "id": "way/187625924",
      "properties": {
        "@id": "way/187625924",
        "bridge": "yes",
        "highway": "motorway",
        "lanes": "2",
        "maxspeed": "130",
        "motorroad": "yes",
        "oneway": "yes",
        "ref": "D4",
        "source:maxspeed": "CZ:trunk",
        "toll": "yes"
      },
      "geometry": {
        "type": "LineString",
        "coordinates": [
          [
            14.2459454,
            49.839286
          ],
          [
            14.2460868,
            49.8394267
          ]
        ]
      }
    },
    {
      "type": "Feature",
      "id": "way/187625925",
      "properties": {
        "@id": "way/187625925",
        "highway": "motorway",
        "lanes": "2",
        "maxspeed": "130",
        "motorroad": "yes",
        "oneway": "yes",
        "ref": "D4",
        "source:maxspeed": "CZ:trunk",
        "toll": "yes"
      },
      "geometry": {
        "type": "LineString",
        "coordinates": [
          [
            14.2460868,
            49.8394267
          ],
          [
            14.2463998,
            49.8397705
          ],
          [
            14.2473259,
            49.8410028
          ],
          [
            14.2481055,
            49.8423542
          ],
          [
            14.2498408,
            49.8457423
          ],
          [
            14.2522226,
            49.8502425
          ],
          [
            14.2537293,
            49.8525414
          ],
          [
            14.2545348,
            49.8536811
          ],
          [
            14.255366,
            49.8547351
          ],
          [
            14.2564458,
            49.8558062
          ],
          [
            14.257594,
            49.8566974
          ],
          [
            14.2592479,
            49.8577514
          ],
          [
            14.2619203,
            49.8590289
          ],
          [
            14.2640899,
            49.8600951
          ],
          [
            14.2650212,
            49.8606606
          ],
          [
            14.2657023,
            49.8610741
          ],
          [
            14.2671073,
            49.86225
          ],
          [
            14.2676754,
            49.8628584
          ],
          [
            14.2683262,
            49.8636568
          ],
          [
            14.2690173,
            49.8647053
          ],
          [
            14.2694585,
            49.8657463
          ],
          [
            14.2697064,
            49.8667558
          ],
          [
            14.2697979,
            49.8676401
          ],
          [
            14.2698248,
            49.8684331
          ]
        ]
      }
    },
    {
      "type": "Feature",
      "id": "way/187625926",
      "properties": {
        "@id": "way/187625926",
        "highway": "motorway",
        "lanes": "2",
        "maxspeed": "130",
        "motorroad": "yes",
        "oneway": "yes",
        "ref": "D4",
        "toll": "yes"
      },
      "geometry": {
        "type": "LineString",
        "coordinates": [
          [
            14.2457595,
            49.8393352
          ],
          [
            14.2456911,
            49.8392653
          ],
          [
            14.244249,
            49.8379101
          ],
          [
            14.243378,
            49.8370756
          ],
          [
            14.2360995,
            49.8307251
          ],
          [
            14.2340419,
            49.8289797
          ]
        ]
      }
    },
    {
      "type": "Feature",
      "id": "way/204523162",
      "properties": {
        "@id": "way/204523162",
        "highway": "motorway",
        "lanes": "2",
        "maxspeed": "130",
        "motorroad": "yes",
        "oneway": "yes",
        "ref": "D4",
        "source:maxspeed": "CZ:trunk",
        "toll": "yes"
      },
      "geometry": {
        "type": "LineString",
        "coordinates": [
          [
            14.1657832,
            49.7632286
          ],
          [
            14.1668016,
            49.7638385
          ],
          [
            14.1682605,
            49.7646069
          ],
          [
            14.1694164,
            49.7652013
          ],
          [
            14.1730942,
            49.7668497
          ],
          [
            14.1750728,
            49.7678022
          ],
          [
            14.1768365,
            49.7688054
          ],
          [
            14.1781856,
            49.7696834
          ],
          [
            14.1799352,
            49.7709744
          ],
          [
            14.1808485,
            49.7717581
          ]
        ]
      }
    },
    {
      "type": "Feature",
      "id": "way/204523163",
      "properties": {
        "@id": "way/204523163",
        "highway": "motorway",
        "lanes": "2",
        "maxspeed": "130",
        "motorroad": "yes",
        "oneway": "yes",
        "ref": "D4",
        "source:maxspeed": "CZ:trunk",
        "toll": "yes"
      },
      "geometry": {
        "type": "LineString",
        "coordinates": [
          [
            14.1646007,
            49.7626044
          ],
          [
            14.1626683,
            49.7611638
          ],
          [
            14.1617214,
            49.7603336
          ],
          [
            14.160761,
            49.7592718
          ],
          [
            14.1598683,
            49.7581673
          ],
          [
            14.1589954,
            49.7569093
          ],
          [
            14.1583302,
            49.7558134
          ]
        ]
      }
    },
    {
      "type": "Feature",
      "id": "way/221259637",
      "properties": {
        "@id": "way/221259637",
        "highway": "motorway",
        "lanes": "2",
        "maxspeed": "130",
        "motorroad": "yes",
        "oneway": "yes",
        "ref": "D4",
        "source": "cuzk:km;rsd_cr",
        "toll": "no",
        "toll:hgv": "yes"
      },
      "geometry": {
        "type": "LineString",
        "coordinates": [
          [
            14.0487176,
            49.388219
          ],
          [
            14.0490334,
            49.3867277
          ],
          [
            14.0496342,
            49.3842344
          ],
          [
            14.0503477,
            49.3815768
          ],
          [
            14.050573,
            49.3807421
          ],
          [
            14.0520518,
            49.3752223
          ],
          [
            14.0533303,
            49.3705677
          ],
          [
            14.0542852,
            49.3670256
          ],
          [
            14.054945,
            49.3645592
          ],
          [
            14.055283,
            49.3628159
          ],
          [
            14.0554535,
            49.3612879
          ],
          [
            14.0554879,
            49.360079
          ]
        ]
      }
    },
    {
      "type": "Feature",
      "id": "way/221259638",
      "properties": {
        "@id": "way/221259638",
        "highway": "motorway",
        "lanes": "2",
        "maxspeed": "130",
        "motorroad": "yes",
        "oneway": "yes",
        "ref": "D4",
        "source": "cuzk:km;rsd_cr",
        "toll": "no",
        "toll:hgv": "yes"
      },
      "geometry": {
        "type": "LineString",
        "coordinates": [
          [
            14.0487076,
            49.3889939
          ],
          [
            14.0485935,
            49.3895679
          ],
          [
            14.0482395,
            49.3905373
          ],
          [
            14.0477751,
            49.3914561
          ],
          [
            14.0471559,
            49.3923076
          ],
          [
            14.0461313,
            49.3934004
          ],
          [
            14.0454926,
            49.3940603
          ],
          [
            14.0446106,
            49.3949599
          ],
          [
            14.0437467,
            49.3960489
          ],
          [
            14.0431326,
            49.3970245
          ],
          [
            14.0428009,
            49.3980138
          ],
          [
            14.0406912,
            49.4055528
          ],
          [
            14.0401367,
            49.4073303
          ]
        ]
      }
    },
    {
      "type": "Feature",
      "id": "way/221259639",
      "properties": {
        "@id": "way/221259639",
        "bridge": "yes",
        "highway": "motorway",
        "lanes": "2",
        "layer": "1",
        "maxspeed": "130",
        "motorroad": "yes",
        "oneway": "yes",
        "ref": "D4",
        "source": "cuzk:km;rsd_cr",
        "toll": "no",
        "toll:hgv": "yes"
      },
      "geometry": {
        "type": "LineString",
        "coordinates": [
          [
            14.048867,
            49.3882157
          ],
          [
            14.0487076,
            49.3889939
          ]
        ]
      }
    },
    {
      "type": "Feature",
      "id": "way/221259640",
      "properties": {
        "@id": "way/221259640",
        "bridge": "yes",
        "highway": "motorway",
        "lanes": "2",
        "layer": "1",
        "maxspeed": "130",
        "motorroad": "yes",
        "oneway": "yes",
        "ref": "D4",
        "source": "cuzk:km;rsd_cr",
        "toll": "no",
        "toll:hgv": "yes"
      },
      "geometry": {
        "type": "LineString",
        "coordinates": [
          [
            14.0485781,
            49.3889907
          ],
          [
            14.0487176,
            49.388219
          ]
        ]
      }
    },
    {
      "type": "Feature",
      "id": "way/311473705",
      "properties": {
        "@id": "way/311473705",
        "highway": "motorway",
        "maxspeed": "130",
        "oneway": "yes",
        "ref": "D4",
        "source:maxspeed": "CZ:rural"
      },
      "geometry": {
        "type": "LineString",
        "coordinates": [
          [
            14.3362091,
            49.9234746
          ],
          [
            14.3365668,
            49.9245231
          ]
        ]
      }
    },
    {
      "type": "Feature",
      "id": "way/311473706",
      "properties": {
        "@id": "way/311473706",
        "highway": "motorway",
        "lanes": "2",
        "maxspeed": "130",
        "motorroad": "yes",
        "oneway": "yes",
        "ref": "D4",
        "source:maxspeed": "CZ:trunk",
        "toll": "yes"
      },
      "geometry": {
        "type": "LineString",
        "coordinates": [
          [
            14.0874947,
            49.7043736
          ],
          [
            14.0876471,
            49.7045449
          ],
          [
            14.0878126,
            49.7047486
          ]
        ]
      }
    },
    {
      "type": "Feature",
      "id": "way/314426146",
      "properties": {
        "@id": "way/314426146",
        "highway": "motorway",
        "lanes": "2",
        "maxspeed": "90",
        "motorroad": "yes",
        "oneway": "yes",
        "ref": "D4",
        "source": "cuzk:km;rsd_cr",
        "toll": "no",
        "toll:hgv": "yes"
      },
      "geometry": {
        "type": "LineString",
        "coordinates": [
          [
            14.0396336,
            49.408943
          ],
          [
            14.0379367,
            49.4126164
          ]
        ]
      }
    },
    {
      "type": "Feature",
      "id": "way/314426147",
      "properties": {
        "@id": "way/314426147",
        "highway": "motorway",
        "lanes": "2",
        "maxspeed": "100",
        "motorroad": "yes",
        "oneway": "yes",
        "ref": "D4",
        "source": "cuzk:km;rsd_cr",
        "toll": "no",
        "toll:hgv": "yes"
      },
      "geometry": {
        "type": "LineString",
        "coordinates": [
          [
            14.0401367,
            49.4073303
          ],
          [
            14.0396336,
            49.408943
          ]
        ]
      }
    },
    {
      "type": "Feature",
      "id": "way/380127893",
      "properties": {
        "@id": "way/380127893",
        "highway": "motorway",
        "lanes": "1",
        "maxspeed": "90",
        "motorroad": "no",
        "oneway": "yes",
        "ref": "D4",
        "source:maxspeed": "CZ:rural"
      },
      "geometry": {
        "type": "LineString",
        "coordinates": [
          [
            14.08678,
            49.7035133
          ],
          [
            14.0870934,
            49.7039021
          ],
          [
            14.0874947,
            49.7043736
          ]
        ]
      }
    }
  ]
}