@id,@lat,@lon
347605654,49.3895458,14.0484551
347605656,49.3905268,14.0480785
347605658,49.3913986,14.0476428
347605660,49.3922203,14.0470271
347605662,49.3933271,14.0459918
347605665,49.3939429,14.0454073
347605667,49.3948564,14.0445005
347605669,49.3959635,14.0436619
347605675,49.3979305,14.0426818
347605682,49.4055126,14.0405144
347605687,49.4088820,14.0394389
347605690,49.4125885,14.0378186
982911267,49.3970000,14.0429931
2303052337,49.3889907,14.0485781
194430603,49.3612078,14.0556255
344705425,49.3628122,14.0554773
344705428,49.3645297,14.0551409
344705431,49.3670169,14.0544680
344705436,49.3705817,14.0534950
344705438,49.3748990,14.0523111
344705444,49.3807596,14.0507286
344705447,49.3867522,14.0491943
411548748,49.3650192,14.0550120
982911333,49.3842658,14.0497844
982911364,49.3816012,14.0505033
2303052203,49.3882157,14.0488670
274832924,49.3600790,14.0554879
347605634,49.3612879,14.0554535
347605637,49.3628159,14.0552830
347605639,49.3645592,14.0549450
347605644,49.3670256,14.0542852
347605646,49.3705677,14.0533303
347605650,49.3807421,14.0505730
347605652,49.3867277,14.0490334
913504921,49.3752223,14.0520518
982911331,49.3842344,14.0496342
982911363,49.3815768,14.0503477
2303052204,49.3882190,14.0487176
344705451,49.3895679,14.0485935
344705454,49.3905373,14.0482395
344705458,49.3914561,14.0477751
344705462,49.3923076,14.0471559
344705464,49.3934004,14.0461313
344705468,49.3940603,14.0454926
344705472,49.3949599,14.0446106
344705475,49.3960489,14.0437467
344705478,49.3980138,14.0428009
344705481,49.4055528,14.0406912
982911268,49.3970245,14.0431326
2303052338,49.3889939,14.0487076
3204695406,49.4073303,14.0401367
2303052203,49.3882157,14.0488670
2303052338,49.3889939,14.0487076
2303052204,49.3882190,14.0487176
2303052337,49.3889907,14.0485781
10711447,49.4127600,14.0378032
347605690,49.4125885,14.0378186
10711447,49.4127600,14.0378032
309551887,49.4126164,14.0379367
344705485,49.4089430,14.0396336
3204695406,49.4073303,14.0401367
309551887,49.4126164,14.0379367
344705485,49.4089430,14.0396336
274832921,49.3564379,14.0551407
286304452,49.3567987,14.0551900
10711466,49.3564428,14.0553063
286304495,49.3567899,14.0553720
274832920,49.3552436,14.0549070
274832921,49.3564379,14.0551407
194430603,49.3612078,14.0556255
194430604,49.3600763,14.0556536
194430605,49.3591018,14.0556200
194430607,49.3585252,14.0555948
286304495,49.3567899,14.0553720
1439320062,49.3576666,14.0555058
274832922,49.3585885,14.0554310
274832923,49.3590794,14.0554457
274832924,49.3600790,14.0554879
286304452,49.3567987,14.0551900
1439320063,49.3576796,14.0553318
10703210,49.7146824,14.1039603
10703211,49.7170164,14.1075702
10703212,49.7197741,14.1113233
10703213,49.7230892,14.1171102
10703214,49.7245874,14.1212802
10703215,49.7259852,14.1259648
10703216,49.7277251,14.1305214
10703217,49.7301235,14.1347899
10703218,49.7321497,14.1372631
10703219,49.7332438,14.1384246
10703220,49.7373632,14.1413714
10703221,49.7409479,14.1435531
10703222,49.7431548,14.1456106
10703223,49.7458685,14.1492372
10703224,49.7488895,14.1533057
10703225,49.7515910,14.1558061
10703226,49.7555016,14.1583182
120244954,49.7530220,14.1568012
120245069,49.7499828,14.1544146
120245075,49.7472365,14.1512151
120245187,49.7442816,14.1470046
120246773,49.7421003,14.1445049
120246887,49.7395571,14.1426396
120248296,49.7355775,14.1403086
120248302,49.7346417,14.1396454
120248557,49.7308162,14.1357169
120248562,49.7293586,14.1336273
120248566,49.7286069,14.1322481
120248673,49.7268704,14.1285294
120248682,49.7239012,14.1191736
120416636,49.7225201,14.1158795
120416641,49.7215832,14.1140891
120416647,49.7208552,14.1128725
120416653,49.7155757,14.1054535
120416656,49.7134624,14.1016556
275661197,49.7127636,14.1002230
2055991527,49.7314761,14.1365228
2145235134,49.7338569,14.1390099
120247344,49.7555339,14.1581722
120247447,49.7530738,14.1566566
120247578,49.7516581,14.1556666
120247588,49.7500477,14.1542737
120247595,49.7489813,14.1531856
120247712,49.7473708,14.1511471
120247835,49.7459416,14.1491521
120247842,49.7443644,14.1468905
120247847,49.7432079,14.1454324
120247850,49.7421831,14.1443695
120247859,49.7409990,14.1433756
120247865,49.7395989,14.1424545
120248279,49.7373952,14.1411921
120248287,49.7356124,14.1401435
120248309,49.7346897,14.1394835
120248400,49.7331817,14.1381448
120248408,49.7321872,14.1370807
120248539,49.7309913,14.1357073
120248546,49.7302156,14.1346580
120248688,49.7294565,14.1335115
120248791,49.7287020,14.1321478
120248796,49.7278232,14.1304357
120248884,49.7269786,14.1284479
120248887,49.7260863,14.1258799
120248891,49.7247079,14.1211790
120248894,49.7240260,14.1191187
120416688,49.7232021,14.1170410
120416691,49.7226122,14.1157371
120416693,49.7216490,14.1139543
120416699,49.7209373,14.1127718
120416706,49.7198626,14.1111976
120416711,49.7171225,14.1074660
120416793,49.7156755,14.1053676
120416800,49.7147762,14.1038770
120416802,49.7135638,14.1015914
275661293,49.7128704,14.1001505
2055991528,49.7315835,14.1364204
2145235135,49.7339254,14.1388348
10703206,49.7064565,14.0893446
10703207,49.7083440,14.0916422
10703208,49.7108786,14.0961272
10703209,49.7124409,14.0995616
120416663,49.7091113,14.0928018
120416669,49.7099827,14.0943334
120416673,49.7074095,14.0904226
120416679,49.7053405,14.0883223
120425623,49.7047486,14.0878126
1359418254,49.7069100,14.0898389
1359418256,49.7078742,14.0910049
1359418259,49.7095615,14.0935710
1359418264,49.7104340,14.0952212
120416888,49.7064631,14.0891706
120416894,49.7053926,14.0881983
120416900,49.7045449,14.0876471
120425623,49.7047486,14.0878126
3171280359,49.7043736,14.0874947
10703205,49.7039021,14.0870934
120425645,49.7035133,14.0867800
3171280359,49.7043736,14.0874947
120416806,49.7125452,14.0994748
120416811,49.7109652,14.0960514
120416872,49.7100687,14.0942413
120416876,49.7092028,14.0927183
120416879,49.7084345,14.0915535
120416884,49.7074783,14.0902926
120416888,49.7064631,14.0891706
1164118510,49.7101901,14.0944809
1359418255,49.7069826,14.0897077
1359418257,49.7079527,14.0908972
1359418258,49.7095104,14.0932439
1359418260,49.7096492,14.0934813
1359418266,49.7105755,14.0952496
120416806,49.7125452,14.0994748
275661293,49.7128704,14.1001505
10703209,49.7124409,14.0995616
275661197,49.7127636,14.1002230
10703227,49.7591733,14.1608616
120243612,49.7568604,14.1591247
120244621,49.7581041,14.1599910
120247208,49.7557693,14.1584756
120213134,49.7611638,14.1626683
120213139,49.7603336,14.1617214
120213151,49.7592718,14.1607610
120247212,49.7581673,14.1598683
120247332,49.7569093,14.1589954
120247341,49.7558134,14.1583302
2145235541,49.7626044,14.1646007
10703226,49.7555016,14.1583182
120247208,49.7557693,14.1584756
120247341,49.7558134,14.1583302
120247344,49.7555339,14.1581722
10703229,49.7630983,14.1655655
120213166,49.7625271,14.1647058
10703229,49.7630983,14.1655655
2145235561,49.7632286,14.1657832
120213122,49.7633162,14.1656495
120213127,49.7629027,14.1650081
120213127,49.7629027,14.1650081
2145235541,49.7626044,14.1646007
10703227,49.7591733,14.1608616
10703228,49.7613127,14.1630516
120213159,49.7602607,14.1618789
120213166,49.7625271,14.1647058
120212976,49.7718281,14.1807159
120212982,49.7710622,14.1798277
120212987,49.7697618,14.1780838
120212992,49.7688999,14.1767355
120212998,49.7679255,14.1749816
120213103,49.7669595,14.1730159
120213111,49.7653073,14.1693471
120213118,49.7646170,14.1680039
120213122,49.7633162,14.1656495
3171280360,49.7639948,14.1667996
10703230,49.7652013,14.1694164
10703231,49.7668497,14.1730942
10703232,49.7688054,14.1768365
10703233,49.7709744,14.1799352
120212128,49.7717581,14.1808485
120212134,49.7696834,14.1781856
120212991,49.7678022,14.1750728
120243608,49.7646069,14.1682605
2145235561,49.7632286,14.1657832
2145235578,49.7638385,14.1668016
120195539,49.8155233,14.2199383
120195598,49.8147124,14.2190828
120195608,49.8140549,14.2181163
120195685,49.8134327,14.2167385
120203234,49.8124469,14.2139244
120203302,49.8118210,14.2123676
120203306,49.8109623,14.2106743
120203313,49.8099993,14.2092058
120203319,49.8087876,14.2077372
120203326,49.8059468,14.2044631
120203648,49.8025788,14.2005102
120203654,49.8010097,14.1988062
120203659,49.7997672,14.1976418
120203753,49.7982976,14.1966195
120203759,49.7970338,14.1959734
120203816,49.7957558,14.1955261
120203820,49.7945630,14.1952776
120203825,49.7934091,14.1952337
120203922,49.7916592,14.1953557
120204969,49.7878663,14.1959538
120204972,49.7867565,14.1960233
194479608,49.8021385,14.2000136
1359418270,49.7873103,14.1959969
1359418271,49.7897639,14.1956764
1359418272,49.7925331,14.1952797
1359418275,49.8137095,14.2174327
1997371882,49.8143800,14.2186205
1997371895,49.8150664,14.2194901
2028640631,49.8138691,14.2177786
120205084,49.7835534,14.1953708
120205091,49.7824507,14.1947025
120205187,49.7816555,14.1939925
120205191,49.7810165,14.1932825
120212425,49.7802706,14.1922309
120212433,49.7795114,14.1909003
120212541,49.7783237,14.1885400
120212547,49.7774893,14.1870441
120212666,49.7763618,14.1854430
120212672,49.7751064,14.1840222
120212677,49.7729565,14.1818949
120212679,49.7721019,14.1810168
10703240,49.7866701,14.1961834
10703241,49.7878867,14.1961153
10703242,49.7934263,14.1954007
10703243,49.7957270,14.1957031
10703244,49.7982647,14.1967604
10703245,49.8007336,14.1987199
10703246,49.8024622,14.2006162
10703247,49.8058575,14.2045931
10703248,49.8099079,14.2093315
10703249,49.8117326,14.2124399
29619212,49.8133259,14.2168262
29619213,49.8139372,14.2181885
29619214,49.8154564,14.2200797
120195471,49.8146157,14.2192011
120203148,49.8123468,14.2139904
120203153,49.8108747,14.2107763
120203229,49.8087225,14.2078758
120203332,49.7996802,14.1977538
120203335,49.7970117,14.1961376
120203457,49.7945355,14.1954469
120203468,49.7917549,14.1955231
977895531,49.7896776,14.1958498
1359418269,49.7872779,14.1961597
1359418273,49.7925865,14.1954425
1359418274,49.8136027,14.2175061
1997371894,49.8150024,14.2196526
2028640629,49.8137619,14.2178511
2028640638,49.8144309,14.2189645
2028640644,49.8148109,14.2194442
3632950347,49.8028558,14.2010772
3632950361,49.8002958,14.1983184
10703234,49.7728984,14.1820224
10703235,49.7763071,14.1855615
10703236,49.7782397,14.1886276
10703237,49.7801621,14.1923010
10703238,49.7815902,14.1941249
120203480,49.7835491,14.1955443
120203635,49.7823879,14.1948239
120203640,49.7809100,14.1934032
120212037,49.7794128,14.1909783
120212112,49.7773918,14.1871467
120212117,49.7750245,14.1841401
120212125,49.7720289,14.1811300
120212679,49.7721019,14.1810168
120212976,49.7718281,14.1807159
120212125,49.7720289,14.1811300
120212128,49.7717581,14.1808485
10703239,49.7858485,14.1961498
120203473,49.7846357,14.1959361
120203646,49.7840225,14.1957385
1359418268,49.7852392,14.1960619
120204976,49.7858646,14.1959845
120205073,49.7846789,14.1957862
120205079,49.7840638,14.1955919
1359418267,49.7852285,14.1959064
120203480,49.7835491,14.1955443
120203646,49.7840225,14.1957385
120205079,49.7840638,14.1955919
120205084,49.7835534,14.1953708
10703239,49.7858485,14.1961498
10703240,49.7866701,14.1961834
120204972,49.7867565,14.1960233
120204976,49.7858646,14.1959845
29619214,49.8154564,14.2200797
120195468,49.8175196,14.2218362
1824762785,49.8165580,14.2210310
2028640672,49.8160030,14.2205622
2028640729,49.8170324,14.2214488
120195483,49.8175838,14.2216988
120195539,49.8155233,14.2199383
1824762788,49.8165522,14.2208660
2028640674,49.8160362,14.2204078
2028640733,49.8170656,14.2212944
120195198,49.8289797,14.2340419
120195294,49.8247018,14.2291516
120195296,49.8209945,14.2249321
120195478,49.8190353,14.2229122
120195483,49.8175838,14.2216988
194462860,49.8180262,14.2220501
194462893,49.8187603,14.2226670
2028542998,49.8199346,14.2237619
2028640911,49.8204656,14.2243331
29619215,49.8209100,14.2250198
29619216,49.8245907,14.2292895
29619217,49.8288889,14.2341197
120195301,49.8189775,14.2230778
120195468,49.8175196,14.2218362
194462853,49.8198628,14.2239089
2028640795,49.8182527,14.2224432
10703258,49.8398335,14.2462466
10703259,49.8424157,14.2479696
10703260,49.8458080,14.2496477
10703261,49.8502702,14.2520348
10703262,49.8537656,14.2543982
10703263,49.8568203,14.2574799
10703264,49.8578550,14.2591695
10703265,49.8591362,14.2618836
10703266,49.8611739,14.2656422
10703267,49.8637788,14.2682515
10703268,49.8623161,14.2669747
10703269,49.8665131,14.2694496
10703270,49.8676256,14.2696073
114308904,49.8657608,14.2692740
114308905,49.8647756,14.2688676
114314977,49.8602090,14.2640431
114320773,49.8559153,14.2563540
114320784,49.8548083,14.2552415
114320883,49.8526045,14.2535751
114325936,49.8410815,14.2471741
275014850,49.8404665,14.2467339
275028824,49.8667444,14.2695025
287584918,49.8684588,14.2696376
977906604,49.8629350,14.2675916
1982567372,49.8394804,14.2459014
114308908,49.8676401,14.2697979
114308944,49.8667558,14.2697064
114308947,49.8657463,14.2694585
114308993,49.8647053,14.2690173
114309091,49.8636568,14.2683262
114316558,49.8622500,14.2671073
114316562,49.8610741,14.2657023
114316637,49.8600951,14.2640899
114316642,49.8590289,14.2619203
114320887,49.8577514,14.2592479
114321074,49.8566974,14.2575940
114321079,49.8558062,14.2564458
114321084,49.8547351,14.2553660
114321089,49.8536811,14.2545348
114321272,49.8525414,14.2537293
114325546,49.8502425,14.2522226
114325549,49.8457423,14.2498408
114325552,49.8423542,14.2481055
114325631,49.8410028,14.2473259
114325638,49.8397705,14.2463998
287584910,49.8684331,14.2698248
833361171,49.8606606,14.2650212
977906313,49.8628584,14.2676754
1982567371,49.8394267,14.2460868
29619217,49.8288889,14.2341197
29745960,49.8390444,14.2457044
114325641,49.8370098,14.2434986
114332446,49.8306277,14.2361838
275014237,49.8388513,14.2455045
275014355,49.8375679,14.2441004
1982567368,49.8392860,14.2459454
10703257,49.8370756,14.2433780
29745946,49.8307251,14.2360995
120195198,49.8289797,14.2340419
275014653,49.8379101,14.2442490
977900714,49.8392653,14.2456911
1982567370,49.8393352,14.2457595
1982567370,49.8393352,14.2457595
1982567372,49.8394804,14.2459014
1982567368,49.8392860,14.2459454
1982567371,49.8394267,14.2460868
114212696,49.9083750,14.3345427
114223350,49.9068540,14.3329849
114223352,49.9017376,14.3262783
114223430,49.9001224,14.3237839
114223460,49.8986043,14.3208782
114223462,49.8975354,14.3184775
114223488,49.8963500,14.3153538
114223520,49.8949854,14.3111947
114223522,49.8923094,14.3024220
114223554,49.8915253,14.2994700
114301642,49.8906450,14.2954777
114301685,49.8897193,14.2903172
114301686,49.8892409,14.2882688
114301766,49.8888841,14.2870807
114301770,49.8882900,14.2855219
114304617,49.8874104,14.2837453
114304618,49.8860446,14.2816184
114304622,49.8844441,14.2796282
114304623,49.8826235,14.2776400
114304624,49.8804354,14.2753601
114304705,49.8778805,14.2730726
114304734,49.8758007,14.2715002
114304787,49.8747922,14.2709368
114308897,49.8735404,14.2704154
114308900,49.8723814,14.2701129
114308903,49.8711519,14.2698880
275028871,49.8702320,14.2698668
287584904,49.8687136,14.2698248
494514836,49.8901826,14.2929658
568110518,49.8768608,14.2722611
568110522,49.8792497,14.2742397
568114394,49.8867577,14.2826655
568114396,49.8931393,14.3051425
568114415,49.9059343,14.3318711
568114421,49.9077518,14.3339585
568114425,49.9089851,14.3350712
2006933132,49.8852547,14.2805978
2006933280,49.8895195,14.2893349
2082721101,49.8979977,14.3195409
2083676214,49.9056525,14.3314955
2083676229,49.9061089,14.3320825
2107860951,49.8930576,14.3048746
2107860982,49.8933462,14.3058206
10703271,49.8711654,14.2697418
10703726,49.8728122,14.2700050
10703727,49.8758521,14.2713393
10703728,49.8779722,14.2729501
10703729,49.8805173,14.2751996
10703730,49.8860857,14.2814584
10703731,49.8874830,14.2836168
10703732,49.8894492,14.2885685
10703733,49.8897858,14.2899194
10703735,49.8909196,14.2961924
10703737,49.8924193,14.3023960
10703738,49.8951237,14.3111506
10703739,49.8964583,14.3153282
10703740,49.8986402,14.3207104
10703741,49.9002207,14.3236963
10703742,49.9018014,14.3261977
10703743,49.9069052,14.3328746
10703744,49.9084431,14.3344515
114223248,49.8975090,14.3181412
114223574,49.8916821,14.2995405
114301723,49.8889951,14.2870167
114301764,49.8883882,14.2854070
114304594,49.8845299,14.2794320
114304614,49.8827111,14.2775006
114304615,49.8748559,14.2707677
114308893,49.8735646,14.2702494
275028852,49.8707733,14.2697025
287584895,49.8687250,14.2696457
290165408,49.8901638,14.2922469
568110512,49.8713951,14.2697785
568110517,49.8769414,14.2720919
568110521,49.8793113,14.2740852
568114391,49.8868477,14.2825184
568114395,49.8932202,14.3050134
568114407,49.8983556,14.3200607
568114413,49.8991005,14.3215755
568114416,49.9060125,14.3317406
568114423,49.9077943,14.3338502
568114424,49.9091105,14.3349833
1922642736,49.8776683,14.2726971
1924253899,49.8792337,14.2740194
1924253982,49.8810950,14.2758055
2082721071,49.8976584,14.3184806
2082721108,49.8981315,14.3195550
2083676215,49.9056756,14.3312971
2083676231,49.9062264,14.3320123
2107860949,49.8929788,14.3042243
2107860985,49.8933973,14.3055844
2108040336,49.8849179,14.2799109
287584895,49.8687250,14.2696457
287584918,49.8684588,14.2696376
287584904,49.8687136,14.2698248
287584910,49.8684331,14.2698248
10703745,49.9108806,14.3361922
10703746,49.9135640,14.3371193
10703747,49.9161332,14.3372947
10703748,49.9180003,14.3369904
10703749,49.9216893,14.3359474
10703751,49.9228133,14.3359323
10703752,49.9243694,14.3363509
25697509,49.9235182,14.3360252
114211811,49.9093986,14.3352011
114211854,49.9121450,14.3367216
114211860,49.9150280,14.3373090
114211865,49.9203773,14.3362663
494506627,49.9223155,14.3359320
568114426,49.9200181,14.3363812
114212003,49.9234746,14.3362091
114212145,49.9226053,14.3360764
114212181,49.9217160,14.3360963
114212186,49.9204220,14.3364281
114212216,49.9180662,14.3371381
114212460,49.9161683,14.3374633
114212465,49.9150136,14.3374633
114212467,49.9135272,14.3372841
114212469,49.9120938,14.3368926
114212515,49.9108197,14.3363219
114212544,49.9092775,14.3352845
765371408,49.9214047,14.3361761
114212544,49.9092775,14.3352845
568114425,49.9089851,14.3350712
114211811,49.9093986,14.3352011
568114424,49.9091105,14.3349833
114212002,49.9245231,14.3365668
114212003,49.9234746,14.3362091